<?xml version="1.0" encoding="utf-8"?>
<!-- Generator: Adobe Illustrator 24.1.1, SVG Export Plug-In . SVG Version: 6.00 Build 0)  -->
<svg version="1.1" id="Capa_1" xmlns="http://www.w3.org/2000/svg" xmlns:xlink="http://www.w3.org/1999/xlink" x="0px" y="0px"
	 width="117.0217px" height="45.6088px" viewBox="0 0 117.0217 45.6088" style="enable-background:new 0 0 117.0217 45.6088;"
	 xml:space="preserve">
<style type="text/css">
	.st0{fill:#82027E;}
	.st1{fill:#FFFFFF;}
	.st2{fill:#009193;}
</style>
<g>
	<path class="st0" d="M63.7679,0.5706c-0.2968,0.2968-0.5428,0.5404-0.5477,0.5453s-0.1062-0.0193-0.222-0.0507
		c-0.1182-0.0338-0.4849-0.1206-0.8179-0.1978c-0.3305-0.0748-0.62-0.1472-0.6418-0.1592s-0.3426-0.0917-0.7117-0.1785
		c-0.3715-0.0893-0.7696-0.1882-0.8903-0.2244c-0.374-0.1086-0.6611-0.0724-0.9675,0.123
		c-0.0555,0.0338-1.4355,1.3969-3.0665,3.0254c-2.6201,2.6177-2.9748,2.9796-3.0375,3.1075
		c-0.0627,0.1327-0.07,0.1713-0.0772,0.4439c-0.0097,0.3305,0.0145,0.4294,0.1496,0.6297c0.0386,0.0603,1.0181,1.0519,2.1738,2.2076
		c1.8022,1.7998,2.1207,2.1086,2.2462,2.1714c0.1375,0.07,0.152,0.0724,0.4801,0.0724c0.3209,0,0.345-0.0024,0.4825-0.07
		c0.1303-0.0603,0.4584-0.3812,3.0954-3.023c1.6237-1.6261,2.9844-2.9989,3.0206-3.052c0.0386-0.0531,0.0989-0.1713,0.1351-0.2654
		c0.0917-0.2389,0.0893-0.415-0.0097-0.7793c-0.041-0.1592-0.1423-0.5549-0.222-0.8806c-0.0796-0.3257-0.193-0.7817-0.2509-1.0133
		c-0.0579-0.2316-0.152-0.6176-0.2099-0.8565S63.77,1.6998,63.7652,1.6877c-0.0024-0.0145,0.222-0.2533,0.5018-0.5308
		c0.2799-0.2799,0.526-0.5356,0.5453-0.5718c0.0483-0.0941,0.0434-0.3305-0.0097-0.4126c-0.0772-0.1158-0.1255-0.1351-0.3161-0.1375
		h-0.1809L63.7679,0.5706L63.7679,0.5706z M59.9777,1.1014c0.2075,0.041,0.374,0.082,0.3691,0.0893s0.0169,0.0169,0.0434,0.0193
		c0.0772,0.0048,1.5996,0.3764,1.9253,0.4656l0.2775,0.0796l-0.386,0.3812c-0.2147,0.2075-0.3957,0.386-0.4029,0.3933
		c-0.0072,0.0097-0.0603,0-0.1158-0.0217c-0.7117-0.2509-1.4789,0.3474-1.4186,1.1074c0.0169,0.2268,0.0724,0.3812,0.2002,0.5621
		c0.2027,0.2847,0.5018,0.4294,0.8782,0.427c0.4608-0.0024,0.7817-0.2147,0.9964-0.6611c0.07-0.1448,0.0772-0.1737,0.0748-0.3981
		c-0.0024-0.1616-0.0145-0.275-0.0434-0.3474c-0.0217-0.0579-0.0338-0.1134-0.0241-0.1206
		c0.0072-0.0072,0.1858-0.1906,0.3957-0.4029l0.3812-0.3884l0.0362,0.1351c0.0555,0.2171,0.2726,1.0881,0.3884,1.5586
		c0.0603,0.2389,0.1255,0.4946,0.1448,0.567c0.0579,0.1954,0.1592,0.7166,0.1592,0.8058c0,0.0458-0.0241,0.1158-0.0555,0.1616
		s-1.3462,1.3704-2.9193,2.9458c-3.0833,3.0833-2.9313,2.9434-3.1316,2.8903c-0.1255-0.0338-4.1835-4.0918-4.2197-4.2197
		c-0.0531-0.1978-0.1978-0.0434,2.9145-3.1533c1.5875-1.5875,2.9217-2.9024,2.9603-2.9193
		C59.5096,1.0121,59.5579,1.0145,59.9777,1.1014L59.9777,1.1014z M61.4952,3.2559c0.2847,0.1472,0.1737,0.6152-0.1472,0.6152
		c-0.2606,0-0.4246-0.2823-0.2895-0.5018C61.143,3.2317,61.3456,3.1811,61.4952,3.2559z"/>
	<path class="st0" d="M57.524,4.0014c-0.2823,0.0893-0.5284,0.304-0.6659,0.5814c-0.0796,0.1641-0.082,0.1761-0.082,0.4584
		c0,0.2775,0.0024,0.2968,0.0772,0.4487c0.111,0.2244,0.3185,0.4343,0.5211,0.5308c0.2364,0.1086,0.468,0.1375,0.6828,0.0869
		c0.2485-0.0627,0.3667-0.1303,0.5404-0.3064c0.2678-0.2726,0.374-0.5718,0.3209-0.9144c-0.029-0.1785-0.1327-0.4126-0.2437-0.5453
		c-0.1062-0.1279-0.3257-0.2775-0.4849-0.3257C58.0138,3.9603,57.6784,3.9531,57.524,4.0014L57.524,4.0014z M58.0379,4.7782
		c0.0651,0.0434,0.1255,0.1713,0.1255,0.2678c0,0.1037-0.0796,0.2316-0.1713,0.2775c-0.2268,0.1158-0.4584-0.0265-0.4632-0.2847
		C57.5265,4.7855,57.8184,4.6359,58.0379,4.7782z M59.7195,6.2137c-0.2123,0.0241-0.5911,0.0724-0.8444,0.1062
		c-0.2509,0.0314-1.023,0.1182-1.713,0.193c-0.69,0.0724-1.3004,0.1375-1.3583,0.1472c-0.1351,0.0169-0.2847,0.1472-0.3185,0.2775
		c-0.0531,0.1954,0.0844,0.4343,0.2726,0.4681c0.0796,0.0145,0.8734-0.0651,2.0073-0.2051
		c0.2123-0.0241,0.5332-0.0579,0.7117-0.0724c0.526-0.041,1.4862-0.1448,1.7709-0.193c0.2195-0.0362,0.2726-0.0555,0.3329-0.1134
		c0.152-0.1423,0.1785-0.2895,0.0844-0.4656C60.5567,6.1486,60.4337,6.1317,59.7195,6.2137L59.7195,6.2137z M58.132,7.4804
		c-0.3474,0.0844-0.6297,0.304-0.7696,0.6007c-0.1255,0.2726-0.123,0.6611,0.0097,0.9458c0.0748,0.1616,0.3112,0.3884,0.5091,0.4849
		c0.3233,0.1592,0.5959,0.1592,0.9096,0.0024c0.4126-0.2075,0.6321-0.5453,0.6321-0.9747c0-0.2389-0.0531-0.4053-0.1954-0.608
		c-0.1761-0.2485-0.374-0.3812-0.6828-0.4536C58.3636,7.4345,58.313,7.4345,58.132,7.4804L58.132,7.4804z M58.5036,8.2524
		c0.0941,0.0483,0.1761,0.2244,0.1568,0.3329c-0.0241,0.1303-0.1013,0.2268-0.2051,0.2582
		c-0.1351,0.041-0.2606,0.0097-0.3571-0.0869c-0.07-0.07-0.0796-0.0941-0.0796-0.2099c0-0.0796,0.0145-0.1496,0.0386-0.1858
		C58.1537,8.2235,58.3564,8.1752,58.5036,8.2524L58.5036,8.2524z"/>
</g>
<g>
	<path class="st1" d="M115.0001,0.5156c-0.2968,0.2968-0.5428,0.5404-0.5477,0.5453c-0.0048,0.0048-0.1062-0.0193-0.222-0.0507
		c-0.1182-0.0338-0.4849-0.1206-0.8179-0.1978c-0.3305-0.0748-0.62-0.1472-0.6418-0.1592
		c-0.0217-0.0121-0.3426-0.0917-0.7117-0.1785c-0.3716-0.0893-0.7696-0.1882-0.8903-0.2244
		c-0.374-0.1086-0.6611-0.0724-0.9675,0.123c-0.0555,0.0338-1.4355,1.3969-3.0665,3.0254
		c-2.6201,2.6177-2.9748,2.9796-3.0375,3.1075c-0.0627,0.1327-0.07,0.1713-0.0772,0.4439
		c-0.0097,0.3305,0.0145,0.4294,0.1496,0.6297c0.0386,0.0603,1.0181,1.0519,2.1738,2.2076
		c1.8022,1.7998,2.1207,2.1086,2.2462,2.1714c0.1375,0.07,0.152,0.0724,0.4801,0.0724c0.3209,0,0.345-0.0024,0.4825-0.07
		c0.1303-0.0603,0.4584-0.3812,3.0954-3.023c1.6237-1.6261,2.9844-2.9989,3.0206-3.052c0.0386-0.0531,0.0989-0.1713,0.1351-0.2654
		c0.0917-0.2389,0.0893-0.415-0.0097-0.7793c-0.041-0.1592-0.1423-0.5549-0.222-0.8806c-0.0796-0.3257-0.193-0.7817-0.2509-1.0133
		c-0.0579-0.2316-0.152-0.6176-0.2099-0.8565s-0.1086-0.4463-0.1134-0.4584c-0.0024-0.0145,0.222-0.2533,0.5018-0.5308
		c0.2799-0.2799,0.526-0.5356,0.5453-0.5718c0.0483-0.0941,0.0434-0.3305-0.0097-0.4126c-0.0772-0.1158-0.1255-0.1351-0.3161-0.1375
		h-0.1809L115.0001,0.5156L115.0001,0.5156z M111.2098,1.0464c0.2075,0.041,0.374,0.082,0.3691,0.0893
		c-0.0048,0.0072,0.0169,0.0169,0.0434,0.0193c0.0772,0.0048,1.5996,0.3764,1.9253,0.4656l0.2775,0.0796l-0.386,0.3812
		c-0.2147,0.2075-0.3957,0.386-0.4029,0.3933c-0.0072,0.0097-0.0603,0-0.1158-0.0217c-0.7117-0.2509-1.4789,0.3474-1.4186,1.1074
		c0.0169,0.2268,0.0724,0.3812,0.2002,0.5621c0.2027,0.2847,0.5018,0.4294,0.8782,0.427c0.4608-0.0024,0.7817-0.2147,0.9964-0.6611
		c0.07-0.1448,0.0772-0.1737,0.0748-0.3981c-0.0024-0.1616-0.0145-0.275-0.0434-0.3474c-0.0217-0.0579-0.0338-0.1134-0.0241-0.1206
		c0.0072-0.0072,0.1858-0.1906,0.3957-0.4029l0.3812-0.3884l0.0362,0.1351c0.0555,0.2171,0.2726,1.0881,0.3884,1.5586
		c0.0603,0.2389,0.1255,0.4946,0.1448,0.567c0.0579,0.1954,0.1592,0.7166,0.1592,0.8058c0,0.0458-0.0241,0.1158-0.0555,0.1616
		c-0.0314,0.0458-1.3462,1.3704-2.9193,2.9458c-3.0833,3.0833-2.9314,2.9434-3.1316,2.8903
		c-0.1255-0.0338-4.1835-4.0918-4.2197-4.2197c-0.0531-0.1978-0.1978-0.0434,2.9145-3.1533
		c1.5875-1.5875,2.9217-2.9024,2.9603-2.9193C110.7418,0.9572,110.79,0.9596,111.2098,1.0464L111.2098,1.0464z M112.7274,3.2009
		c0.2847,0.1472,0.1737,0.6152-0.1472,0.6152c-0.2606,0-0.4246-0.2823-0.2895-0.5018
		C112.3751,3.1768,112.5778,3.1261,112.7274,3.2009z"/>
	<path class="st1" d="M108.7562,3.9464c-0.2823,0.0893-0.5284,0.304-0.6659,0.5814c-0.0796,0.1641-0.082,0.1761-0.082,0.4584
		c0,0.2775,0.0024,0.2968,0.0772,0.4487c0.111,0.2244,0.3185,0.4343,0.5211,0.5308c0.2364,0.1086,0.468,0.1375,0.6828,0.0869
		c0.2485-0.0627,0.3667-0.1303,0.5404-0.3064c0.2678-0.2726,0.374-0.5718,0.3209-0.9144c-0.029-0.1785-0.1327-0.4126-0.2437-0.5453
		c-0.1062-0.1279-0.3257-0.2775-0.4849-0.3257C109.2459,3.9054,108.9106,3.8982,108.7562,3.9464L108.7562,3.9464z M109.2701,4.7233
		c0.0651,0.0434,0.1255,0.1713,0.1255,0.2678c0,0.1037-0.0796,0.2316-0.1713,0.2775c-0.2268,0.1158-0.4584-0.0265-0.4632-0.2847
		C108.7586,4.7305,109.0505,4.5809,109.2701,4.7233z M110.9517,6.1588c-0.2123,0.0241-0.5911,0.0724-0.8444,0.1062
		c-0.2509,0.0314-1.023,0.1182-1.713,0.193c-0.69,0.0724-1.3004,0.1375-1.3583,0.1472c-0.1351,0.0169-0.2847,0.1472-0.3185,0.2775
		c-0.0531,0.1954,0.0844,0.4343,0.2726,0.4681c0.0796,0.0145,0.8734-0.0651,2.0073-0.2051
		c0.2123-0.0241,0.5332-0.0579,0.7117-0.0724c0.526-0.041,1.4862-0.1448,1.7709-0.193c0.2196-0.0362,0.2726-0.0555,0.3329-0.1134
		c0.152-0.1423,0.1785-0.2895,0.0844-0.4656C111.7888,6.0936,111.6658,6.0768,110.9517,6.1588L110.9517,6.1588z M109.3642,7.4254
		c-0.3474,0.0844-0.6297,0.304-0.7696,0.6007c-0.1255,0.2726-0.123,0.6611,0.0096,0.9458c0.0748,0.1616,0.3112,0.3884,0.5091,0.4849
		c0.3233,0.1592,0.5959,0.1592,0.9096,0.0024c0.4126-0.2075,0.6321-0.5453,0.6321-0.9747c0-0.2389-0.0531-0.4053-0.1954-0.608
		c-0.1761-0.2485-0.374-0.3812-0.6828-0.4536C109.5958,7.3796,109.5451,7.3796,109.3642,7.4254L109.3642,7.4254z M109.7357,8.1975
		c0.0941,0.0483,0.1761,0.2244,0.1568,0.3329c-0.0241,0.1303-0.1013,0.2268-0.2051,0.2582
		c-0.1351,0.041-0.2606,0.0097-0.3571-0.0869c-0.07-0.07-0.0796-0.0941-0.0796-0.2099c0-0.0796,0.0145-0.1496,0.0386-0.1858
		C109.3859,8.1685,109.5885,8.1203,109.7357,8.1975L109.7357,8.1975z"/>
</g>
<g>
	<g>
		<path class="st0" d="M69.6455,0.1188c-0.2343,0.0908-0.4685,0.3036-0.5761,0.5235l-0.055,0.1123l-0.0072,2.5338l-0.0048,2.5338
			l0.0693,0.1434c0.0861,0.1745,0.2845,0.3825,0.447,0.4709c0.2271,0.1243,0.3442,0.1386,1.0422,0.1386h0.6382l0.0072,0.9753
			l0.0072,0.9729L71.29,8.6811c0.098,0.1984,0.3108,0.404,0.5163,0.4996l0.1506,0.0717l4.1474-0.0048l4.145-0.0072l0.1434-0.0693
			c0.1745-0.0861,0.4112-0.3155,0.49-0.4805l0.0598-0.1195l0.0072-2.5338l0.0048-2.5338l-0.0717-0.1482
			c-0.0861-0.1745-0.2797-0.3777-0.4446-0.4661c-0.227-0.1242-0.3442-0.1385-1.0422-0.1385h-0.6382l-0.0072-0.9753l-0.0072-0.9729
			l-0.0645-0.1386c-0.0908-0.196-0.3012-0.404-0.5044-0.5068l-0.1673-0.0837h-4.1259C69.9682,0.0758,69.7507,0.0782,69.6455,0.1188
			L69.6455,0.1188z M77.9355,0.7164c0.1482,0.0693,0.1841,0.153,0.1984,0.4757l0.0119,0.2677h-8.5457v-0.251
			c0-0.2677,0.0191-0.3394,0.1243-0.4351c0.0287-0.0287,0.0813-0.0622,0.1147-0.0765c0.0382-0.0143,1.4486-0.0239,4.0279-0.0239
			C77.7156,0.671,77.8375,0.6734,77.9355,0.7164L77.9355,0.7164z M78.1458,2.404v0.3466h-8.5457V2.0574h8.5457V2.404z
			 M71.2734,3.3769c0,0.0048-0.0167,0.0598-0.0359,0.1243c-0.0287,0.098-0.0359,0.3203-0.0359,1.286v1.1689L70.5395,5.949
			c-0.6359-0.0072-0.6669-0.0096-0.7482-0.0598c-0.0478-0.0287-0.11-0.0956-0.1386-0.1458
			c-0.0526-0.0932-0.0526-0.1028-0.0526-1.2335V3.3722h0.8366C70.8981,3.3722,71.2734,3.3746,71.2734,3.3769z M80.1347,3.4224
			C80.204,3.4558,80.259,3.506,80.2972,3.573l0.0598,0.1028v4.7091l-0.0526,0.0789c-0.0311,0.043-0.0861,0.1028-0.1219,0.1291
			L80.1156,8.643l-3.9944,0.0072c-3.894,0.0048-3.9944,0.0048-4.0948-0.0406c-0.0765-0.0335-0.1171-0.0717-0.1554-0.1434
			c-0.0478-0.098-0.0478-0.11-0.043-2.4741c0.0072-2.357,0.0072-2.3785,0.0574-2.4454c0.0263-0.0359,0.0956-0.0908,0.153-0.1219
			l0.1052-0.0526h7.8884L80.1347,3.4224z"/>
		<path class="st0" d="M74.9307,4.651c-0.3872,0.0884-0.7554,0.3753-0.937,0.7339c-0.2271,0.4446-0.1912,1.047,0.0837,1.4223
			c0.4255,0.5737,1.1665,0.7697,1.7593,0.4614c0.0741-0.0382,0.1602-0.0884,0.1936-0.11c0.0574-0.0359,0.0645-0.0335,0.2008,0.0478
			c0.2725,0.1649,0.3753,0.1912,0.7076,0.1912c0.2486,0,0.3227-0.0072,0.4398-0.0526c0.4111-0.153,0.7434-0.4853,0.8845-0.8868
			c0.0669-0.1912,0.0813-0.5952,0.0263-0.7817c-0.1888-0.6574-0.8151-1.1115-1.4462-1.0518
			c-0.2247,0.0191-0.4446,0.0932-0.612,0.2008l-0.141,0.0932l-0.1219-0.0813C75.6885,4.651,75.263,4.5769,74.9307,4.651
			L74.9307,4.651z M75.5618,5.3156c0.1124,0.0526,0.1363,0.0717,0.1219,0.1052c-0.1076,0.2821-0.1171,0.3347-0.1171,0.6048
			c0,0.2343,0.0096,0.3012,0.0622,0.4494l0.0621,0.1745L75.6383,6.683c-0.1769,0.1171-0.4733,0.141-0.7004,0.055
			c-0.1817-0.0669-0.3849-0.2677-0.4446-0.4398c-0.153-0.4351,0.0813-0.8916,0.5331-1.0398
			C75.1435,5.22,75.416,5.2486,75.5618,5.3156L75.5618,5.3156z M77.2805,5.318c0.2606,0.1267,0.4255,0.3705,0.4422,0.6598
			c0.012,0.2367-0.0526,0.4183-0.208,0.5737c-0.1769,0.1769-0.306,0.2271-0.5761,0.2271c-0.208,0-0.239-0.0072-0.3586-0.0717
			c-0.2486-0.1363-0.3873-0.3394-0.4207-0.6119c-0.0382-0.3394,0.1888-0.6861,0.5355-0.8175
			C76.8574,5.2176,77.1108,5.2343,77.2805,5.318L77.2805,5.318z"/>
	</g>
</g>
<g>
	<path class="st0" d="M85.8482,30.1573c-0.2405,0.1397-0.5354,0.4617-0.6013,0.6518c-0.0621,0.194-0.0233,0.7022,0.0815,1.0397
		c0.4306,1.3889,1.8545,2.7545,3.224,3.0998c0.1397,0.0349,0.3841,0.0621,0.5432,0.0621c0.2522,0,0.3142-0.0155,0.4656-0.1086
		c0.3259-0.2095,0.6169-0.613,0.6169-0.8613c0-0.066-0.0272-0.1707-0.0582-0.2289c-0.1474-0.291-1.0553-0.935-1.3113-0.935
		c-0.1397,0-0.2716,0.1203-0.4733,0.4462c-0.097,0.1591-0.2017,0.291-0.225,0.291c-0.0776,0-0.3802-0.1901-0.6401-0.3996
		c-0.3569-0.2871-0.8613-0.9389-0.8613-1.1057c0-0.0194,0.1397-0.128,0.3104-0.2367c0.3336-0.2173,0.4268-0.3181,0.4268-0.4617
		c0-0.2561-0.644-1.16-0.935-1.3074C86.2439,30.0138,86.0655,30.0332,85.8482,30.1573z M86.3758,30.4561
		c0.2444,0.2211,0.6595,0.8147,0.6595,0.9427c0,0.0233-0.1474,0.1397-0.3259,0.2561c-0.3375,0.225-0.4423,0.3608-0.3996,0.5315
		c0.0388,0.1435,0.3142,0.5781,0.516,0.807c0.3647,0.4151,0.9427,0.8496,1.2143,0.9195c0.1591,0.0388,0.322-0.0892,0.5393-0.4151
		c0.1086-0.1707,0.2211-0.3104,0.2405-0.3104c0.1668,0,0.9389,0.5742,1.0514,0.7837c0.0543,0.1009-0.0737,0.3259-0.3065,0.5431
		c-0.2289,0.2134-0.3181,0.2444-0.6324,0.2095c-1.4044-0.1591-3.0494-1.7148-3.3908-3.2046
		c-0.0892-0.388-0.0776-0.547,0.0543-0.7216c0.1358-0.1901,0.2987-0.3375,0.45-0.4151
		C86.2013,30.297,86.2013,30.297,86.3758,30.4561z"/>
</g>
<g>
	<path class="st0" d="M98.5428,32.1844c0-0.0745-0.0239-0.1357-0.0718-0.1835l-0.3631-0.3591
		c-0.0505-0.0505-0.1104-0.0758-0.1796-0.0758s-0.129,0.0253-0.1796,0.0758l-1.628,1.624l-0.9018-0.9018
		c-0.0505-0.0505-0.1104-0.0758-0.1796-0.0758s-0.129,0.0253-0.1796,0.0758l-0.3631,0.3591
		c-0.0479,0.0479-0.0718,0.1091-0.0718,0.1835c0,0.0718,0.0239,0.1317,0.0718,0.1796l1.4444,1.4444
		c0.0505,0.0505,0.1104,0.0758,0.1796,0.0758c0.0718,0,0.133-0.0253,0.1835-0.0758l2.1666-2.1666
		C98.5189,32.316,98.5428,32.2562,98.5428,32.1844z M99.5483,32.8307c0,0.556-0.137,1.0687-0.411,1.5382
		s-0.6457,0.8412-1.1152,1.1152c-0.4695,0.274-0.9822,0.411-1.5382,0.411s-1.0687-0.137-1.5382-0.411s-0.8412-0.6457-1.1152-1.1152
		s-0.411-0.9822-0.411-1.5382s0.137-1.0687,0.411-1.5382s0.6457-0.8412,1.1152-1.1152c0.4695-0.274,0.9822-0.411,1.5382-0.411
		s1.0687,0.137,1.5382,0.411s0.8412,0.6457,1.1152,1.1152C99.4113,31.7621,99.5483,32.2748,99.5483,32.8307z"/>
</g>
<g>
	<g>
		<path class="st2" d="M76.2763,20.25l1.5648,1.1139c0.0695,0.0495,0.1628,0.0495,0.2324,0l1.5648-1.1139
			c0.326-0.2309,0.5205-0.6049,0.5224-1.0043v-2.37c0.0001-0.0798-0.0471-0.152-0.1202-0.1839l-2.003-0.8653
			c-0.0506-0.0218-0.108-0.0218-0.1586,0l-2.003,0.8653c-0.0731,0.0319-0.1203,0.1041-0.1202,0.1839v2.37
			C75.7571,19.6448,75.951,20.0187,76.2763,20.25L76.2763,20.25z M76.1546,17.0073l1.8027-0.7786l1.8027,0.7786v2.2384
			c-0.0015,0.2704-0.1334,0.5233-0.3543,0.6792l-1.4484,1.03l-1.4484-1.0312c-0.2206-0.1556-0.3526-0.4081-0.3543-0.678V17.0073z"/>
		<path class="st2" d="M77.4365,19.7046c0.0865,0.0649,0.209,0.0494,0.2766-0.0351l1.6024-2.003
			c0.0691-0.0864,0.0552-0.2125-0.0312-0.2816c-0.0864-0.0691-0.2125-0.0551-0.2816,0.0312l-1.4822,1.8516l-0.6448-0.4845
			c-0.0885-0.0664-0.2141-0.0484-0.2804,0.0401c-0.0664,0.0885-0.0484,0.214,0.0401,0.2804L77.4365,19.7046L77.4365,19.7046z"/>
		<path class="st2" d="M69.3443,25.5534h0.2003v0.8012c0,0.3319,0.269,0.6009,0.6009,0.6009h1.2018
			c0.3319,0,0.6009-0.269,0.6009-0.6009v-0.8012h4.8072v0.8012c0,0.3319,0.269,0.6009,0.6009,0.6009h1.2018
			c0.3319,0,0.6009-0.269,0.6009-0.6009v-0.8012h0.2003c0.2212,0,0.4006-0.1794,0.4006-0.4006v-3.0045
			c0.0007-0.2903-0.1258-0.5663-0.3463-0.7551l0.689-0.4903c0.537-0.3814,0.8569-0.9985,0.8591-1.6571v-2.8966
			c0.0001-0.0798-0.0471-0.152-0.1202-0.1839l-2.8042-1.2114c-0.0506-0.0218-0.108-0.0218-0.1586,0l-2.8058,1.2114
			c-0.0731,0.0319-0.1203,0.1041-0.1202,0.1839v0.7916h-3.0306c-0.4247,0.0001-0.8031,0.2681-0.9442,0.6686l-1.1798,3.3522
			c-0.4898,0.0721-0.8531,0.4916-0.8545,0.9867v3.0045C68.9437,25.374,69.1231,25.5534,69.3443,25.5534z M71.5476,26.3546
			c0,0.1106-0.0897,0.2003-0.2003,0.2003h-1.2018c-0.1106,0-0.2003-0.0897-0.2003-0.2003v-0.8012h1.6024V26.3546z M70.7464,25.1528
			h-0.4006v-0.4006h0.4006V25.1528z M78.7585,26.3546c0,0.1106-0.0897,0.2003-0.2003,0.2003h-1.2018
			c-0.1106,0-0.2003-0.0897-0.2003-0.2003v-0.8012h1.6024V26.3546z M78.3579,25.1528h-0.4006v-0.4006h0.4006V25.1528z
			 M75.3533,16.4807l2.6039-1.1249l2.6039,1.1249v2.7642c-0.002,0.5291-0.2593,1.0247-0.6908,1.3308l-1.9131,1.3627l-1.9131-1.3621
			c-0.4315-0.3061-0.6888-0.8016-0.6908-1.3306L75.3533,16.4807L75.3533,16.4807z M78.3579,22.3485
			c0.1106,0,0.2003,0.0897,0.2003,0.2003v0.4006c0,0.1106-0.0897,0.2003-0.2003,0.2003h-1.2018
			c-0.1106,0-0.2003-0.0897-0.2003-0.2003c0-0.3319,0.269-0.6009,0.6009-0.6009H78.3579z M74.9528,18.3425v0.4006h-1.4021v-0.4006
			H74.9528z M74.9528,17.9419h-0.4006v-0.4006h0.4006V17.9419z M71.3559,17.9419c0.0848-0.24,0.3117-0.4005,0.5663-0.4006h2.2294
			v0.4006h-0.6009c-0.2212,0-0.4006,0.1794-0.4006,0.4006v0.4006c0,0.2212,0.1794,0.4006,0.4006,0.4006h1.4021v0.102
			c0.0022,0.6586,0.3221,1.2757,0.8591,1.6571l0.3427,0.244H70.228C70.228,21.1467,71.3559,17.9419,71.3559,17.9419z
			 M69.3443,22.1482c0-0.3319,0.269-0.6009,0.6009-0.6009h6.7722l0.6053,0.431c-0.4492,0.1079-0.7663,0.5091-0.7676,0.9711
			c0,0.3319,0.269,0.6009,0.6009,0.6009h1.2018c0.3319,0,0.6009-0.269,0.6009-0.6009v-0.4006
			c-0.0007-0.2474-0.1529-0.4692-0.3836-0.5586l0.4959-0.3531c0.1796,0.1075,0.2892,0.3018,0.2882,0.5112v3.0045h-0.6009v-0.4006
			c0-0.2212-0.1794-0.4006-0.4006-0.4006h-0.4006c-0.2212,0-0.4006,0.1794-0.4006,0.4006v0.4006H71.147v-0.4006
			c0-0.2212-0.1794-0.4006-0.4006-0.4006h-0.4006c-0.2212,0-0.4006,0.1794-0.4006,0.4006v0.4006h-0.6009L69.3443,22.1482
			L69.3443,22.1482z"/>
		<path class="st2" d="M72.5491,17.9419h-0.3427c-0.2546,0.0003-0.4816,0.1607-0.5669,0.4006l-0.7519,2.1368
			c-0.0367,0.1044,0.0181,0.2188,0.1225,0.2555c0.1044,0.0367,0.2188-0.0181,0.2555-0.1225l0,0l0.7519-2.136
			c0.0282-0.0801,0.1039-0.1338,0.1889-0.1338h0.3427c0.1106,0,0.2003-0.0897,0.2003-0.2003
			C72.7494,18.0316,72.6598,17.9419,72.5491,17.9419z M70.3458,23.5503h1.2018c0.3319,0,0.6009-0.269,0.6009-0.6009
			c-0.0007-0.5528-0.4487-1.0008-1.0015-1.0015h-0.8012c-0.3319,0-0.6009,0.269-0.6009,0.6009v0.4006
			C69.7449,23.2813,70.0139,23.5503,70.3458,23.5503z M70.1455,22.5488c0-0.1106,0.0897-0.2003,0.2003-0.2003h0.8012
			c0.3319,0,0.6009,0.269,0.6009,0.6009c0,0.1106-0.0897,0.2003-0.2003,0.2003h-1.2018c-0.1106,0-0.2003-0.0897-0.2003-0.2003
			V22.5488z M72.9497,24.7522h2.8042c0.2212,0,0.4006-0.1794,0.4006-0.4006v-0.8012c0-0.2212-0.1794-0.4006-0.4006-0.4006h-2.8042
			c-0.2212,0-0.4006,0.1794-0.4006,0.4006v0.8012C72.5491,24.5728,72.7285,24.7522,72.9497,24.7522z M72.9497,23.5503h2.8042v0.8012
			h-2.8042V23.5503z"/>
	</g>
</g>
<g>
	<circle class="st2" cx="54.8593" cy="41.9816" r="0.2797"/>
	<path class="st2" d="M62.9558,40.0941c0.0585-0.0933,0.0895-0.2012,0.0894-0.3113v-0.0985c0-0.3245-0.264-0.5885-0.5885-0.5885
		H60.627c-0.0397,0-0.0786,0.004-0.1161,0.0116l0.3286-1.6559c0.0482-0.2428,0.0537-0.4815,0.0162-0.7095
		c-0.0622-0.379-0.2624-0.8307-0.8629-0.8307c-0.0856,0-0.1588,0.0618-0.1732,0.1462l-0.1153,0.6783
		c-0.0455,0.268-0.108,0.5232-0.1857,0.7587c-0.215,0.652-0.4864,0.9863-0.9678,1.1922c-0.1655,0.0708-0.3302,0.1433-0.4942,0.2176
		h-0.7245v-0.1404c0-0.097-0.0786-0.1756-0.1755-0.1756h-0.0001h-1.189v-0.1895c0-0.097-0.0786-0.1756-0.1755-0.1756h-0.0001
		h-2.9526c-0.097,0-0.1756,0.0786-0.1756,0.1755v0.0001v1.0423c0,0.097,0.0786,0.1756,0.1756,0.1756l0,0
		c0.097,0,0.1756-0.0786,0.1756-0.1756l0,0v-0.8666h2.6013v4.1346h-2.6013v-2.6824c0-0.097-0.0786-0.1756-0.1755-0.1756h-0.0001
		c-0.097,0-0.1756,0.0786-0.1756,0.1756l0,0v2.8581c0,0.097,0.0786,0.1756,0.1756,0.1756l0,0h2.9526
		c0.097,0,0.1756-0.0786,0.1756-0.1755v-0.0001v-0.1895h1.189c0.097,0,0.1756-0.0786,0.1756-0.1755v-0.0001V42.437h0.7005
		l0.3774,0.3056c0.3169,0.2565,0.7159,0.3978,1.1236,0.3978h1.0701c0.0012,0,0.0024-0.0002,0.0037-0.0002
		c0.0226,0.0024,0.0455,0.0037,0.0687,0.0037h1.2547c0.3517,0,0.6378-0.2861,0.6378-0.6378c0-0.1055-0.0259-0.2051-0.0715-0.2929
		c0.3093-0.0437,0.5481-0.3101,0.5481-0.6313c0.0001-0.1251-0.0368-0.2475-0.1061-0.3517c0.1896-0.0978,0.3197-0.2956,0.3197-0.5233
		v-0.0985C63.2589,40.3875,63.1364,40.1947,62.9558,40.0941L62.9558,40.0941z M60.627,39.4471h1.8298l0,0
		c0.1308,0,0.2372,0.1064,0.2372,0.2372v0.0985c0,0.1308-0.1064,0.2372-0.2372,0.2372H60.627c-0.1308,0-0.2372-0.1064-0.2372-0.2372
		v-0.0944c0.0107-0.0396,0.0207-0.0794,0.0301-0.1193C60.4604,39.4964,60.538,39.4471,60.627,39.4471z M60.0385,42.5062
		c0,0.1015,0.024,0.1976,0.0664,0.2829h-0.5711c-0.3285-0.0004-0.647-0.1132-0.9025-0.3196l-0.4258-0.3447
		c-0.0313-0.0253-0.0703-0.0391-0.1105-0.0391h-0.7627V41.582c0-0.097-0.0786-0.1756-0.1755-0.1756h-0.0001
		c-0.097,0-0.1756,0.0786-0.1756,0.1756l0,0v0.7617h-1.0134v-3.4042h1.0134v2.0571c0,0.097,0.0786,0.1756,0.1756,0.1756l0,0
		c0.097,0,0.1756-0.0786,0.1756-0.1755v-0.0001v-1.741h0.7627c0.0253,0,0.0504-0.0055,0.0734-0.0161
		c0.0022-0.001,0.2252-0.1034,0.5208-0.2299c0.5787-0.2475,0.9157-0.6546,1.1633-1.4051c0.0831-0.2521,0.1499-0.5246,0.1984-0.8098
		l0.0878-0.5167c0.2061,0.0481,0.3197,0.2115,0.3705,0.521c0.0306,0.1863,0.0258,0.3829-0.0142,0.5842l-0.3745,1.8871
		c-0.0007,0.0035-0.0013,0.0071-0.0018,0.0107c-0.0004,0.0033-0.0099,0.0693-0.0332,0.1732
		c-0.0239,0.056-0.0388,0.1153-0.0444,0.1759c-0.1391,0.4967-0.4972,1.348-1.3171,1.348c-0.097,0-0.1756,0.0786-0.1756,0.1756l0,0
		c0,0.097,0.0786,0.1756,0.1756,0.1756l0,0c0.5437,0,0.9969-0.2805,1.322-0.8141c-0.005,0.0309-0.0075,0.0622-0.0075,0.0935v0.0985
		c0,0.1681,0.0709,0.3198,0.1843,0.4271c-0.1138,0.1152-0.1843,0.2735-0.1843,0.4479c0,0.1817,0.0765,0.3458,0.1989,0.4621
		C60.115,42.1604,60.0385,42.3245,60.0385,42.5062L60.0385,42.5062z M61.931,42.7926h-1.2547c-0.1579,0-0.2864-0.1285-0.2864-0.2864
		c0-0.1579,0.1285-0.2865,0.2864-0.2865h1.2547c0.1579,0,0.2865,0.1285,0.2865,0.2865
		C62.2174,42.6641,62.0889,42.7926,61.931,42.7926z M62.4075,41.8684h-1.7313c-0.1579,0-0.2864-0.1285-0.2864-0.2864
		c0-0.1579,0.1285-0.2864,0.2864-0.2864h1.7313c0.1579,0,0.2864,0.1285,0.2864,0.2864
		C62.694,41.7399,62.5655,41.8684,62.4075,41.8684L62.4075,41.8684z M62.9075,40.707c0,0.1308-0.1064,0.2372-0.2372,0.2372H60.627
		c-0.1308,0-0.2372-0.1064-0.2372-0.2372v-0.0985c0-0.1308,0.1064-0.2372,0.2372-0.2372h2.0434
		c0.1308,0,0.2372,0.1064,0.2372,0.2372L62.9075,40.707L62.9075,40.707z M56.1874,33.7071
		c-0.039-0.1198-0.1406-0.2054-0.2652-0.2236l-0.7987-0.1161l-0.3572-0.7237c-0.0558-0.113-0.1687-0.1831-0.2946-0.1831
		c-0.126,0-0.2388,0.0702-0.2946,0.1831L53.82,33.3675l-0.7987,0.1161c-0.1247,0.0181-0.2263,0.1037-0.2652,0.2236
		c-0.039,0.1198-0.0071,0.2488,0.0831,0.3369l0.5779,0.5633l-0.1364,0.7954c-0.0213,0.1242,0.0288,0.2473,0.1307,0.3214
		c0.056,0.0409,0.1235,0.063,0.1928,0.0631c0.0522,0,0.1047-0.0126,0.1532-0.0381l0.7144-0.3756l0.7143,0.3756
		c0.1115,0.0586,0.2441,0.049,0.346-0.025c0.1019-0.074,0.152-0.1972,0.1307-0.3214l-0.1364-0.7954l0.5779-0.5634
		C56.1945,33.956,56.2264,33.8269,56.1874,33.7071z M55.2726,34.3641c-0.0775,0.0755-0.1128,0.1842-0.0945,0.2908l0.1307,0.7618
		l-0.6841-0.3596c-0.0957-0.0503-0.2101-0.0504-0.3058,0l-0.6841,0.3597l0.1306-0.7618c0.0183-0.1066-0.017-0.2153-0.0945-0.2908
		l-0.5535-0.5395l0.7649-0.1112c0.107-0.0155,0.1995-0.0827,0.2474-0.1797l0.342-0.6931l0.342,0.6931
		c0.0478,0.097,0.1403,0.1643,0.2474,0.1798l0.7649,0.1112L55.2726,34.3641z M59.8824,32.419
		c-0.039-0.1198-0.1406-0.2054-0.2652-0.2235l-0.7987-0.1161l-0.3572-0.7237c-0.0557-0.113-0.1686-0.1831-0.2946-0.1831
		c-0.126,0-0.2388,0.0702-0.2946,0.1831l-0.3572,0.7237l-0.7987,0.1161c-0.1247,0.0181-0.2263,0.1037-0.2652,0.2236
		c-0.039,0.1198-0.0071,0.2488,0.0831,0.3369l0.578,0.5634l-0.1364,0.7954c-0.0213,0.1242,0.0288,0.2473,0.1307,0.3214
		s0.2344,0.0836,0.346,0.025l0.7144-0.3756l0.7144,0.3756c0.0472,0.025,0.0998,0.038,0.1532,0.0381
		c0.0693-0.0001,0.1368-0.0222,0.1928-0.0631c0.1019-0.074,0.152-0.1972,0.1307-0.3213l-0.1364-0.7954l0.578-0.5634
		C59.8895,32.6679,59.9213,32.5389,59.8824,32.419z M58.9675,33.076c-0.0774,0.0755-0.1128,0.1842-0.0945,0.2908l0.1307,0.7618
		l-0.6841-0.3597c-0.0957-0.0503-0.2101-0.0503-0.3058,0l-0.6841,0.3597l0.1307-0.7618c0.0183-0.1066-0.0171-0.2153-0.0945-0.2908
		l-0.5535-0.5395l0.7649-0.1112c0.107-0.0155,0.1996-0.0827,0.2474-0.1797l0.342-0.6931l0.342,0.6931
		c0.0478,0.097,0.1404,0.1642,0.2474,0.1797l0.7649,0.1112L58.9675,33.076z M63.5705,33.7072
		c-0.039-0.1198-0.1406-0.2054-0.2652-0.2236l-0.7987-0.1161l-0.3572-0.7237c-0.0558-0.113-0.1686-0.1831-0.2946-0.1831
		s-0.2388,0.0702-0.2946,0.1831l-0.3572,0.7237l-0.7987,0.1161c-0.1247,0.0181-0.2263,0.1037-0.2652,0.2236
		c-0.0389,0.1198-0.0071,0.2489,0.0831,0.3368l0.5779,0.5634l-0.1364,0.7954c-0.0213,0.1242,0.0288,0.2473,0.1307,0.3214
		s0.2344,0.0836,0.346,0.025l0.7144-0.3756l0.7144,0.3756c0.0472,0.025,0.0998,0.038,0.1532,0.0381
		c0.0679,0,0.1352-0.0213,0.1928-0.0631c0.1019-0.074,0.152-0.1972,0.1307-0.3213l-0.1364-0.7954l0.578-0.5634
		C63.5776,33.956,63.6094,33.8269,63.5705,33.7072L63.5705,33.7072z M62.6556,34.3641c-0.0774,0.0755-0.1127,0.1842-0.0945,0.2907
		l0.1307,0.7618l-0.6841-0.3597c-0.0957-0.0503-0.2101-0.0503-0.3058,0l-0.6841,0.3597l0.1307-0.7618
		c0.0183-0.1066-0.017-0.2153-0.0945-0.2908l-0.5535-0.5395l0.7648-0.1112c0.107-0.0155,0.1996-0.0827,0.2474-0.1797l0.3421-0.6931
		l0.342,0.6931c0.0479,0.097,0.1404,0.1642,0.2474,0.1797l0.7649,0.1112L62.6556,34.3641z"/>
</g>
<g>
	<path class="st2" d="M57.4395,18.6957H54.764c-0.1256,0-0.2275,0.1018-0.2275,0.2274c0,0,0,0,0,0.0001v0.5266
		c0.002,0.1256,0.1055,0.2259,0.2311,0.2239c0.1228-0.0019,0.222-0.1011,0.2239-0.2239v-0.2991h2.2204v1.5471h-2.2204v-0.338
		c0-0.1256-0.1018-0.2275-0.2275-0.2275c0,0,0,0-0.0001,0c-0.1256,0-0.2275,0.1018-0.2275,0.2274c0,0,0,0,0,0.0001v0.5655
		c0,0.1256,0.1018,0.2275,0.2275,0.2275c0,0,0,0,0.0001,0h2.6754c0.1256,0,0.2275-0.1018,0.2275-0.2274c0,0,0,0,0-0.0001v-2.0022
		C57.667,18.7976,57.5652,18.6957,57.4395,18.6957L57.4395,18.6957L57.4395,18.6957z M54.9157,24.3817
		c-0.5148,0-0.9338,0.4189-0.9338,0.9338s0.4189,0.9337,0.9338,0.9337s0.9338-0.4188,0.9338-0.9337S55.4305,24.3817,54.9157,24.3817
		z M54.9157,25.7942c-0.264,0-0.4787-0.2148-0.4787-0.4787c0-0.264,0.2148-0.4787,0.4787-0.4787
		c0.264,0,0.4787,0.2148,0.4787,0.4787C55.3944,25.5794,55.1797,25.7942,54.9157,25.7942z M61.7286,24.3817
		c-0.5149,0-0.9338,0.4189-0.9338,0.9338s0.4189,0.9337,0.9337,0.9337s0.9338-0.4189,0.9338-0.9337S62.2435,24.3817,61.7286,24.3817
		L61.7286,24.3817z M61.7286,25.7942c-0.264,0-0.4787-0.2148-0.4787-0.4787c0-0.264,0.2148-0.4787,0.4787-0.4787
		c0.264,0,0.4787,0.2148,0.4787,0.4787C62.2074,25.5794,61.9926,25.7942,61.7286,25.7942z"/>
	<path class="st2" d="M65.231,23.8076h-0.5696v-2.1453c0-0.1256-0.1018-0.2275-0.2274-0.2275c0,0,0,0-0.0001,0h-3.2065v-0.2735
		c0-0.0944-0.0122-0.186-0.035-0.2734l3.0627-3.7265v0.8934c-0.3733,0.1005-0.6489,0.4417-0.6489,0.8463V19.55
		c0,0.1256,0.1018,0.2275,0.2274,0.2275c0,0,0,0,0.0001,0h0.4214v0.4237c-0.2196,0.09-0.3748,0.306-0.3748,0.5577
		c0,0.3321,0.2702,0.6023,0.6023,0.6023c0.1256,0,0.2275-0.1018,0.2275-0.2274c0,0,0,0,0-0.0001
		c0-0.1256-0.1018-0.2275-0.2274-0.2275c0,0,0,0-0.0001,0c-0.0813-0.0001-0.1471-0.066-0.1472-0.1472
		c0.0001-0.0813,0.066-0.1471,0.1472-0.1472c0.1256,0,0.2275-0.1018,0.2275-0.2274c0,0,0,0,0-0.0001v-0.6066h0.4214
		c0.1256,0,0.2275-0.1018,0.2275-0.2274c0,0,0,0,0-0.0001v-0.6489c0-0.4046-0.2756-0.7458-0.6489-0.8463v-1.4471l0.1004-0.1221
		c0.188-0.0755,0.3427-0.2124,0.4411-0.3925c0.1123-0.2054,0.1378-0.4422,0.0719-0.6668c-0.1088-0.3709-0.4544-0.6298-0.8406-0.6298
		c-0.0833,0-0.1663,0.012-0.2469,0.0356c-0.435,0.1276-0.6965,0.5648-0.6149,1.0012l-1.649,2.0064
		c-0.0798,0.0971-0.0658,0.2404,0.0313,0.3202l0,0c0.097,0.0798,0.2403,0.0658,0.3201-0.0312l0.0001-0.0001l1.5227-1.8527
		c0.0993,0.1046,0.2227,0.1832,0.3596,0.2287l-3.2433,3.9461c-0.0932-0.1077-0.2068-0.1959-0.3342-0.2596l1.1168-1.3588
		c0.0811-0.096,0.0691-0.2395-0.0269-0.3207c-0.096-0.0811-0.2395-0.0691-0.3207,0.0269c-0.0014,0.0016-0.0027,0.0032-0.004,0.0049
		l-1.2605,1.5337c-0.5934,0.0053-1.0745,0.4895-1.0745,1.0841v0.2735h-0.33V20.079c0-0.1256-0.1018-0.2275-0.2275-0.2275
		c0,0,0,0-0.0001,0c-0.1256,0-0.2275,0.1018-0.2275,0.2274c0,0,0,0,0,0.0001v1.3559h-4.3439v-2.9138
		c0-0.2383,0.1938-0.4321,0.4321-0.4321h3.4797c0.2383,0,0.4321,0.1938,0.4321,0.4321v0.6478c0,0.1256,0.1018,0.2275,0.2274,0.2275
		c0,0,0,0,0.0001,0c0.1256,0,0.2275-0.1018,0.2275-0.2274c0,0,0,0,0-0.0001v-0.6478c0-0.4892-0.398-0.8871-0.8872-0.8871H57.383
		l-0.1747-1.2629c-0.0156-0.1125-0.1118-0.1963-0.2254-0.1963h-1.7622c-0.1136,0-0.2098,0.0838-0.2254,0.1963l-0.1748,1.2629
		h-0.4586c-0.4892,0-0.8872,0.398-0.8872,0.8871v2.9137h-0.7078c-0.6279,0-1.1386,0.5367-1.1386,1.1964v1.1764h-0.6146
		c-0.1256,0-0.2275,0.1018-0.2275,0.2274c0,0,0,0,0,0.0001v1.2803c0,0.1256,0.1018,0.2275,0.2274,0.2275c0,0,0,0,0.0001,0h2.2781
		c0.1112,0.7969,0.7968,1.4125,1.6239,1.4125c0.8271,0,1.5128-0.6155,1.6239-1.4125h3.5652
		c0.1112,0.7969,0.7968,1.4125,1.6239,1.4125s1.5127-0.6155,1.6239-1.4125h1.8784c0.1256,0,0.2275-0.1018,0.2275-0.2274
		c0,0,0,0,0-0.0001v-1.2803C65.4585,23.9095,65.3567,23.8077,65.231,23.8076L65.231,23.8076L65.231,23.8076z M64.904,18.9012v0.4214
		h-0.8428v-0.4214c0-0.2324,0.189-0.4214,0.4214-0.4214S64.904,18.6688,64.904,18.9012L64.904,18.9012z M64.1061,15.8613
		c-0.0011-0.0021-0.0022-0.0041-0.0033-0.0062c-0.0954-0.1988-0.0123-0.4495,0.1817-0.5538
		c0.061-0.0326,0.1292-0.0497,0.1984-0.0497c0.1855,0,0.3516,0.1245,0.4039,0.3028c0.0317,0.1072,0.0193,0.2226-0.0346,0.3206
		c-0.0338,0.062-0.0826,0.1145-0.1421,0.1525V15.673c0-0.1256-0.1018-0.2275-0.2275-0.2275c0,0,0,0-0.0001,0
		c-0.1256,0-0.2275,0.1018-0.2275,0.2274c0,0,0,0,0,0.0001v0.3539C64.1916,15.9859,64.1401,15.9287,64.1061,15.8613L64.1061,15.8613
		z M55.4188,16.6297h1.3658l0.139,1.0042h-1.6438C55.2798,17.634,55.4188,16.6297,55.4188,16.6297z M59.5137,21.1613
		c0-0.347,0.2823-0.6293,0.6293-0.6293c0.339,0,0.6293,0.2907,0.6293,0.6293v0.2735h-1.2586V21.1613L59.5137,21.1613z
		 M52.3804,25.0879h-1.1392v-0.8253h1.1392V25.0879z M54.9157,26.5004c-0.6534,0-1.185-0.5316-1.185-1.185s0.5316-1.185,1.185-1.185
		s1.185,0.5316,1.185,1.185S55.5691,26.5004,54.9157,26.5004z M61.7286,26.5004c-0.6534,0-1.185-0.5316-1.185-1.185
		c0-0.2824,0.103-0.5589,0.2873-0.7728c0.2091-0.2425,0.5138-0.3934,0.8337-0.4105c0.0213-0.0011,0.0426-0.0017,0.0639-0.0017
		c0.6534,0,1.185,0.5316,1.185,1.185C62.9136,25.9689,62.382,26.5004,61.7286,26.5004L61.7286,26.5004z M63.6367,23.8077
		c-0.1256,0-0.2275,0.1018-0.2275,0.2274c0,0,0,0,0,0.0001v1.0528h-0.0563c-0.0005-0.0039-0.0013-0.0077-0.0019-0.0115
		c-0.0734-0.5041-0.3943-0.9569-0.84-1.2013c-0.0766-0.042-0.1564-0.0777-0.2388-0.1067c-0.1747-0.0613-0.3585-0.0927-0.5436-0.093
		c-0.3139,0-0.6257,0.0928-0.8895,0.2629c-0.246,0.1586-0.4455,0.3842-0.5775,0.6448c-0.0782,0.1542-0.1304,0.3222-0.1553,0.4932
		c-0.0006,0.0038-0.0013,0.0077-0.0019,0.0115H56.54c-0.0005-0.004-0.0013-0.0078-0.0019-0.0117
		c-0.0791-0.5381-0.4389-1.0187-0.9317-1.2481c-0.0447-0.0208-0.0904-0.0395-0.1368-0.0561
		c-0.1777-0.0631-0.3652-0.0966-0.5538-0.0966c-0.0271,0-0.054,0.0007-0.0809,0.0021c-0.2953,0.0144-0.5874,0.11-0.8321,0.2763
		c-0.1134,0.0771-0.217,0.1677-0.3084,0.2698c-0.096,0.1073-0.1778,0.2265-0.2432,0.3547
		c-0.0794,0.1556-0.1323,0.3251-0.1578,0.4979c-0.0006,0.004-0.0014,0.0078-0.0019,0.0117h-0.4559v-1.0528
		c0-0.1256-0.1018-0.2275-0.2274-0.2275c0,0,0,0-0.0001,0h-0.5246v-0.9494c2.8654-0.0061,5.7643-0.006,8.6213,0.0005
		c0.1254,0,0.2272-0.1015,0.2275-0.227c0.0003-0.1256-0.1013-0.2277-0.2269-0.228c0,0,0,0-0.0001,0
		c-2.8458-0.0064-5.7337-0.0066-8.5886-0.0005c0.0889-0.2975,0.3468-0.5133,0.6504-0.5133h11.4394v0.5124
		c-0.839-0.005-1.678-0.0045-2.5169,0.0015c-0.1256,0.0009-0.2267,0.1035-0.2258,0.2291c0,0,0,0,0,0.0001
		c0.0009,0.125,0.1025,0.2258,0.2275,0.2258h0.0017c0.8224-0.0061,1.6862-0.0065,2.5136-0.0015v0.9504L63.6367,23.8077
		L63.6367,23.8077z M65.0034,25.0879h-1.1392v-0.8253h1.1392V25.0879L65.0034,25.0879z"/>
</g>
<g>
	<path class="st0" d="M98.6668,25.6955l-5.7852-9.5944c-0.2279-0.378-0.6437-0.6128-1.0851-0.6128s-0.8571,0.2348-1.0851,0.6128
		l-5.7852,9.5944c-0.2356,0.3907-0.2425,0.8801-0.0182,1.2774c0.2244,0.3972,0.6471,0.644,1.1033,0.644h11.5705
		c0.4562,0,0.8789-0.2468,1.1033-0.644C98.9094,26.5756,98.9024,26.0861,98.6668,25.6955z M97.8855,26.5213
		c-0.062,0.1095-0.178,0.1772-0.3037,0.1773H86.0113c-0.1258-0.0001-0.2418-0.0678-0.3037-0.1773
		c-0.0618-0.1096-0.0598-0.2439,0.005-0.3516l5.7853-9.5944c0.0634-0.1044,0.1766-0.1683,0.2987-0.1687
		c0.1215,0,0.2359,0.0647,0.2987,0.1687l5.7852,9.5944C97.9453,26.2775,97.9473,26.4118,97.8855,26.5213z"/>
	<path class="st0" d="M91.8008,19.2664c-0.3493,0-0.6219,0.1874-0.6219,0.5197c0,1.0138,0.1192,2.4706,0.1192,3.4844
		c0,0.2641,0.2301,0.3748,0.5027,0.3748c0.2045,0,0.4941-0.1107,0.4941-0.3748c0-1.0138,0.1193-2.4706,0.1193-3.4844
		C92.4142,19.4538,92.1331,19.2664,91.8008,19.2664L91.8008,19.2664z M91.8093,24.2331c-0.3748,0-0.656,0.2982-0.656,0.656
		c0,0.3493,0.2811,0.656,0.656,0.656c0.3493,0,0.6475-0.3067,0.6475-0.656C92.4568,24.5313,92.1586,24.2331,91.8093,24.2331z"/>
</g>
<g>
	<g>
		<g>
			<path class="st0" d="M77.6047,35.4232l-3.7946-3.7945c-0.2048-0.2048-0.478-0.3176-0.7692-0.3176
				c-0.2912,0-0.5644,0.1128-0.7692,0.3176l-6.0147,6.0147c-0.2048,0.2048-0.3176,0.478-0.3176,0.7692s0.1128,0.5644,0.3176,0.7692
				l0.4679,0.4679l0.0001,0.0001l0.0001,0.0001l3.1447,3.1447h-0.4354c-0.1379,0-0.2496,0.1118-0.2496,0.2496
				c0,0.1379,0.1118,0.2496,0.2496,0.2496h1.3853c0.0003,0,0.0006,0,0.001,0s0.0006,0,0.001,0h3.6056
				c0.1379,0,0.2496-0.1118,0.2496-0.2496c0-0.1379-0.1118-0.2496-0.2496-0.2496h-2.6556l5.833-5.833
				C78.0288,36.5374,78.0288,35.8473,77.6047,35.4232z M77.2516,36.6085l-6.0148,6.0148c-0.1103,0.1103-0.2578,0.1711-0.4153,0.1713
				h-0.0019c-0.1574-0.0003-0.3048-0.061-0.4151-0.1713l-3.15-3.1501l5.7763-5.7763c0.0975-0.0975,0.0975-0.2556,0-0.353
				c-0.0975-0.0975-0.2555-0.0975-0.3531,0l-5.7763,5.7763L66.61,38.8287c-0.1105-0.1105-0.1713-0.2583-0.1713-0.4161
				s0.0609-0.3056,0.1714-0.4162l6.0147-6.0147c0.1105-0.1105,0.2583-0.1713,0.4162-0.1713s0.3056,0.0609,0.4162,0.1714
				l1.3505,1.3505l-5.7764,5.7764c-0.0975,0.0975-0.0975,0.2555,0,0.3531c0.0488,0.0487,0.1126,0.0731,0.1765,0.0731
				s0.1278-0.0244,0.1765-0.0731l5.7764-5.7764l2.091,2.0909C77.4811,36.0057,77.481,36.3791,77.2516,36.6085z"/>
			<path class="st0" d="M72.0902,38.5211c-0.0975-0.0975-0.2555-0.0975-0.3531,0l-1.9645,1.9645
				c-0.0975,0.0975-0.0975,0.2555,0,0.3531c0.0488,0.0488,0.1126,0.0731,0.1765,0.0731s0.1278-0.0244,0.1765-0.0731l1.9645-1.9645
				C72.1877,38.7766,72.1877,38.6186,72.0902,38.5211z"/>
			<path class="st0" d="M71.2845,40.3859l-0.8057,0.8057c-0.0975,0.0975-0.0975,0.2556,0,0.3531
				c0.0488,0.0487,0.1126,0.0731,0.1765,0.0731c0.0639,0,0.1278-0.0244,0.1765-0.0731l0.8057-0.8057
				c0.0975-0.0975,0.0975-0.2556,0-0.3531S71.382,40.2884,71.2845,40.3859z"/>
			<path class="st0" d="M72.0259,39.6446L71.92,39.7504c-0.0975,0.0975-0.0975,0.2555,0,0.3531
				c0.0487,0.0488,0.1126,0.0731,0.1765,0.0731s0.1278-0.0244,0.1765-0.0731l0.1059-0.1059c0.0975-0.0975,0.0975-0.2555,0-0.353
				C72.2815,39.5471,72.1234,39.5471,72.0259,39.6446z"/>
			<path class="st0" d="M75.4669,35.1444c-0.0468-0.0468-0.1103-0.0731-0.1765-0.0731s-0.1297,0.0263-0.1765,0.0731l-1.0592,1.0592
				c-0.0468,0.0468-0.0731,0.1103-0.0731,0.1765s0.0263,0.1297,0.0731,0.1765l0.7061,0.7061
				c0.0488,0.0488,0.1126,0.0731,0.1765,0.0731c0.0639,0,0.1278-0.0244,0.1765-0.0731l1.0592-1.0591
				c0.0975-0.0975,0.0975-0.2556,0-0.353L75.4669,35.1444z M74.9373,36.7331l-0.3531-0.353l0.7061-0.7061l0.3531,0.3531
				L74.9373,36.7331z"/>
			<path class="st0" d="M73.4369,33.1875c0.0639,0,0.1278-0.0244,0.1765-0.0732l0.1059-0.106
				c0.0975-0.0975,0.0974-0.2556-0.0001-0.353c-0.0975-0.0975-0.2556-0.0974-0.353,0.0001l-0.1059,0.106
				c-0.0975,0.0975-0.0974,0.2556,0.0001,0.353C73.3092,33.1632,73.373,33.1875,73.4369,33.1875z"/>
			<path class="st0" d="M68.4487,39.6912l-0.1059,0.1059c-0.0975,0.0975-0.0975,0.2555,0,0.3531
				c0.0488,0.0487,0.1126,0.0731,0.1765,0.0731s0.1278-0.0244,0.1765-0.0731l0.1059-0.1059c0.0975-0.0975,0.0975-0.2556,0-0.3531
				C68.7042,39.5937,68.5462,39.5937,68.4487,39.6912z"/>
		</g>
	</g>
</g>
<path class="st1" d="M97.9274,8.0451l1.7525-5.2454c0.0879-0.2522,0.0214-0.4038-0.0496-0.5038
	c-0.1817-0.256-0.5553-0.2585-0.6277-0.2585l-9.9043-0.0019l-0.2643-1.254c-0.0714-0.2959-0.2823-0.5782-0.7074-0.5782h-2.7835
	c-0.2886,0-0.4455,0.1351-0.4455,0.4047v0.724c0,0.2609,0.1564,0.3289,0.4557,0.3289h2.3501l1.7987,7.6363
	c-0.2857,0.3027-0.4412,0.7439-0.4412,1.1554c0,0.9056,0.721,1.7404,1.6422,1.7404c0.8697,0,1.5217-0.8148,1.6276-1.3007h3.5031
	c0.1059,0.4859,0.634,1.3201,1.6272,1.3201c0.9052,0,1.6412-0.7842,1.6412-1.6884c0-0.8993-0.5466-1.6966-1.632-1.6966
	c-0.4514,0-0.9868,0.2429-1.2355,0.6073h-4.3043c-0.3124-0.4859-0.739-0.6365-1.1704-0.6535L90.7002,8.463h6.5489
	C97.7428,8.463,97.8399,8.2832,97.9274,8.0451z M97.4731,9.887c0.3409,0.0001,0.6172,0.2766,0.6171,0.6175
	s-0.2766,0.6172-0.6175,0.617c-0.3409-0.0001-0.6172-0.2766-0.6171-0.6175C96.8557,10.1632,97.1322,9.8869,97.4731,9.887z
	 M91.3133,10.5041c0,0.3445-0.2799,0.6248-0.6234,0.6248c-0.3445-0.001-0.6248-0.2803-0.6248-0.6248s0.2803-0.6248,0.6248-0.6248
	C91.0335,9.8793,91.3133,10.1596,91.3133,10.5041z"/>
<path class="st1" d="M90.5757,42.2477l-1.4032-1.4032l1.403-1.403c0.1924-0.1924,0.1924-0.5071,0-0.6995l-0.8156-0.8156
	c-0.1924-0.1923-0.5071-0.1923-0.6994,0l-1.403,1.403l-1.3987-1.3987c-0.1924-0.1923-0.5071-0.1923-0.6994,0l-0.8157,0.8157
	c-0.1923,0.1923-0.1923,0.507,0,0.6994l1.3987,1.3987l-1.3989,1.3989c-0.1923,0.1923-0.1923,0.507,0,0.6994l0.8157,0.8156
	c0.1923,0.1924,0.507,0.1924,0.6994,0l1.3989-1.3989l1.4032,1.4032c0.1923,0.1924,0.5071,0.1924,0.6994,0l0.8156-0.8156
	C90.7681,42.7549,90.7681,42.44,90.5757,42.2477z"/>
<g>
	<path class="st1" d="M95.8394,43.8226c-0.0473,0.0473-0.0946,0.0709-0.1655,0.0709s-0.1182-0.0237-0.1655-0.0709
		c-0.0946-0.0946-0.0946-0.2364,0-0.331l3.003-3.003l-3.003-3.003c-0.0946-0.0946-0.0946-0.2364,0-0.331s0.2365-0.0946,0.331,0
		l3.1685,3.1685c0.0946,0.0946,0.0946,0.2365,0,0.331L95.8394,43.8226z"/>
</g>
<g>
	<path class="st1" d="M109.9915,22.1039c-0.161,0-0.2966,0.0554-0.4067,0.1651c-0.1107,0.1107-0.1655,0.2463-0.1655,0.4073
		s0.0548,0.2967,0.1655,0.4069c0.1102,0.1103,0.2459,0.1655,0.4067,0.1655c0.161,0,0.2966-0.0554,0.4069-0.1655
		c0.1102-0.1102,0.1656-0.2459,0.1656-0.4069c0-0.161-0.0554-0.2966-0.1656-0.4073
		C110.288,22.1593,110.1524,22.1039,109.9915,22.1039z"/>
	<path class="st1" d="M107.3779,20.794c0.1103-0.1103,0.1651-0.2459,0.1651-0.4073c0-0.161-0.0548-0.2966-0.1651-0.4067
		c-0.1102-0.1103-0.2463-0.1655-0.4073-0.1655s-0.2966,0.0554-0.4069,0.1655c-0.1102,0.1102-0.1657,0.2459-0.1657,0.4067
		c0,0.1615,0.0554,0.2971,0.1655,0.4073c0.1103,0.1102,0.2459,0.1651,0.4069,0.1651
		C107.1316,20.9591,107.2676,20.9042,107.3779,20.794z"/>
	<path class="st1" d="M114.007,15.6102c-1.5133-0.0906-4.7201-0.2467-5.0298,0.0402l-6.4224,5.3926
		c-0.413,0.384-0.0881,1.4075,0.2984,1.8257l3.7243,4.4595c0.3879,0.413,1.0349,0.4368,1.4492,0.0528l5.8382-5.0839
		c0.3274-0.2846,0.724-0.831,0.7668-1.2616c0.1146-1.1659,0.146-3.4032,0.1548-4.5905
		C114.7889,16.0118,114.4389,15.6366,114.007,15.6102z M106.5093,21.4777c-0.1417-0.0616-0.267-0.1464-0.3752-0.2547
		c-0.1082-0.1082-0.1931-0.2329-0.254-0.3752c-0.0617-0.1417-0.0922-0.2954-0.0922-0.4611c0-0.1651,0.0305-0.3188,0.0922-0.4611
		c0.0611-0.1419,0.146-0.267,0.254-0.3752c0.1082-0.1082,0.2335-0.1925,0.3752-0.2542c0.1423-0.0615,0.2961-0.0922,0.4611-0.0922
		c0.1656,0,0.3192,0.0305,0.4611,0.0922c0.1417,0.0616,0.267,0.146,0.3752,0.2542s0.1931,0.2333,0.2546,0.3752
		c0.0611,0.1423,0.0922,0.296,0.0922,0.4611c0,0.1657-0.0311,0.3194-0.0922,0.4611c-0.0615,0.1423-0.1464,0.267-0.2546,0.3752
		s-0.2335,0.1931-0.3752,0.2547c-0.1419,0.0611-0.2955,0.092-0.4611,0.092C106.8055,21.5698,106.6516,21.5388,106.5093,21.4777z
		 M107.4285,23.9863l-0.5279-0.2417l2.6457-4.6677l0.5279,0.2416L107.4285,23.9863z M111.0819,23.1375
		c-0.0611,0.1419-0.146,0.267-0.2542,0.3752s-0.2335,0.1931-0.3752,0.2542c-0.1423,0.0615-0.296,0.0922-0.4611,0.0922
		s-0.3192-0.0305-0.4611-0.0922c-0.1419-0.0611-0.2672-0.146-0.3752-0.2542c-0.1082-0.1082-0.1931-0.2333-0.2542-0.3752
		c-0.0615-0.1423-0.0926-0.296-0.0926-0.4611c0-0.1655,0.0311-0.3188,0.0926-0.4611c0.0611-0.1419,0.146-0.267,0.2542-0.3752
		s0.2333-0.1931,0.3752-0.2547c0.1417-0.0611,0.296-0.092,0.4611-0.092s0.3188,0.0311,0.4611,0.092
		c0.1417,0.0617,0.267,0.1464,0.3752,0.2547c0.1082,0.1082,0.1931,0.2333,0.2542,0.3752c0.0615,0.1423,0.0926,0.2954,0.0926,0.4611
		C111.1745,22.8415,111.1435,22.9952,111.0819,23.1375z M113.0791,18.5199c-0.3512,0.3248-0.8977,0.3045-1.2237-0.0454
		c-0.3248-0.3501-0.3047-0.8965,0.0441-1.2239c0.3514-0.3248,0.8991-0.3047,1.225,0.0454
		C113.4493,17.6473,113.429,18.195,113.0791,18.5199z"/>
</g>
<g id="Logo">
	<g>
		<g>
			<path class="st0" d="M11.7583,9.6385c-0.3377,0.0686-0.547,0.2538-1.5787,0.5652c-0.9991,0.2538-2.7173,0.183-4.0922-0.415
				c-1.063-0.4423-2.669-1.1293-2.669-1.1293L2.2913,8.1567L2.0594,8.8952c0,0,1.7693,0.6706,3.188,1.6095
				c0.6428,0.4254,2.422,1.543,2.422,1.543s0.8459,0.6162,1.2309,0.6139c0.335-0.0058,0.6163-0.3614,1.0631-0.7881
				c0.5458-0.4878,0.7953-0.7609,1.3895-1.2488c0.3958-0.3532,0.5973-0.5372,0.645-0.6226
				C12.1126,9.796,11.9517,9.5999,11.7583,9.6385"/>
			<path class="st0" d="M7.1065,8.1761c-0.9643,0.0002-2.499-0.4363-2.499-3.2526C4.6069,3.1272,5.3099,1.7121,7.1051,1.6691
				c2.0026,0.0411,2.4993,1.396,2.5002,3.2533C9.6482,6.7557,9.0064,8.217,7.1065,8.1761 M11.9064,4.9314
				c0.0014-1.8041-1.2228-3.9925-4.793-4.034C3.9618,0.9828,2.323,2.7065,2.3243,4.9349c0.0852,3.1804,2.9441,4.0337,4.793,4.0333
				C10.147,8.9671,11.9887,7.2076,11.9064,4.9314"/>
			<rect x="0.0628" y="14.2126" class="st0" width="0.4607" height="0.4611"/>
			<rect x="1.1884" y="14.2126" class="st0" width="0.4605" height="0.4611"/>
			<rect x="2.3143" y="14.2126" class="st0" width="0.4609" height="0.4611"/>
			<rect x="3.4404" y="14.2126" class="st0" width="0.4605" height="0.4611"/>
			<rect x="4.566" y="14.2126" class="st0" width="0.4606" height="0.4611"/>
			<rect x="5.692" y="14.2126" class="st0" width="0.4605" height="0.4611"/>
			<rect x="6.8177" y="14.2126" class="st0" width="0.4606" height="0.4611"/>
			<rect x="7.9435" y="14.2126" class="st0" width="0.4608" height="0.4611"/>
			<rect x="9.0693" y="14.2126" class="st0" width="0.4601" height="0.4611"/>
			<rect x="10.1952" y="14.2126" class="st0" width="0.4605" height="0.4611"/>
			<rect x="11.3206" y="14.2126" class="st0" width="0.4612" height="0.4611"/>
			<rect x="12.447" y="14.2126" class="st0" width="0.4602" height="0.4611"/>
			<rect x="13.5716" y="14.2137" class="st0" width="0.4609" height="0.4605"/>
			<path class="st0" d="M0.0628,13.7736h13.9716V-0.1987H0.0628V13.7736z M13.5753,13.3145H0.5221V0.2609h13.0532V13.3145z"/>
		</g>
		<g>
			<path class="st2" d="M48.3522,13.8484c-0.052,0-0.1017,0.0133-0.1502,0.04c-0.0504,0.0265-0.089,0.0648-0.1156,0.1141
				c-0.0277,0.0489-0.0413,0.1006-0.0413,0.1538c0,0.0528,0.0135,0.1037,0.0407,0.1521c0.0271,0.0487,0.0648,0.0868,0.1143,0.1141
				c0.0481,0.0268,0.0993,0.0405,0.1524,0.0398c0.0527,0.0002,0.1037-0.0128,0.1531-0.0398
				c0.0498-0.0277,0.0875-0.0654,0.1149-0.1142c0.026-0.0487,0.0401-0.0996,0.0401-0.1528
				c-0.0007-0.0526-0.0145-0.1043-0.042-0.1532c-0.0268-0.0493-0.0657-0.0877-0.1149-0.1143
				C48.4536,13.8616,48.4039,13.8488,48.3522,13.8484 M48.3522,13.7868c0.0626,0,0.1228,0.0157,0.1827,0.0476
				c0.0581,0.0319,0.1045,0.0773,0.1379,0.1357c0.0327,0.0593,0.0494,0.1219,0.0494,0.1856c0,0.0642-0.0163,0.1242-0.0474,0.1832
				c-0.0341,0.0591-0.0794,0.1043-0.1383,0.1374c-0.0584,0.0321-0.1194,0.0485-0.1834,0.0486
				c-0.0639-0.0002-0.1254-0.0163-0.184-0.0487c-0.0586-0.0321-0.1048-0.0782-0.137-0.1363
				c-0.033-0.0591-0.0487-0.1199-0.0493-0.184c-0.0004-0.0637,0.0162-0.1255,0.0493-0.1856
				c0.0338-0.0584,0.0797-0.1039,0.1391-0.1356C48.2295,13.803,48.2905,13.7868,48.3522,13.7868"/>
			<path class="st2" d="M48.2526,14.1365l0.0791,0.0005c0.0373,0,0.0627-0.0062,0.0759-0.017
				c0.0144-0.0108,0.0208-0.0261,0.0208-0.0437c0-0.012-0.0024-0.0222-0.0088-0.0314c-0.0065-0.0093-0.0163-0.0162-0.0285-0.0211
				c-0.0114-0.0041-0.0331-0.0065-0.0649-0.0066h-0.0736C48.2526,14.0172,48.2526,14.1365,48.2526,14.1365z M48.19,14.3594
				l-0.0006-0.3958l0.1359,0.0008c0.0469,0,0.0811,0.0027,0.1014,0.0101c0.0205,0.0076,0.0373,0.0202,0.0501,0.0387
				c0.0123,0.0179,0.0184,0.0371,0.0184,0.0578c0,0.0285-0.01,0.054-0.0308,0.0758c-0.021,0.0214-0.0483,0.0333-0.083,0.0359
				c0.0146,0.0062,0.0255,0.0128,0.0343,0.0214c0.0159,0.0152,0.0356,0.0413,0.0585,0.0774l0.0489,0.0779l-0.0789-0.0001
				l-0.0355-0.0625c-0.0278-0.0489-0.0499-0.0793-0.0668-0.0917c-0.0116-0.0098-0.0289-0.0137-0.0511-0.0138h-0.0382v0.1677
				L48.19,14.3594z"/>
		</g>
		<g>
			<path class="st2" d="M17.0972,13.391v0.2772c-0.1849,0.1008-0.3982,0.1513-0.6401,0.1513c-0.1966,0-0.3633-0.0395-0.5002-0.1184
				c-0.137-0.079-0.2454-0.1878-0.3253-0.3265c-0.0797-0.1386-0.1196-0.2886-0.1196-0.4498c0-0.2563,0.0915-0.4718,0.2741-0.6465
				c0.1827-0.1747,0.408-0.2622,0.676-0.2622c0.1849,0,0.3903,0.0483,0.6162,0.1449v0.271
				c-0.2059-0.1177-0.4071-0.1765-0.6035-0.1765c-0.2017,0-0.3691,0.0636-0.5021,0.1909c-0.1331,0.1273-0.1997,0.2867-0.1997,0.4783
				c0,0.1932,0.0655,0.3518,0.1966,0.4763c0.1311,0.1243,0.2987,0.1866,0.5027,0.1866
				C16.6855,13.5876,16.894,13.5221,17.0972,13.391z"/>
			<path class="st2" d="M18.4853,12.0137c0.272,0,0.4985,0.0861,0.6794,0.2582c0.1809,0.1723,0.2714,0.3881,0.2714,0.6477
				c0,0.2595-0.0912,0.4744-0.274,0.6446c-0.1824,0.17-0.4127,0.2552-0.6906,0.2552c-0.2653,0-0.4864-0.0851-0.6631-0.2552
				c-0.1766-0.1702-0.2651-0.3834-0.2651-0.6395c0-0.263,0.0889-0.4806,0.2669-0.6529
				C17.9883,12.0997,18.2132,12.0137,18.4853,12.0137z M18.4954,12.253c-0.2015,0-0.3671,0.0632-0.4967,0.1891
				c-0.1296,0.126-0.1945,0.2868-0.1945,0.4827c0,0.1898,0.0651,0.3477,0.1953,0.4737c0.13,0.126,0.2929,0.189,0.4885,0.189
				c0.1963,0,0.3603-0.0643,0.4916-0.1927c0.1313-0.1286,0.1971-0.2886,0.1971-0.4802c0-0.1866-0.0657-0.3433-0.1971-0.4706
				C18.848,12.3167,18.6866,12.253,18.4954,12.253z"/>
			<path class="st2" d="M21.3603,12.0389h0.2357v1.7604h-0.2534v-1.3698L20.8013,13.11h-0.0465l-0.5476-0.6805v1.3698H19.955
				v-1.7604h0.2386l0.585,0.723L21.3603,12.0389z"/>
			<path class="st2" d="M22.1755,13.7992v-1.7628h0.5582c0.1681,0,0.3021,0.0452,0.402,0.136
				c0.0999,0.0907,0.1499,0.2125,0.1499,0.3655c0,0.1026-0.0257,0.1932-0.0768,0.2722c-0.0512,0.079-0.1214,0.1363-0.2105,0.1721
				c-0.089,0.0356-0.2168,0.0535-0.3831,0.0535h-0.1866v0.7636h-0.2531C22.1755,13.7993,22.1755,13.7992,22.1755,13.7992z
				 M22.6897,12.2606h-0.2609v0.5507h0.2758c0.1026,0,0.1816-0.0242,0.2369-0.0725c0.0555-0.0483,0.0831-0.1174,0.0831-0.2073
				C23.0249,12.3509,22.9131,12.2606,22.6897,12.2606z"/>
			<path class="st2" d="M24.0747,12.0288h0.177l0.7893,1.7704h-0.2578l-0.2348-0.5217h-0.751l-0.2199,0.5217h-0.2589
				L24.0747,12.0288z M24.4449,13.0533l-0.2841-0.6376l-0.2634,0.6376H24.4449z"/>
			<path class="st2" d="M26.847,12.0389h0.2393v1.7604h-0.2169l-1.1768-1.3558v1.3558h-0.2369v-1.7604h0.2042l1.1871,1.3672V12.0389
				z M26.6717,11.5599c-0.0008,0.1017-0.0244,0.1811-0.0706,0.2381c-0.0353,0.0445-0.0794,0.0668-0.1323,0.0668
				c-0.0463,0-0.1084-0.0167-0.1866-0.0504c-0.0782-0.0336-0.137-0.0505-0.1764-0.0505c-0.0219,0-0.0408,0.0085-0.0568,0.0253
				s-0.0255,0.042-0.0289,0.0755h-0.1058c0.0134-0.1184,0.0378-0.1975,0.0731-0.2374c0.0353-0.04,0.0797-0.0599,0.1335-0.0599
				c0.0487,0,0.1282,0.0222,0.2383,0.0668c0.0562,0.0227,0.0965,0.0341,0.1209,0.0341c0.0234,0,0.0435-0.0081,0.0599-0.0245
				c0.0163-0.0163,0.0275-0.0442,0.0333-0.0839C26.5733,11.5599,26.6717,11.5599,26.6717,11.5599z"/>
			<path class="st2" d="M27.6798,12.0389h0.252v1.7604h-0.252V12.0389z M28.1587,11.531l-0.2847,0.3781h-0.1412l0.1701-0.3781
				H28.1587z"/>
			<path class="st2" d="M29.0988,12.0288h0.1771l0.7893,1.7704h-0.258l-0.2346-0.5217h-0.751l-0.2199,0.5217h-0.259L29.0988,12.0288
				z M29.4691,13.0533l-0.2841-0.6376l-0.2634,0.6376H29.4691z"/>
			<path class="st2" d="M31.406,13.7967v-1.7579h0.5935c0.2393,0,0.4288,0.0359,0.5682,0.1077
				c0.1394,0.0719,0.2503,0.1776,0.3327,0.317c0.0823,0.1396,0.1235,0.2915,0.1235,0.4562c0,0.1176-0.0227,0.2302-0.0681,0.3377
				c-0.0452,0.1077-0.11,0.202-0.194,0.2836c-0.0857,0.0841-0.1852,0.1475-0.2987,0.1903
				c-0.0662,0.0262-0.1272,0.0435-0.1827,0.0523c-0.0555,0.0088-0.1613,0.0133-0.3176,0.0133H31.406V13.7967z M31.973,12.2632
				h-0.315v1.3092h0.3226c0.126,0,0.2239-0.0086,0.2936-0.0259c0.0697-0.0172,0.1279-0.039,0.1746-0.0655
				c0.0466-0.0265,0.0893-0.0591,0.1278-0.0976c0.1243-0.1261,0.1866-0.2853,0.1866-0.4776c0-0.1891-0.0639-0.3431-0.1916-0.4626
				c-0.047-0.0445-0.101-0.0811-0.1619-0.1096c-0.061-0.0285-0.1188-0.0475-0.1733-0.0568
				C32.1818,12.2678,32.0941,12.2632,31.973,12.2632z"/>
			<path class="st2" d="M33.5532,12.0389h0.9981v0.2244h-0.746V12.8h0.7208v0.2256h-0.7208v0.5468h0.7699v0.2244h-1.022
				C33.5532,13.7968,33.5532,12.0389,33.5532,12.0389z"/>
			<path class="st2" d="M36.425,13.0616l-0.1915-0.1164c-0.1202-0.0733-0.2056-0.1455-0.2565-0.2165s-0.0762-0.1527-0.0762-0.2451
				c0-0.1386,0.0481-0.2512,0.1443-0.3378c0.0962-0.0865,0.2211-0.1298,0.3749-0.1298c0.1469,0,0.2819,0.0413,0.4045,0.1238v0.286
				c-0.1269-0.1219-0.2634-0.183-0.4095-0.183c-0.0824,0-0.1499,0.0191-0.2029,0.0571c-0.0529,0.0381-0.0794,0.0869-0.0794,0.1462
				c0,0.0527,0.0195,0.1021,0.0585,0.1481c0.039,0.0462,0.1017,0.0944,0.1881,0.145l0.1925,0.1139
				c0.2147,0.1282,0.3221,0.2915,0.3221,0.4897c0,0.1412-0.0472,0.2559-0.1417,0.3441c-0.0945,0.0883-0.2174,0.1324-0.3685,0.1324
				c-0.1739,0-0.3323-0.0534-0.4751-0.1603v-0.3202c0.136,0.1725,0.2936,0.2587,0.4725,0.2587c0.079,0,0.1446-0.022,0.1972-0.0658
				c0.0526-0.044,0.0788-0.099,0.0788-0.1652C36.657,13.2594,36.5796,13.1578,36.425,13.0616z"/>
			<path class="st2" d="M37.3853,12.0389h0.9981v0.2244h-0.746V12.8h0.7208v0.2256h-0.7208v0.5468h0.7699v0.2244h-1.022
				C37.3853,13.7968,37.3853,12.0389,37.3853,12.0389z"/>
			<path class="st2" d="M39.8413,12.9323h0.5911v0.746c-0.2169,0.094-0.4318,0.1411-0.6452,0.1411
				c-0.2915,0-0.5244-0.0851-0.6987-0.2552c-0.1743-0.1702-0.2615-0.38-0.2615-0.6295c0-0.263,0.0903-0.4818,0.271-0.6566
				c0.1805-0.1747,0.4071-0.2622,0.6791-0.2622c0.0991,0,0.1932,0.0108,0.2822,0.0321s0.2017,0.0607,0.3378,0.1178v0.2571
				c-0.2101-0.1218-0.4184-0.1827-0.6251-0.1827c-0.1923,0-0.3545,0.0655-0.4864,0.1966c-0.1318,0.1311-0.1978,0.2919-0.1978,0.4827
				c0,0.1998,0.066,0.3634,0.1978,0.4903c0.1319,0.1269,0.3016,0.1903,0.5091,0.1903c0.1008,0,0.2213-0.0231,0.3617-0.0694
				l0.0239-0.0076v-0.3667h-0.339L39.8413,12.9323L39.8413,12.9323z"/>
			<path class="st2" d="M42.2394,12.0389h0.2532v0.9992c0,0.1353-0.0099,0.2374-0.0295,0.3062
				c-0.0198,0.069-0.0441,0.1263-0.0732,0.1721c-0.029,0.0457-0.0644,0.0868-0.1064,0.1228
				c-0.1394,0.1202-0.3218,0.1803-0.5468,0.1803c-0.2293,0-0.4133-0.0597-0.5519-0.1789c-0.042-0.037-0.0776-0.0784-0.1066-0.1241
				c-0.029-0.0458-0.0529-0.102-0.0719-0.1683c-0.0187-0.0663-0.0283-0.1705-0.0283-0.3124V12.039h0.2532v0.9992
				c0,0.1655,0.019,0.2806,0.0568,0.3453c0.0377,0.0646,0.0953,0.1165,0.1727,0.1555c0.0772,0.0391,0.1684,0.0586,0.2734,0.0586
				c0.1495,0,0.2714-0.039,0.3655-0.1171c0.0495-0.042,0.0853-0.0916,0.107-0.1489c0.022-0.057,0.0329-0.1549,0.0329-0.2936
				L42.2394,12.0389L42.2394,12.0389z"/>
			<path class="st2" d="M43.0635,13.7992v-1.7604h0.4411c0.1781,0,0.3195,0.0441,0.4238,0.1322
				c0.1046,0.0883,0.157,0.2076,0.157,0.358c0,0.1025-0.0256,0.191-0.0768,0.2658s-0.1248,0.1306-0.2205,0.1676
				c0.0562,0.0371,0.1113,0.0875,0.165,0.1513c0.0538,0.0638,0.1294,0.1752,0.2269,0.3338c0.0614,0.1,0.1104,0.1753,0.1474,0.2256
				l0.0933,0.126h-0.2999l-0.0768-0.116c-0.0025-0.0042-0.0076-0.0114-0.0151-0.0214l-0.0491-0.0694l-0.0781-0.1286l-0.0843-0.1375
				c-0.0521-0.0723-0.0998-0.1298-0.1431-0.1725c-0.0434-0.0428-0.0825-0.0736-0.1174-0.0926s-0.0935-0.0284-0.176-0.0284h-0.0656
				v0.7663h-0.2518V13.7992L43.0635,13.7992z M43.391,12.253h-0.0756v0.5558h0.0958c0.1276,0,0.2152-0.0109,0.2627-0.0329
				c0.0475-0.0219,0.0843-0.0547,0.1108-0.099c0.0265-0.0441,0.0398-0.0942,0.0398-0.1505c0-0.0555-0.0147-0.1056-0.0441-0.1505
				s-0.0708-0.0767-0.1242-0.0951C43.603,12.2623,43.5145,12.253,43.391,12.253z"/>
			<path class="st2" d="M45.5377,12.0137c0.272,0,0.4985,0.0861,0.6794,0.2582c0.181,0.1723,0.2714,0.3881,0.2714,0.6477
				c0,0.2595-0.0913,0.4744-0.2739,0.6446c-0.1826,0.17-0.413,0.2552-0.6907,0.2552c-0.2653,0-0.4862-0.0851-0.6631-0.2552
				c-0.1766-0.1702-0.265-0.3834-0.265-0.6395c0-0.263,0.0889-0.4806,0.2669-0.6529
				C45.0408,12.0997,45.2656,12.0137,45.5377,12.0137z M45.5479,12.253c-0.2015,0-0.3671,0.0632-0.4967,0.1891
				s-0.1945,0.2868-0.1945,0.4827c0,0.1898,0.065,0.3477,0.1951,0.4737c0.1301,0.126,0.2929,0.189,0.4885,0.189
				c0.1963,0,0.3603-0.0643,0.4917-0.1927c0.1313-0.1286,0.1969-0.2886,0.1969-0.4802c0-0.1866-0.0657-0.3433-0.1969-0.4706
				C45.9005,12.3167,45.7391,12.253,45.5479,12.253z"/>
			<path class="st2" d="M47.4488,13.0616l-0.1915-0.1164c-0.1201-0.0733-0.2056-0.1455-0.2565-0.2165
				c-0.0507-0.071-0.0761-0.1527-0.0761-0.2451c0-0.1386,0.0481-0.2512,0.1443-0.3378c0.0961-0.0865,0.2211-0.1298,0.3749-0.1298
				c0.147,0,0.2819,0.0413,0.4045,0.1238v0.286c-0.1269-0.1219-0.2633-0.183-0.4095-0.183c-0.0823,0-0.1499,0.0191-0.2029,0.0571
				c-0.0529,0.0381-0.0794,0.0869-0.0794,0.1462c0,0.0527,0.0195,0.1021,0.0585,0.1481c0.039,0.0462,0.1017,0.0944,0.1881,0.145
				l0.1925,0.1139c0.2148,0.1282,0.3221,0.2915,0.3221,0.4897c0,0.1412-0.0472,0.2559-0.1417,0.3441
				c-0.0946,0.0883-0.2174,0.1324-0.3685,0.1324c-0.1739,0-0.3323-0.0534-0.4751-0.1603v-0.3202
				c0.136,0.1725,0.2936,0.2587,0.4725,0.2587c0.079,0,0.1446-0.022,0.1971-0.0658c0.0526-0.044,0.0789-0.099,0.0789-0.1652
				C47.6806,13.2594,47.6033,13.1578,47.4488,13.0616z"/>
		</g>
		<g>
			<path class="st2" d="M22.8053,9.6492l-1.0136,0.984c-0.3161-0.0168-0.6464-0.073-0.9909-0.169
				c-0.3447-0.0958-0.6942-0.228-1.0489-0.3962c-0.3547-0.1682-0.828-0.4557-1.4197-0.8629
				c-0.8575-0.1548-1.5644-0.5618-2.1208-1.2213c-0.5566-0.6595-0.8348-1.4198-0.8348-2.281c0-1.0531,0.3581-1.9245,1.0742-2.6141
				c0.7161-0.6897,1.6223-1.0346,2.7183-1.0346c1.0893,0,1.9947,0.3425,2.7159,1.0271s1.0817,1.5451,1.0817,2.5813
				c0,0.8714-0.2723,1.6369-0.817,2.2964c-0.5448,0.6595-1.2492,1.0748-2.1132,1.2464l0.2673,0.1009
				c0.8305,0.3196,1.429,0.4793,1.7955,0.4793C22.3009,9.7854,22.5363,9.74,22.8053,9.6492z M19.1692,3.0129
				c-0.7932,0-1.4487,0.2557-1.9663,0.7671c-0.5177,0.5114-0.7765,1.1556-0.7765,1.9328c0,0.757,0.2605,1.3872,0.7815,1.89
				s1.1748,0.7544,1.9613,0.7544c0.7765,0,1.4303-0.2572,1.9613-0.7722c0.5311-0.5146,0.7967-1.1489,0.7967-1.9025
				c0-0.7705-0.2605-1.4081-0.7815-1.9127C20.6246,3.2651,19.9659,3.0129,19.1692,3.0129z"/>
			<path class="st2" d="M26.7477,9.2051V8.6095c-0.1951,0.2135-0.418,0.3796-0.6686,0.4983
				c-0.2507,0.1185-0.5005,0.178-0.7495,0.178c-0.2928,0-0.5627-0.0732-0.81-0.2195c-0.2472-0.1464-0.434-0.3449-0.5601-0.5955
				c-0.1263-0.2506-0.1893-0.6669-0.1893-1.2492V4.5622h0.9185v2.646c0,0.4873,0.0697,0.8276,0.2095,1.0208
				c0.1395,0.1932,0.3842,0.2897,0.7342,0.2897c0.4373,0,0.8092-0.2135,1.1153-0.6408V4.5622h0.9185v4.6429H26.7477z"/>
			<path class="st2" d="M31.9854,6.4142v1.9733c0,0.1582,0.0538,0.2373,0.1615,0.2373c0.111,0,0.2843-0.0825,0.5198-0.2473v0.56
				c-0.2087,0.1347-0.376,0.2264-0.5021,0.2751c-0.1263,0.0487-0.2583,0.0732-0.3962,0.0732c-0.3936,0-0.6257-0.1548-0.6964-0.4643
				c-0.3904,0.3028-0.8058,0.4542-1.2465,0.4542c-0.323,0-0.5923-0.1067-0.8075-0.3204c-0.2153-0.2137-0.323-0.4821-0.323-0.805
				c0-0.2925,0.1051-0.5541,0.3153-0.7847c0.2102-0.2304,0.5089-0.4129,0.8958-0.5476l1.1758-0.4037V6.167
				c0-0.5584-0.2793-0.8378-0.8378-0.8378c-0.5014,0-0.9892,0.259-1.4635,0.7771V5.102c0.3565-0.4203,0.8697-0.6307,1.5393-0.6307
				c0.5013,0,0.9034,0.1312,1.2062,0.3936c0.1009,0.0841,0.1917,0.1961,0.2726,0.3356c0.0807,0.1396,0.1321,0.2792,0.1539,0.4188
				C31.9744,5.7591,31.9854,6.024,31.9854,6.4142z M31.082,8.2866V6.909l-0.6158,0.237c-0.3129,0.1244-0.5342,0.2497-0.6636,0.376
				c-0.1296,0.126-0.1944,0.2835-0.1944,0.4718c0,0.1917,0.0614,0.3483,0.1843,0.4694c0.1228,0.1211,0.2818,0.1817,0.4769,0.1817
				C30.5622,8.6449,30.8328,8.5254,31.082,8.2866z M31.7531,2.044l-1.1406,1.514h-0.5652l0.6813-1.514
				C30.7286,2.044,31.7531,2.044,31.7531,2.044z"/>
			<path class="st2" d="M33.3316,2.1548h0.9185v7.0503h-0.9185V2.1548z"/>
			<path class="st2" d="M36.1574,2.6092c0.1514,0,0.2808,0.0521,0.3886,0.1563c0.1077,0.1043,0.1615,0.2321,0.1615,0.3835
				c0,0.148-0.0539,0.2758-0.1615,0.3835c-0.1078,0.1077-0.2372,0.1615-0.3886,0.1615c-0.1414,0-0.2658-0.0546-0.3735-0.1641
				c-0.1078-0.1092-0.1615-0.2363-0.1615-0.381c0-0.1414,0.0538-0.2665,0.1615-0.376C35.8916,2.6638,36.0161,2.6092,36.1574,2.6092z
				 M35.7032,4.5622h0.9185v4.6429h-0.9185V4.5622z"/>
			<path class="st2" d="M37.3025,5.299l1.726-1.6956v0.9589h1.4686v0.8276h-1.4686v2.2723c0,0.5305,0.2203,0.796,0.6611,0.796
				c0.3297,0,0.6779-0.1092,1.0446-0.3282v0.8581c-0.3533,0.1985-0.7386,0.2977-1.1557,0.2977
				c-0.4207,0-0.7705-0.1228-1.0497-0.3685c-0.0876-0.0738-0.1599-0.1572-0.217-0.2497c-0.0573-0.0924-0.1052-0.2135-0.1439-0.3633
				c-0.0387-0.1496-0.058-0.4348-0.058-0.8553V5.3898h-0.8075L37.3025,5.299L37.3025,5.299z"/>
			<path class="st2" d="M44.4892,6.4142v1.9733c0,0.1582,0.0538,0.2373,0.1615,0.2373c0.111,0,0.2843-0.0825,0.5198-0.2473v0.56
				c-0.2087,0.1347-0.376,0.2264-0.5021,0.2751c-0.1263,0.0487-0.2583,0.0732-0.3962,0.0732c-0.3936,0-0.6257-0.1548-0.6964-0.4643
				c-0.3904,0.3028-0.8058,0.4542-1.2465,0.4542c-0.323,0-0.5923-0.1067-0.8075-0.3204c-0.2153-0.2137-0.323-0.4821-0.323-0.805
				c0-0.2925,0.1051-0.5541,0.3153-0.7847c0.2102-0.2304,0.5089-0.4129,0.8958-0.5476l1.1758-0.4037V6.167
				c0-0.5584-0.2793-0.8378-0.8378-0.8378c-0.5014,0-0.9892,0.259-1.4635,0.7771V5.102c0.3566-0.4203,0.8697-0.6307,1.5393-0.6307
				c0.5013,0,0.9034,0.1312,1.2062,0.3936c0.1009,0.0841,0.1917,0.1961,0.2726,0.3356c0.0807,0.1396,0.1321,0.2792,0.1539,0.4188
				C44.4782,5.7591,44.4892,6.024,44.4892,6.4142z M43.5859,8.2866V6.909l-0.6157,0.237c-0.3129,0.1244-0.5342,0.2497-0.6636,0.376
				c-0.1296,0.126-0.1944,0.2835-0.1944,0.4718c0,0.1917,0.0614,0.3483,0.1843,0.4694c0.1228,0.1211,0.2818,0.1817,0.4769,0.1817
				C43.066,8.6449,43.3368,8.5254,43.5859,8.2866z"/>
			<path class="st2" d="M45.6188,8.872V7.8828c0.259,0.1817,0.524,0.3289,0.7948,0.4415c0.2709,0.1128,0.4989,0.169,0.6839,0.169
				c0.1917,0,0.3566-0.0469,0.4945-0.1414c0.138-0.094,0.207-0.2068,0.207-0.3381c0-0.1346-0.0446-0.2464-0.1338-0.3356
				c-0.0892-0.089-0.2818-0.2177-0.5778-0.3859c-0.5923-0.3297-0.98-0.6115-1.1632-0.8454
				c-0.1834-0.2337-0.2751-0.4886-0.2751-0.7646c0-0.3567,0.1387-0.6476,0.4164-0.8729c0.2774-0.2255,0.635-0.3382,1.0723-0.3382
				c0.4542,0,0.9202,0.1278,1.3979,0.3835V5.763c-0.545-0.3297-0.9909-0.4945-1.3374-0.4945c-0.1785,0-0.3222,0.0381-0.4316,0.1138
				c-0.1093,0.0756-0.164,0.1759-0.164,0.3004c0,0.1079,0.0495,0.2107,0.1485,0.3083c0.0991,0.0977,0.2732,0.2153,0.5222,0.3533
				l0.3282,0.1867c0.774,0.4374,1.1611,0.9216,1.1611,1.453c0,0.38-0.149,0.6921-0.4466,0.9359
				c-0.2978,0.2438-0.6806,0.3657-1.1482,0.3657c-0.2758,0-0.5216-0.0295-0.7368-0.0883C46.216,9.1387,45.9451,9.0301,45.6188,8.872
				z"/>
		</g>
	</g>
</g>
<g id="Logo_1_">
	<g>
		<g>
			<path class="st1" d="M11.7904,27.9459c-0.3377,0.0686-0.547,0.2538-1.5787,0.5652c-0.9991,0.2538-2.7173,0.183-4.0922-0.415
				c-1.063-0.4423-2.669-1.1293-2.669-1.1293l-1.1272-0.5026l-0.2319,0.7385c0,0,1.7693,0.6706,3.188,1.6095
				c0.6428,0.4254,2.422,1.543,2.422,1.543s0.8459,0.6162,1.2309,0.6139c0.335-0.0058,0.6163-0.3614,1.0631-0.7881
				c0.5458-0.4878,0.7953-0.7609,1.3895-1.2488c0.3958-0.3532,0.5973-0.5372,0.645-0.6226
				C12.1448,28.1034,11.9838,27.9073,11.7904,27.9459"/>
			<path class="st1" d="M7.1386,26.4835c-0.9643,0.0002-2.499-0.4363-2.499-3.2526c-0.0006-1.7964,0.7025-3.2115,2.4977-3.2545
				c2.0026,0.0411,2.4993,1.396,2.5002,3.2533C9.6804,25.0631,9.0385,26.5244,7.1386,26.4835 M11.9385,23.2388
				c0.0014-1.8041-1.2228-3.9925-4.793-4.034c-3.1515,0.0854-4.7904,1.8091-4.7891,4.0375c0.0852,3.1804,2.9441,4.0337,4.793,4.0333
				C10.1791,27.2744,12.0208,25.515,11.9385,23.2388"/>
			<rect x="0.095" y="32.52" class="st1" width="0.4607" height="0.4611"/>
			<rect x="1.2206" y="32.52" class="st1" width="0.4605" height="0.4611"/>
			<rect x="2.3464" y="32.52" class="st1" width="0.4609" height="0.4611"/>
			<rect x="3.4726" y="32.52" class="st1" width="0.4605" height="0.4611"/>
			<rect x="4.5982" y="32.52" class="st1" width="0.4606" height="0.4611"/>
			<rect x="5.7241" y="32.52" class="st1" width="0.4605" height="0.4611"/>
			<rect x="6.8498" y="32.52" class="st1" width="0.4606" height="0.4611"/>
			<rect x="7.9757" y="32.52" class="st1" width="0.4608" height="0.4611"/>
			<rect x="9.1015" y="32.52" class="st1" width="0.4601" height="0.4611"/>
			<rect x="10.2273" y="32.52" class="st1" width="0.4605" height="0.4611"/>
			<rect x="11.3528" y="32.52" class="st1" width="0.4612" height="0.4611"/>
			<rect x="12.4791" y="32.52" class="st1" width="0.4602" height="0.4611"/>
			<rect x="13.6037" y="32.5211" class="st1" width="0.4609" height="0.4605"/>
			<path class="st1" d="M0.095,32.081h13.9716V18.1087H0.095V32.081z M13.6075,31.6219H0.5542V18.5683h13.0532
				C13.6075,18.5683,13.6075,31.6219,13.6075,31.6219z"/>
		</g>
		<g>
			<path class="st1" d="M48.3843,32.1558c-0.052,0-0.1017,0.0133-0.1502,0.04c-0.0504,0.0265-0.089,0.0648-0.1156,0.1141
				c-0.0277,0.0489-0.0413,0.1006-0.0413,0.1538c0,0.0528,0.0135,0.1037,0.0407,0.1521c0.0271,0.0487,0.0648,0.0868,0.1143,0.1141
				c0.0481,0.0268,0.0993,0.0405,0.1524,0.0398c0.0527,0.0002,0.1037-0.0128,0.1531-0.0398
				c0.0498-0.0277,0.0875-0.0654,0.1149-0.1142c0.026-0.0487,0.0401-0.0996,0.0401-0.1528
				c-0.0007-0.0526-0.0145-0.1043-0.042-0.1532c-0.0268-0.0493-0.0657-0.0877-0.1149-0.1143
				C48.4858,32.169,48.436,32.1562,48.3843,32.1558 M48.3843,32.0942c0.0626,0,0.1228,0.0157,0.1827,0.0476
				c0.0581,0.0319,0.1045,0.0773,0.1379,0.1357c0.0327,0.0593,0.0494,0.1219,0.0494,0.1856c0,0.0642-0.0163,0.1242-0.0474,0.1832
				c-0.0341,0.0591-0.0794,0.1043-0.1383,0.1374c-0.0584,0.0321-0.1194,0.0485-0.1834,0.0486
				c-0.0639-0.0002-0.1254-0.0163-0.184-0.0487c-0.0586-0.0321-0.1048-0.0782-0.137-0.1363
				c-0.033-0.0591-0.0487-0.1199-0.0493-0.184c-0.0004-0.0637,0.0162-0.1255,0.0493-0.1856
				c0.0338-0.0584,0.0797-0.1039,0.1391-0.1356C48.2617,32.1104,48.3227,32.0942,48.3843,32.0942"/>
			<path class="st1" d="M48.2847,32.4439l0.0791,0.0005c0.0373,0,0.0627-0.0062,0.0759-0.017
				c0.0144-0.0108,0.0208-0.0261,0.0208-0.0437c0-0.012-0.0024-0.0222-0.0088-0.0314c-0.0065-0.0093-0.0163-0.0162-0.0285-0.0211
				c-0.0114-0.0041-0.0331-0.0065-0.0649-0.0066h-0.0736C48.2847,32.3246,48.2847,32.4439,48.2847,32.4439z M48.2221,32.6668
				l-0.0006-0.3958l0.1359,0.0008c0.0469,0,0.0811,0.0027,0.1014,0.0102c0.0205,0.0076,0.0373,0.0202,0.0501,0.0387
				c0.0123,0.0179,0.0184,0.0371,0.0184,0.0578c0,0.0285-0.01,0.054-0.0308,0.0758c-0.021,0.0214-0.0483,0.0333-0.083,0.0359
				c0.0146,0.0062,0.0255,0.0128,0.0343,0.0214c0.0159,0.0152,0.0356,0.0413,0.0585,0.0774l0.0489,0.0779l-0.0789-0.0001
				l-0.0355-0.0625c-0.0278-0.0489-0.0499-0.0793-0.0668-0.0917c-0.0116-0.0098-0.0289-0.0136-0.0511-0.0138h-0.0382v0.1677
				L48.2221,32.6668z"/>
		</g>
		<g>
			<path class="st1" d="M17.1293,31.6984v0.2772c-0.1849,0.1008-0.3982,0.1513-0.6401,0.1513c-0.1966,0-0.3633-0.0395-0.5002-0.1184
				c-0.137-0.079-0.2454-0.1878-0.3253-0.3265c-0.0797-0.1386-0.1196-0.2886-0.1196-0.4498c0-0.2563,0.0915-0.4718,0.2741-0.6465
				c0.1827-0.1747,0.408-0.2622,0.676-0.2622c0.1849,0,0.3903,0.0483,0.6162,0.1449v0.271
				c-0.2059-0.1177-0.4071-0.1765-0.6035-0.1765c-0.2017,0-0.3691,0.0636-0.5021,0.1909c-0.1331,0.1273-0.1997,0.2867-0.1997,0.4783
				c0,0.1932,0.0655,0.3518,0.1966,0.4763c0.1311,0.1243,0.2987,0.1866,0.5027,0.1866
				C16.7177,31.895,16.9261,31.8295,17.1293,31.6984z"/>
			<path class="st1" d="M18.5175,30.3211c0.272,0,0.4985,0.0861,0.6794,0.2582c0.1809,0.1723,0.2714,0.3881,0.2714,0.6477
				c0,0.2595-0.0912,0.4744-0.274,0.6446c-0.1824,0.17-0.4127,0.2552-0.6906,0.2552c-0.2653,0-0.4864-0.0851-0.6631-0.2552
				c-0.1766-0.1702-0.2651-0.3834-0.2651-0.6395c0-0.263,0.0889-0.4806,0.2669-0.6529
				C18.0204,30.4071,18.2454,30.3211,18.5175,30.3211z M18.5275,30.5603c-0.2015,0-0.3671,0.0632-0.4967,0.1891
				c-0.1296,0.126-0.1945,0.2868-0.1945,0.4827c0,0.1898,0.0651,0.3477,0.1952,0.4737c0.13,0.126,0.2929,0.189,0.4885,0.189
				c0.1963,0,0.3603-0.0643,0.4916-0.1927c0.1313-0.1286,0.1971-0.2886,0.1971-0.4802c0-0.1866-0.0657-0.3433-0.1971-0.4706
				C18.8802,30.6241,18.7188,30.5603,18.5275,30.5603z"/>
			<path class="st1" d="M21.3924,30.3462h0.2357v1.7604h-0.2534v-1.3698l-0.5413,0.6805H20.787l-0.5476-0.6805v1.3698h-0.2522
				v-1.7604h0.2386l0.585,0.723L21.3924,30.3462z"/>
			<path class="st1" d="M22.2076,32.1066v-1.7628h0.5582c0.1681,0,0.3021,0.0452,0.402,0.136
				c0.0999,0.0907,0.1499,0.2125,0.1499,0.3655c0,0.1026-0.0257,0.1932-0.0768,0.2722c-0.0512,0.079-0.1214,0.1363-0.2105,0.1721
				c-0.089,0.0356-0.2168,0.0535-0.3831,0.0535h-0.1866v0.7636L22.2076,32.1066C22.2076,32.1067,22.2076,32.1066,22.2076,32.1066z
				 M22.7219,30.568H22.461v0.5507h0.2758c0.1026,0,0.1816-0.0242,0.2369-0.0725c0.0555-0.0483,0.0831-0.1174,0.0831-0.2073
				C23.057,30.6583,22.9453,30.568,22.7219,30.568z"/>
			<path class="st1" d="M24.1069,30.3362h0.177l0.7893,1.7704h-0.2578l-0.2348-0.5217h-0.751l-0.2199,0.5217h-0.2589
				L24.1069,30.3362z M24.4771,31.3607l-0.2841-0.6376l-0.2634,0.6376H24.4771z"/>
			<path class="st1" d="M26.8791,30.3462h0.2393v1.7604h-0.2169l-1.1768-1.3558v1.3558h-0.2369v-1.7604h0.2042l1.1871,1.3672
				C26.8791,31.7135,26.8791,30.3462,26.8791,30.3462z M26.7038,29.8673c-0.0008,0.1017-0.0244,0.1811-0.0706,0.2381
				c-0.0353,0.0445-0.0794,0.0668-0.1323,0.0668c-0.0463,0-0.1084-0.0167-0.1866-0.0504c-0.0782-0.0336-0.137-0.0505-0.1764-0.0505
				c-0.0219,0-0.0408,0.0085-0.0568,0.0253s-0.0255,0.042-0.0289,0.0755h-0.1058c0.0134-0.1184,0.0378-0.1975,0.0731-0.2374
				c0.0353-0.04,0.0797-0.0599,0.1335-0.0599c0.0487,0,0.1282,0.0222,0.2383,0.0668c0.0562,0.0227,0.0965,0.0341,0.1209,0.0341
				c0.0234,0,0.0435-0.0081,0.0599-0.0245c0.0163-0.0163,0.0275-0.0442,0.0333-0.0839
				C26.6054,29.8673,26.7038,29.8673,26.7038,29.8673z"/>
			<path class="st1" d="M27.712,30.3462h0.252v1.7604h-0.252V30.3462z M28.1908,29.8384l-0.2847,0.3781h-0.1412l0.1701-0.3781
				H28.1908z"/>
			<path class="st1" d="M29.1309,30.3362h0.1771l0.7893,1.7704h-0.258l-0.2346-0.5217h-0.751l-0.2199,0.5217h-0.259L29.1309,30.3362
				z M29.5012,31.3607l-0.2841-0.6376l-0.2634,0.6376H29.5012z"/>
			<path class="st1" d="M31.4381,32.1041v-1.7579h0.5935c0.2393,0,0.4288,0.0359,0.5682,0.1077
				c0.1394,0.0719,0.2503,0.1776,0.3327,0.317c0.0823,0.1396,0.1235,0.2915,0.1235,0.4562c0,0.1176-0.0227,0.2302-0.0681,0.3377
				c-0.0452,0.1077-0.11,0.202-0.194,0.2836c-0.0857,0.0841-0.1852,0.1475-0.2987,0.1903
				c-0.0662,0.0262-0.1272,0.0435-0.1827,0.0523s-0.1613,0.0133-0.3176,0.0133h-0.5568
				C31.4381,32.1043,31.4381,32.1041,31.4381,32.1041z M32.0052,30.5706h-0.315v1.3092h0.3226c0.126,0,0.2239-0.0086,0.2936-0.0259
				c0.0697-0.0172,0.1279-0.039,0.1746-0.0655c0.0466-0.0265,0.0893-0.0591,0.1278-0.0976
				c0.1243-0.1261,0.1866-0.2853,0.1866-0.4776c0-0.1891-0.0639-0.3431-0.1916-0.4626c-0.047-0.0445-0.101-0.0811-0.1619-0.1096
				c-0.061-0.0285-0.1188-0.0475-0.1733-0.0568C32.214,30.5752,32.1262,30.5706,32.0052,30.5706z"/>
			<path class="st1" d="M33.5853,30.3462h0.9981v0.2244h-0.746v0.5368h0.7208v0.2256h-0.7208v0.5468h0.7699v0.2244h-1.022
				C33.5853,32.1042,33.5853,30.3462,33.5853,30.3462z"/>
			<path class="st1" d="M36.4571,31.369l-0.1915-0.1164c-0.1202-0.0733-0.2056-0.1455-0.2565-0.2165s-0.0762-0.1527-0.0762-0.2451
				c0-0.1386,0.0481-0.2512,0.1443-0.3378c0.0962-0.0865,0.2211-0.1298,0.3749-0.1298c0.1469,0,0.2819,0.0413,0.4045,0.1238v0.286
				c-0.1269-0.1219-0.2634-0.183-0.4095-0.183c-0.0824,0-0.1499,0.0191-0.2029,0.0571s-0.0794,0.0869-0.0794,0.1462
				c0,0.0527,0.0195,0.1021,0.0585,0.1481c0.039,0.0462,0.1017,0.0944,0.1881,0.145l0.1925,0.1139
				c0.2147,0.1282,0.3221,0.2915,0.3221,0.4897c0,0.1412-0.0472,0.2559-0.1417,0.3441c-0.0945,0.0883-0.2174,0.1324-0.3685,0.1324
				c-0.1739,0-0.3323-0.0534-0.4751-0.1603v-0.3202c0.136,0.1725,0.2936,0.2587,0.4725,0.2587c0.079,0,0.1446-0.022,0.1972-0.0658
				c0.0526-0.044,0.0788-0.099,0.0788-0.1652C36.6891,31.5668,36.6118,31.4652,36.4571,31.369z"/>
			<path class="st1" d="M37.4174,30.3462h0.9981v0.2244h-0.746v0.5368h0.7208v0.2256h-0.7208v0.5468h0.7699v0.2244h-1.022
				C37.4174,32.1042,37.4174,30.3462,37.4174,30.3462z"/>
			<path class="st1" d="M39.8734,31.2397h0.5911v0.746c-0.2169,0.094-0.4318,0.1411-0.6452,0.1411
				c-0.2915,0-0.5244-0.0851-0.6987-0.2552c-0.1743-0.1702-0.2615-0.38-0.2615-0.6295c0-0.263,0.0903-0.4818,0.271-0.6566
				c0.1805-0.1747,0.4071-0.2622,0.6791-0.2622c0.0991,0,0.1932,0.0108,0.2822,0.0321c0.089,0.0214,0.2017,0.0607,0.3378,0.1178
				v0.2571c-0.2101-0.1218-0.4184-0.1827-0.6251-0.1827c-0.1923,0-0.3545,0.0655-0.4864,0.1966
				c-0.1318,0.1311-0.1978,0.2919-0.1978,0.4827c0,0.1998,0.066,0.3634,0.1978,0.4903c0.1319,0.1269,0.3016,0.1903,0.5091,0.1903
				c0.1008,0,0.2213-0.0231,0.3617-0.0694l0.0239-0.0076V31.464h-0.339L39.8734,31.2397L39.8734,31.2397z"/>
			<path class="st1" d="M42.2715,30.3462h0.2532v0.9992c0,0.1353-0.0099,0.2374-0.0295,0.3062
				c-0.0198,0.069-0.0441,0.1263-0.0732,0.1721c-0.029,0.0457-0.0644,0.0868-0.1064,0.1228
				c-0.1394,0.1202-0.3218,0.1803-0.5468,0.1803c-0.2293,0-0.4133-0.0597-0.5519-0.1789c-0.042-0.037-0.0776-0.0784-0.1066-0.1241
				c-0.029-0.0458-0.0529-0.102-0.0719-0.1683c-0.0187-0.0663-0.0283-0.1705-0.0283-0.3124v-0.9968h0.2532v0.9992
				c0,0.1655,0.019,0.2806,0.0568,0.3453c0.0377,0.0646,0.0953,0.1165,0.1727,0.1555c0.0772,0.0391,0.1684,0.0586,0.2734,0.0586
				c0.1495,0,0.2714-0.039,0.3655-0.1171c0.0495-0.042,0.0853-0.0916,0.1071-0.1489c0.022-0.057,0.0329-0.1549,0.0329-0.2936
				L42.2715,30.3462L42.2715,30.3462z"/>
			<path class="st1" d="M43.0956,32.1066v-1.7604h0.4411c0.1781,0,0.3195,0.0441,0.4238,0.1322
				c0.1046,0.0883,0.1569,0.2076,0.1569,0.358c0,0.1025-0.0256,0.191-0.0768,0.2658s-0.1248,0.1306-0.2205,0.1676
				c0.0562,0.0371,0.1113,0.0875,0.165,0.1513c0.0538,0.0638,0.1294,0.1752,0.2269,0.3338c0.0614,0.1,0.1104,0.1753,0.1474,0.2256
				l0.0933,0.126H44.153l-0.0768-0.116c-0.0025-0.0042-0.0076-0.0114-0.0151-0.0214l-0.0491-0.0694l-0.0781-0.1286l-0.0843-0.1375
				c-0.0521-0.0723-0.0998-0.1298-0.1431-0.1725c-0.0434-0.0428-0.0825-0.0736-0.1174-0.0926s-0.0935-0.0284-0.176-0.0284h-0.0656
				v0.7663h-0.2518L43.0956,32.1066L43.0956,32.1066z M43.4232,30.5603h-0.0756v0.5558h0.0958c0.1276,0,0.2152-0.0109,0.2627-0.0329
				c0.0475-0.0219,0.0843-0.0547,0.1108-0.099c0.0265-0.0441,0.0398-0.0942,0.0398-0.1505c0-0.0555-0.0147-0.1056-0.0441-0.1505
				c-0.0294-0.0449-0.0708-0.0767-0.1242-0.0951C43.6351,30.5696,43.5467,30.5603,43.4232,30.5603z"/>
			<path class="st1" d="M45.5698,30.3211c0.272,0,0.4985,0.0861,0.6794,0.2582c0.181,0.1723,0.2714,0.3881,0.2714,0.6477
				c0,0.2595-0.0913,0.4744-0.2739,0.6446c-0.1826,0.17-0.413,0.2552-0.6907,0.2552c-0.2653,0-0.4862-0.0851-0.6631-0.2552
				c-0.1766-0.1702-0.265-0.3834-0.265-0.6395c0-0.263,0.0889-0.4806,0.2669-0.6529
				C45.0729,30.4071,45.2977,30.3211,45.5698,30.3211z M45.58,30.5603c-0.2015,0-0.3671,0.0632-0.4967,0.1891
				s-0.1945,0.2868-0.1945,0.4827c0,0.1898,0.065,0.3477,0.1951,0.4737s0.2929,0.189,0.4885,0.189
				c0.1963,0,0.3603-0.0643,0.4917-0.1927c0.1313-0.1286,0.1969-0.2886,0.1969-0.4802c0-0.1866-0.0657-0.3433-0.1969-0.4706
				C45.9327,30.6241,45.7713,30.5603,45.58,30.5603z"/>
			<path class="st1" d="M47.4809,31.369l-0.1915-0.1164c-0.1201-0.0733-0.2056-0.1455-0.2565-0.2165
				c-0.0507-0.071-0.0761-0.1527-0.0761-0.2451c0-0.1386,0.0481-0.2512,0.1443-0.3378c0.0961-0.0865,0.2211-0.1298,0.3749-0.1298
				c0.147,0,0.2819,0.0413,0.4045,0.1238v0.286c-0.1269-0.1219-0.2633-0.183-0.4095-0.183c-0.0823,0-0.1499,0.0191-0.2029,0.0571
				s-0.0794,0.0869-0.0794,0.1462c0,0.0527,0.0195,0.1021,0.0585,0.1481c0.039,0.0462,0.1017,0.0944,0.1881,0.145l0.1925,0.1139
				c0.2148,0.1282,0.3221,0.2915,0.3221,0.4897c0,0.1412-0.0472,0.2559-0.1417,0.3441c-0.0946,0.0883-0.2174,0.1324-0.3685,0.1324
				c-0.1739,0-0.3323-0.0534-0.4751-0.1603v-0.3202c0.136,0.1725,0.2936,0.2587,0.4725,0.2587c0.079,0,0.1446-0.022,0.1971-0.0658
				c0.0526-0.044,0.0789-0.099,0.0789-0.1652C47.7128,31.5668,47.6354,31.4652,47.4809,31.369z"/>
		</g>
		<g>
			<path class="st1" d="M22.8375,27.9566l-1.0136,0.984c-0.3161-0.0168-0.6464-0.073-0.9909-0.169
				c-0.3447-0.0958-0.6942-0.228-1.0489-0.3962s-0.828-0.4557-1.4197-0.8629c-0.8575-0.1548-1.5644-0.5618-2.1208-1.2213
				c-0.5566-0.6595-0.8348-1.4198-0.8348-2.281c0-1.0531,0.3581-1.9245,1.0742-2.6141c0.7161-0.6897,1.6223-1.0346,2.7183-1.0346
				c1.0893,0,1.9947,0.3425,2.7159,1.0271c0.7212,0.6846,1.0817,1.5451,1.0817,2.5813c0,0.8714-0.2723,1.6369-0.817,2.2964
				c-0.5448,0.6595-1.2492,1.0748-2.1132,1.2464l0.2673,0.1009c0.8305,0.3196,1.429,0.4793,1.7955,0.4793
				C22.333,28.0928,22.5684,28.0473,22.8375,27.9566z M19.2013,21.3203c-0.7932,0-1.4487,0.2557-1.9663,0.7671
				c-0.5177,0.5114-0.7765,1.1556-0.7765,1.9328c0,0.757,0.2605,1.3872,0.7815,1.89c0.521,0.5029,1.1748,0.7544,1.9613,0.7544
				c0.7765,0,1.4303-0.2572,1.9613-0.7722c0.5311-0.5146,0.7967-1.1489,0.7967-1.9025c0-0.7705-0.2605-1.4081-0.7815-1.9127
				C20.6568,21.5724,19.998,21.3203,19.2013,21.3203z"/>
			<path class="st1" d="M26.7798,27.5125V26.917c-0.1951,0.2135-0.418,0.3796-0.6686,0.4983
				c-0.2507,0.1185-0.5004,0.178-0.7495,0.178c-0.2928,0-0.5627-0.0732-0.81-0.2195c-0.2472-0.1464-0.434-0.3449-0.5601-0.5955
				c-0.1263-0.2506-0.1893-0.6669-0.1893-1.2492v-2.6593h0.9185v2.646c0,0.4873,0.0697,0.8276,0.2095,1.0208
				c0.1396,0.1932,0.3842,0.2897,0.7342,0.2897c0.4373,0,0.8092-0.2135,1.1153-0.6408v-3.3157h0.9185v4.6429h-0.9185V27.5125z"/>
			<path class="st1" d="M32.0175,24.7216v1.9733c0,0.1582,0.0538,0.2373,0.1615,0.2373c0.111,0,0.2843-0.0825,0.5198-0.2473v0.56
				c-0.2087,0.1347-0.376,0.2264-0.5021,0.2751c-0.1263,0.0487-0.2583,0.0732-0.3962,0.0732c-0.3936,0-0.6257-0.1548-0.6964-0.4643
				c-0.3904,0.3028-0.8058,0.4542-1.2465,0.4542c-0.323,0-0.5923-0.1067-0.8075-0.3204c-0.2153-0.2137-0.323-0.4821-0.323-0.805
				c0-0.2925,0.1051-0.5541,0.3153-0.7847c0.2102-0.2304,0.5089-0.4129,0.8958-0.5476l1.1758-0.4037v-0.2472
				c0-0.5584-0.2793-0.8378-0.8378-0.8378c-0.5014,0-0.9892,0.259-1.4635,0.7771v-1.0043c0.3565-0.4203,0.8697-0.6307,1.5393-0.6307
				c0.5013,0,0.9034,0.1312,1.2062,0.3936c0.1009,0.0841,0.1917,0.1961,0.2726,0.3356c0.0807,0.1396,0.1321,0.2792,0.1539,0.4188
				C32.0065,24.0665,32.0175,24.3314,32.0175,24.7216z M31.1141,26.594v-1.3776l-0.6157,0.2371
				c-0.3129,0.1244-0.5342,0.2497-0.6636,0.376c-0.1296,0.126-0.1944,0.2835-0.1944,0.4718c0,0.1917,0.0614,0.3483,0.1843,0.4694
				c0.1228,0.1211,0.2818,0.1817,0.4769,0.1817C30.5943,26.9523,30.865,26.8328,31.1141,26.594z M31.7853,20.3514l-1.1406,1.514
				h-0.5652l0.6813-1.514H31.7853z"/>
			<path class="st1" d="M33.3637,20.4622h0.9185v7.0503h-0.9185V20.4622z"/>
			<path class="st1" d="M36.1895,20.9166c0.1514,0,0.2808,0.0521,0.3886,0.1563c0.1077,0.1043,0.1615,0.2321,0.1615,0.3835
				c0,0.148-0.0539,0.2758-0.1615,0.3835c-0.1078,0.1077-0.2372,0.1615-0.3886,0.1615c-0.1414,0-0.2658-0.0546-0.3735-0.1641
				c-0.1078-0.1092-0.1615-0.2363-0.1615-0.381c0-0.1414,0.0538-0.2665,0.1615-0.376
				C35.9237,20.9712,36.0483,20.9166,36.1895,20.9166z M35.7353,22.8696h0.9185v4.6429h-0.9185V22.8696z"/>
			<path class="st1" d="M37.3347,23.6064l1.726-1.6956v0.9589h1.4686v0.8276h-1.4686v2.2723c0,0.5305,0.2203,0.796,0.6611,0.796
				c0.3297,0,0.6779-0.1092,1.0446-0.3282v0.8581c-0.3533,0.1985-0.7386,0.2977-1.1557,0.2977
				c-0.4207,0-0.7705-0.1228-1.0497-0.3685c-0.0876-0.0738-0.1599-0.1572-0.217-0.2497c-0.0573-0.0924-0.1052-0.2135-0.1439-0.3633
				c-0.0387-0.1496-0.058-0.4348-0.058-0.8553v-2.0591h-0.8075L37.3347,23.6064L37.3347,23.6064z"/>
			<path class="st1" d="M44.5213,24.7216v1.9733c0,0.1582,0.0538,0.2373,0.1615,0.2373c0.111,0,0.2843-0.0825,0.5198-0.2473v0.56
				c-0.2087,0.1347-0.376,0.2264-0.5021,0.2751c-0.1263,0.0487-0.2583,0.0732-0.3962,0.0732c-0.3936,0-0.6257-0.1548-0.6964-0.4643
				c-0.3904,0.3028-0.8058,0.4542-1.2465,0.4542c-0.323,0-0.5923-0.1067-0.8075-0.3204c-0.2153-0.2137-0.323-0.4821-0.323-0.805
				c0-0.2925,0.1051-0.5541,0.3153-0.7847c0.2102-0.2304,0.5089-0.4129,0.8958-0.5476l1.1758-0.4037v-0.2472
				c0-0.5584-0.2793-0.8378-0.8378-0.8378c-0.5014,0-0.9892,0.259-1.4635,0.7771v-1.0043c0.3565-0.4203,0.8697-0.6307,1.5393-0.6307
				c0.5013,0,0.9034,0.1312,1.2062,0.3936c0.1009,0.0841,0.1917,0.1961,0.2726,0.3356c0.0807,0.1396,0.1321,0.2792,0.1539,0.4188
				C44.5103,24.0665,44.5213,24.3314,44.5213,24.7216z M43.6181,26.594v-1.3776l-0.6157,0.2371
				c-0.3129,0.1244-0.5342,0.2497-0.6636,0.376c-0.1296,0.126-0.1944,0.2835-0.1944,0.4718c0,0.1917,0.0614,0.3483,0.1843,0.4694
				c0.1228,0.1211,0.2818,0.1817,0.4769,0.1817C43.0982,26.9523,43.3689,26.8328,43.6181,26.594z"/>
			<path class="st1" d="M45.6509,27.1794v-0.9892c0.259,0.1817,0.524,0.3289,0.7948,0.4415c0.2709,0.1129,0.4989,0.169,0.6839,0.169
				c0.1917,0,0.3565-0.0469,0.4945-0.1414c0.138-0.094,0.207-0.2068,0.207-0.3381c0-0.1346-0.0446-0.2464-0.1338-0.3356
				c-0.0892-0.089-0.2818-0.2177-0.5778-0.3859c-0.5923-0.3297-0.98-0.6115-1.1632-0.8454
				c-0.1834-0.2337-0.2751-0.4886-0.2751-0.7646c0-0.3567,0.1387-0.6476,0.4164-0.8729c0.2774-0.2255,0.635-0.3382,1.0723-0.3382
				c0.4542,0,0.9202,0.1278,1.3979,0.3835v0.9083c-0.545-0.3297-0.9909-0.4945-1.3374-0.4945c-0.1785,0-0.3222,0.0381-0.4316,0.1138
				c-0.1093,0.0756-0.164,0.1759-0.164,0.3004c0,0.1079,0.0495,0.2107,0.1485,0.3083c0.0991,0.0977,0.2732,0.2153,0.5222,0.3533
				l0.3282,0.1867c0.774,0.4374,1.1611,0.9216,1.1611,1.453c0,0.38-0.149,0.6921-0.4466,0.9359
				c-0.2978,0.2438-0.6806,0.3657-1.1482,0.3657c-0.2758,0-0.5216-0.0295-0.7368-0.0883
				C46.2481,27.4461,45.9773,27.3375,45.6509,27.1794z"/>
		</g>
	</g>
</g>


</svg>
