<?xml version="1.0" encoding="utf-8"?>
<!-- Generator: Adobe Illustrator 24.1.1, SVG Export Plug-In . SVG Version: 6.00 Build 0)  -->
<svg version="1.1" id="Capa_1" xmlns="http://www.w3.org/2000/svg" xmlns:xlink="http://www.w3.org/1999/xlink" x="0px" y="0px"
	 width="402.0798px" height="173.2881px" viewBox="0 0 402.0798 173.2881" style="enable-background:new 0 0 402.0798 173.2881;"
	 xml:space="preserve">
<style type="text/css">
	.st0{fill:#FFFFFF;}
	.st1{fill:#35A0AD;}
	.st2{fill:#E9E8E8;}
	.st3{fill:#6F2E82;}
	.st4{fill:none;stroke:#FFFFFF;stroke-miterlimit:10;}
	.st5{fill:none;stroke:#FFFFFF;stroke-width:2;stroke-linecap:round;stroke-linejoin:round;stroke-miterlimit:10;}
	.st6{fill:none;}
	.st7{fill:#FFFFFF;stroke:#35A0AD;stroke-width:2;stroke-linecap:round;stroke-linejoin:round;stroke-miterlimit:10;}
	.st8{fill:#EDEDED;}
</style>
<g>
	<path class="st0" d="M93.8309,73.6561c1.981-19.3492-12.2965-51.0123-28.1398-62.4747c-1.2042-0.8712-2.5005-1.6514-3.8413-2.2909
		C56.317,6.2514,51.6038,7.414,49.2185,11.846c-0.0004-0.0007-0.0007-0.0015-0.0011-0.0024
		c-0.0016,0.0041-0.0035,0.0086-0.0051,0.0126c-0.2848,0.5306-0.5273,1.1196-0.7428,1.7429
		c-4.5504,9.8916-18.2271,28.5214-25.9483,32.8183c-3.4874,1.9406-7.0333,3.8253-10.7065,5.3688
		c-3.6428,1.5308-5.576,4.0634-5.9114,7.8987c-0.9437,10.7947,2.9254,19.7306,11.348,26.2772
		c2.0219,1.5715,5.7924,2.5966,8.3094,2.0602c4.5781,5.2401,11.0777,12.2444,13.1074,14.9943
		c6.2288,8.4393,8.2654,8.8829,17.3265,3.7352c0.8674-0.4927,1.9045-0.8484,2.5383-1.5576
		c1.4182-1.5864,4.0327-4.4106,3.6874-4.8692c-1.5471-2.0549-3.814-4.5526-6.093-4.8571c-4.1631-0.5563-7.2921-2.0876-9.6555-5.348
		c-1.1898-1.6415-3.561-4.079-6.1057-5.9509c11.9578-1.9968,26.8088-2.508,37.3112-0.6403
		c0.1843,0.1135,0.3669,0.2324,0.5523,0.3421c7.6469,4.5239,13.773,1.4592,15.2814-7.2394
		C93.6813,75.6509,93.7272,74.6486,93.8309,73.6561z"/>
	<path class="st0" d="M90.4587,30.8681c73.3182,0.0117,234.7758,0.813,308.3269,0.8247
		c-1.9968,8.6014-3.7116,16.3325-5.5924,24.0231c-5.0225,20.5369-10.2233,41.0308-15.0829,61.606
		c-0.8722,3.6932-2.3542,4.6387-6.0241,4.616c-52.7679-0.3275-194.1995-1.2798-246.9681-1.4749
		c-1.1473-0.0043-2.2949,0.0728-4.2761,0.1403c1.2839,7.8989,2.517,15.4846,3.8683,23.7991
		c-11.5246-4.4088-22.481-8.589-33.4286-12.7922c-7.9207-3.0411-15.7452-6.3628-23.7765-9.074
		c-4.5801-1.546-7.4735-3.8376-7.8898-8.8726c-0.175-2.1182-0.9127-4.1898-1.4476-6.5128
		c4.6588-3.2955,11.1361-5.8051,8.9492-13.2188c-1.7588-5.9626-6.3349-9.1796-12.9232-9.1733
		c-0.1487-0.4299-0.2973-0.8597-0.446-1.2897c1.2425-0.6708,2.472-1.8567,3.7305-1.8882c1.7533-0.0437,3.5347,0.7524,5.2927,1.231
		c4.6462,1.2645,9.2166,2.9751,13.9416,3.7507c14.4569,2.3726,23.2381-4.8665,22.126-19.6413
		c-0.7623-10.1271-3.9801-20.0757-6.2028-30.0811C92.217,34.952,91.3143,33.1718,90.4587,30.8681z"/>
	<path class="st3" d="M92.9374,68.9575c-0.1035,0.9923-0.1494,1.9948-0.3194,2.9755c-1.5085,8.6984-7.6346,11.7632-15.2814,7.2394
		c-3.3755-1.9969-6.5655-4.6351-9.1498-7.5862C55.679,57.3035,48.2948,40.6349,46.2987,21.7349
		c-0.3775-3.5745,0.028-7.3492,0.7411-10.8971c1.48-7.3635,7.0733-9.9102,13.9166-6.6457c1.3408,0.6396,2.6372,1.4197,3.8413,2.2908
		C80.6409,17.9451,94.9184,49.6082,92.9374,68.9575z M83.0369,71.4869c6.7665-14.8953-15.2386-58.5881-27.0989-58.683
		C50.6733,28.8514,70.3187,68.6084,83.0369,71.4869z"/>
	<path class="st3" d="M40.0669,21.8322c4.8632,9.4545,0.977,15.4919-6.0363,20.9848c-1.9564,1.5323-3.3914,5.0076-3.348,7.5623
		c0.1049,6.169,2.7111,11.764,7.4202,15.8211c1.7167,1.479,4.8472,2.4272,7.0511,2.0352c8.7776-1.5614,16.2763-0.8682,19.938,8.916
		c-13.9551-4.8689-26.6788,0.6279-39.6188,5.946c-2.4415,1.0034-6.8671-0.0865-9.1152-1.834
		C7.9352,74.7171,4.0663,65.7812,5.0099,54.9864c0.3353-3.8353,2.2686-6.368,5.9114-7.8987
		c3.6733-1.5435,7.2192-3.4282,10.7065-5.3688C29.8334,37.1523,36.5116,31.0823,40.0669,21.8322z"/>
	<path class="st3" d="M29.0273,86.5194c2.9435-1.2925,5.2398-2.2084,7.4532-3.2934c3.6824-1.8052,6.6475-1.1855,9.0981,2.1954
		c2.3634,3.2605,5.4924,4.7919,9.6555,5.3481c2.2789,0.3045,4.5459,2.8022,6.093,4.857c0.3453,0.4586-2.2693,3.2828-3.6874,4.8692
		c-0.634,0.7092-1.671,1.0649-2.5383,1.5576c-9.0612,5.1478-11.0978,4.7042-17.3266-3.7352
		C35.0156,94.5794,32.2405,90.8523,29.0273,86.5194z"/>
	<path class="st0" d="M25.1763,165.136c-4.4395-4.7275-8.4899-9.0405-11.9885-12.7659
		c10.0073-8.615,19.9188-17.1475,29.8303-25.6799c0.2526,0.2021,0.5053,0.4041,0.7579,0.6062
		C37.6713,139.7164,31.5662,152.1362,25.1763,165.136"/>
	<path class="st0" d="M47.1567,168.2624c2.1281-11.9923,4.0939-23.0711,6.0599-34.1501c0.3068-0.0823,0.6137-0.1647,0.9205-0.247
		c3.5445,9.9528,7.089,19.9055,10.8691,30.5199C59.1868,165.6492,53.6473,166.8525,47.1567,168.2624"/>
	<path class="st0" d="M33.4421,123.4811c-4.109,2.4312-8.218,4.8623-12.6887,7.5074c-1.9647-2.0899-3.8228-4.0664-5.928-6.3057
		c1.2094-0.3873,1.8218-0.7175,2.4557-0.7656c5.2842-0.4017,10.5725-0.7515,15.8596-1.1169
		C33.2411,123.0272,33.3415,123.2542,33.4421,123.4811z"/>
	<path class="st3" d="M69.1575,52.0885c-2.6457-5.9073-4.9138-10.9716-7.3913-16.5036c5.0195-0.808,7.9166,1.1775,9.7196,4.5258
		C73.558,43.9589,72.947,47.7416,69.1575,52.0885z"/>
	<g>
		<path class="st2" d="M121.1902,120.5908l1.8719,9.0764c1.284,7.899,2.5169,15.4846,3.8683,23.7991
			c-11.5246-4.4088-22.481-8.5889-33.4285-12.7922c-7.9207-3.041-15.7452-6.3627-23.7766-9.0739
			c-4.58-1.5461-7.4734-3.8378-7.8897-8.8726c-0.1751-2.1182-0.976-3.5834-1.5109-5.9063L121.1902,120.5908z"/>
	</g>
	<g>
		<path class="st1" d="M126.3724,43.9711l4.1151,0.0867l9.3488,22.7913l-5.6143-0.1183l-1.8448-4.8252l-8.7721-0.1849
			l-1.9828,4.7446l-5.4864-0.1157L126.3724,43.9711z M128.1478,50.5829l-2.8911,6.9601l5.5188,0.1163L128.1478,50.5829z"/>
		<path class="st1" d="M146.3193,68.1349c-0.0211,0.9995-0.1354,1.8956-0.3436,2.6885c-0.2083,0.7942-0.5419,1.4676-1.0002,2.0215
			s-1.0575,0.9776-1.798,1.271c-0.7398,0.2922-1.6523,0.4275-2.7367,0.4046c-0.3621-0.0076-0.7337-0.0311-1.1159-0.0715
			c-0.3816-0.0392-0.752-0.1172-1.1119-0.2299l0.3445-4.2376c0.3789,0.1989,0.7916,0.3036,1.238,0.3131
			c0.4037,0.0085,0.7252-0.0912,0.964-0.2991c0.2381-0.2079,0.4137-0.4691,0.5269-0.7862s0.184-0.6558,0.213-1.0162
			c0.0284-0.3616,0.0464-0.6911,0.0527-0.9883l0.3335-15.8219l4.7849,0.1009L146.3193,68.1349z M141.6061,46.4944
			c0.0161-0.7657,0.3005-1.4142,0.8545-1.944c0.5533-0.5311,1.2132-0.7886,1.9789-0.7725c0.7651,0.0162,1.4136,0.3012,1.9447,0.8552
			c0.5305,0.5527,0.788,1.2126,0.7719,1.9783c-0.0162,0.7658-0.3012,1.4142-0.8546,1.944c-0.554,0.5311-1.2138,0.7886-1.9789,0.7725
			c-0.7658-0.0161-1.4142-0.3012-1.9447-0.8552C141.8468,47.9201,141.59,47.2603,141.6061,46.4944z"/>
		<path class="st1" d="M164.7165,67.3735l-4.5934-0.0969l0.0444-2.1052l-0.0636-0.0013c-0.177,0.2949-0.4007,0.5875-0.673,0.8792
			c-0.2723,0.293-0.6017,0.5509-0.9896,0.7778c-0.3878,0.2255-0.8279,0.4072-1.3198,0.5461
			c-0.4924,0.1377-1.0255,0.2017-1.5999,0.1896c-1.2116-0.0255-2.1915-0.2332-2.9385-0.6203
			c-0.7476-0.3884-1.3214-0.916-1.7222-1.5841c-0.4001-0.6681-0.6609-1.4501-0.7797-2.346
			c-0.1201-0.8959-0.1685-1.8656-0.1465-2.9078l0.1802-8.5482l4.7849,0.1008l-0.16,7.5917
			c-0.0095,0.4465-0.0036,0.9102,0.0187,1.3885c0.0217,0.4796,0.1078,0.9229,0.259,1.33c0.1511,0.4083,0.3882,0.7418,0.7125,1.0045
			s0.7947,0.3998,1.4119,0.4128c0.6165,0.013,1.1186-0.0881,1.5062-0.3033c0.3876-0.2151,0.6859-0.5062,0.8962-0.8745
			c0.2097-0.3683,0.3516-0.7847,0.425-1.252c0.0734-0.4659,0.1155-0.9545,0.1263-1.4659l0.1627-7.7188l4.7849,0.1008
			L164.7165,67.3735z"/>
		<path class="st1" d="M177.1004,56.688c-0.6832-0.8857-1.5994-1.3413-2.7475-1.3655c-0.4043-0.0085-0.7996,0.0793-1.1865,0.262
			c-0.3869,0.1827-0.5853,0.5097-0.5952,0.9769c-0.0081,0.3829,0.1826,0.6687,0.5728,0.8574c0.3895,0.19,0.8858,0.3589,1.489,0.5106
			c0.6032,0.1516,1.2484,0.3133,1.9362,0.4875c0.6871,0.1742,1.3309,0.4371,1.9298,0.7899
			c0.5989,0.3541,1.0889,0.8267,1.4698,1.4191c0.381,0.5937,0.5618,1.3792,0.5411,2.3578c-0.0211,0.9994-0.2571,1.819-0.7062,2.4575
			c-0.4498,0.6398-1.0189,1.1498-1.7073,1.5287c-0.689,0.379-1.4606,0.6393-2.3141,0.781c-0.8541,0.1404-1.6956,0.2032-2.525,0.1857
			c-1.0845-0.0228-2.1773-0.2004-3.276-0.5313c-1.0994-0.3322-2.0236-0.8997-2.7722-1.7023l2.9701-3.1603
			c0.4355,0.5624,0.9205,0.992,1.457,1.2903c0.5365,0.2996,1.1656,0.4557,1.8892,0.4709c0.5523,0.0116,1.0543-0.057,1.5042-0.2073
			c0.4499-0.1502,0.6793-0.4376,0.6882-0.8633c0.0085-0.4036-0.1818-0.7102-0.5707-0.921c-0.3896-0.2108-0.8858-0.3914-1.489-0.543
			c-0.6026-0.1503-1.2484-0.3133-1.9362-0.4875c-0.6879-0.1729-1.3311-0.4267-1.9305-0.7588
			c-0.5995-0.3307-1.0897-0.793-1.4706-1.3867c-0.3816-0.5923-0.5618-1.3792-0.5411-2.3565
			c0.0193-0.915,0.2221-1.6977,0.6085-2.3492c0.3857-0.6515,0.8865-1.1824,1.5016-1.5954c0.6151-0.4129,1.3174-0.7111,2.1089-0.897
			c0.7908-0.1859,1.5905-0.2703,2.3985-0.2533c1.0208,0.0215,2.0489,0.1926,3.0848,0.5117c1.0353,0.3205,1.9067,0.8699,2.6142,1.651
			L177.1004,56.688z"/>
		<path class="st1" d="M193.6705,56.3036l-4.2105-0.0887l-0.1089,5.1671c-0.009,0.4257,0.0043,0.8143,0.0397,1.1669
			c0.0349,0.3514,0.1238,0.6558,0.2677,0.9146c0.1432,0.2589,0.3676,0.4597,0.6735,0.605c0.3047,0.144,0.7134,0.2215,1.2235,0.2322
			c0.2551,0.0054,0.5905-0.0135,1.0063-0.058s0.7318-0.1599,0.9487-0.3475l-0.084,3.9872c-0.5355,0.1809-1.0911,0.2964-1.6668,0.348
			c-0.5751,0.0515-1.1397,0.072-1.6926,0.0604c-0.808-0.017-1.5505-0.1183-2.2271-0.3027
			c-0.6772-0.1844-1.2666-0.4682-1.7695-0.8502c-0.5023-0.3832-0.8912-0.8758-1.1655-1.4776
			c-0.2743-0.6005-0.4025-1.3265-0.3845-2.1779l0.1553-7.3684l-3.0624-0.0646l0.0806-3.8276l3.0625,0.0646l0.0969-4.5934
			l4.7842,0.1008l-0.0968,4.5934l4.2105,0.0887L193.6705,56.3036z"/>
		<path class="st1" d="M210.5787,65.6601c-0.7864,0.9612-1.77,1.6962-2.9506,2.2037c-1.1806,0.5062-2.3985,0.7468-3.653,0.7203
			c-1.1915-0.0251-2.3089-0.2408-3.3535-0.6447c-1.0446-0.4051-1.9474-0.9721-2.7086-1.701s-1.3544-1.5972-1.7799-2.606
			c-0.4254-1.0088-0.6251-2.131-0.5991-3.3641c0.026-1.233,0.2728-2.3446,0.7404-3.3346c0.4675-0.99,1.0969-1.8337,1.8881-2.53
			c0.7912-0.6962,1.7171-1.2247,2.7778-1.584c1.0607-0.3607,2.1862-0.5292,3.3777-0.504c1.1052,0.0233,2.1064,0.2366,3.0024,0.6385
			c0.8953,0.4006,1.6495,0.9645,2.2621,1.6903c0.6119,0.7258,1.0773,1.5927,1.397,2.5992c0.319,1.0065,0.4655,2.1263,0.4395,3.3594
			l-0.0316,1.4991l-11.1-0.2339c0.1715,0.9191,0.5709,1.6559,1.198,2.2119c0.6265,0.5547,1.4067,0.8425,2.3431,0.8623
			c0.7866,0.0165,1.4548-0.1447,2.0048-0.4836c0.5493-0.3403,1.0319-0.7808,1.4479-1.3264L210.5787,65.6601z M206.6716,58.7476
			c0.0378-0.8069-0.2131-1.5043-0.7539-2.0897c-0.5414-0.5853-1.2473-0.8885-2.1189-0.9069
			c-0.5321-0.0112-1.0018,0.0646-1.4091,0.2261c-0.4079,0.1616-0.7578,0.3723-1.0502,0.6323c-0.2931,0.26-0.5228,0.5629-0.6899,0.91
			c-0.1664,0.3484-0.265,0.7125-0.2938,1.0949L206.6716,58.7476z"/>
		<path class="st1" d="M238.3298,66.2451c-0.7864,0.9612-1.7699,1.6962-2.9506,2.2037c-1.1806,0.5062-2.3985,0.7468-3.653,0.7203
			c-1.1915-0.0251-2.3089-0.2408-3.3535-0.6447c-1.0446-0.4051-1.9474-0.9721-2.7086-1.701
			c-0.7611-0.7289-1.3544-1.5972-1.7798-2.606c-0.4254-1.0088-0.6251-2.131-0.5992-3.3641c0.026-1.233,0.2728-2.3446,0.7403-3.3346
			s1.097-1.8337,1.8882-2.53c0.7912-0.6962,1.7171-1.2247,2.7778-1.584c1.0607-0.3607,2.1862-0.5292,3.3777-0.504
			c1.1052,0.0233,2.1064,0.2366,3.0023,0.6385c0.8953,0.4006,1.6496,0.9645,2.2621,1.6903
			c0.6119,0.7258,1.0773,1.5927,1.3969,2.5992c0.319,1.0065,0.4655,2.1263,0.4395,3.3594l-0.0316,1.4991l-11.1-0.2339
			c0.1715,0.9191,0.5709,1.6559,1.198,2.2119c0.6265,0.5547,1.4067,0.8425,2.3432,0.8623c0.7866,0.0165,1.4548-0.1447,2.0047-0.4836
			c0.5493-0.3403,1.0319-0.7808,1.4479-1.3264L238.3298,66.2451z M234.4228,59.3325c0.0378-0.8069-0.2131-1.5043-0.7539-2.0897
			c-0.5415-0.5853-1.2473-0.8885-2.1189-0.9069c-0.5321-0.0112-1.0019,0.0646-1.4091,0.2261
			c-0.4079,0.1616-0.7578,0.3723-1.0502,0.6323c-0.2931,0.26-0.5228,0.5629-0.6899,0.91c-0.1664,0.3484-0.265,0.7125-0.2938,1.0949
			L234.4228,59.3325z"/>
		<path class="st1" d="M246.263,60.7949l-5.0158-7.3177l5.6461,0.119l2.6544,4.2684l2.7366-4.1547l5.3267,0.1123l-5.1918,7.1025
			l5.7905,8.4196l-5.646-0.119l-3.2722-5.2384l-3.7458,5.0905l-5.5818-0.1177L246.263,60.7949z"/>
		<path class="st1" d="M260.4185,53.8813l4.4019,0.0928l-0.043,2.0417l0.0636,0.0013c0.1973-0.2724,0.4531-0.5488,0.768-0.8292
			c0.3137-0.2816,0.6813-0.5336,1.1009-0.7585c0.4196-0.2262,0.8747-0.4075,1.3678-0.5464c0.4918-0.1377,1.0145-0.202,1.5674-0.1903
			c1.1487,0.0242,2.1861,0.2434,3.1136,0.6564s1.7187,0.9828,2.3734,1.7095c0.6547,0.7267,1.1522,1.5825,1.4937,2.5688
			c0.3409,0.985,0.4986,2.0635,0.474,3.2329c-0.0228,1.0837-0.2095,2.1174-0.5594,3.0994
			c-0.3512,0.9821-0.8369,1.8497-1.4592,2.6014c-0.6223,0.753-1.3744,1.3488-2.2556,1.7885
			c-0.8818,0.4385-1.8757,0.6461-2.9809,0.6228c-1.0001-0.0211-1.9268-0.1951-2.7815-0.5209
			c-0.8547-0.3271-1.551-0.8677-2.0882-1.6243l-0.0636-0.0013l-0.1883,8.9311l-4.7849-0.1008L260.4185,53.8813z M264.657,61.7254
			c-0.0247,1.1694,0.2903,2.1227,0.9448,2.8597c0.6552,0.7371,1.5885,1.1191,2.8002,1.1446
			c1.2122,0.0256,2.1609-0.3167,2.8459-1.0256c0.6856-0.7088,1.0404-1.6479,1.0651-2.8174
			c0.0246-1.1695-0.2903-2.1227-0.9454-2.8598c-0.6545-0.7371-1.5879-1.119-2.8001-1.1446
			c-1.2116-0.0255-2.1603,0.3168-2.8459,1.0256C265.0366,59.6168,264.6818,60.5559,264.657,61.7254z"/>
		<path class="st1" d="M280.0674,54.2955l4.7849,0.1008l-0.0524,2.4882l0.0636,0.0013c0.5309-0.9458,1.1515-1.6508,1.8638-2.1149
			c0.7116-0.4642,1.5993-0.6844,2.6623-0.662c0.2765,0.0059,0.5527,0.0234,0.8287,0.0499c0.276,0.0266,0.5302,0.0748,0.7631,0.1434
			l-0.0921,4.3702c-0.3385-0.1136-0.6717-0.1999-0.9996-0.26c-0.3292-0.0602-0.6739-0.0947-1.0354-0.1024
			c-0.9144-0.0193-1.64,0.0927-2.1769,0.3372s-0.9539,0.5916-1.2504,1.0424c-0.2971,0.4521-0.495,0.9959-0.5934,1.6314
			c-0.0985,0.6368-0.1554,1.3368-0.1716,2.1026l-0.1365,6.4754l-4.7849-0.1009L280.0674,54.2955z"/>
		<path class="st1" d="M306.8792,67.6899c-0.7864,0.9612-1.7699,1.6962-2.9506,2.2037c-1.1806,0.5062-2.3985,0.7468-3.653,0.7203
			c-1.1915-0.0251-2.3089-0.2408-3.3535-0.6446c-1.0446-0.4051-1.9474-0.9721-2.7086-1.701
			c-0.7611-0.7289-1.3544-1.5972-1.7799-2.606c-0.4254-1.0089-0.6251-2.131-0.5991-3.3641c0.026-1.233,0.2728-2.3445,0.7403-3.3345
			s1.097-1.8337,1.8881-2.53c0.7912-0.6962,1.7171-1.2247,2.7778-1.584c1.0607-0.3607,2.1862-0.5292,3.3777-0.5041
			c1.1052,0.0233,2.1064,0.2366,3.0023,0.6385c0.8953,0.4006,1.6496,0.9645,2.2621,1.6903c0.6119,0.7258,1.0773,1.5926,1.397,2.5992
			c0.319,1.0066,0.4655,2.1264,0.4395,3.3594l-0.0316,1.4991l-11.1-0.2339c0.1715,0.9191,0.5709,1.6559,1.198,2.2119
			c0.6265,0.5547,1.4067,0.8425,2.3432,0.8622c0.7866,0.0166,1.4548-0.1446,2.0047-0.4836
			c0.5493-0.3403,1.0319-0.7807,1.4479-1.3264L306.8792,67.6899z M300.1219,47.6335l6.5072,0.1371l-5.6157,4.4771l-4.2105-0.0887
			L300.1219,47.6335z M302.9723,60.7774c0.0378-0.8069-0.2131-1.5043-0.7539-2.0896c-0.5415-0.5854-1.2473-0.8885-2.1189-0.9069
			c-0.5321-0.0112-1.0019,0.0646-1.4091,0.2261c-0.4079,0.1615-0.7578,0.3723-1.0502,0.6323c-0.2931,0.26-0.5228,0.5629-0.6899,0.91
			c-0.1664,0.3484-0.265,0.7125-0.2938,1.095L302.9723,60.7774z"/>
		<path class="st1" d="M319.4616,59.6888c-0.6832-0.8857-1.5994-1.3413-2.7474-1.3655c-0.4043-0.0085-0.7996,0.0792-1.1865,0.262
			s-0.5853,0.5097-0.5952,0.9769c-0.0081,0.3829,0.1826,0.6687,0.5728,0.8574c0.3894,0.19,0.8858,0.3589,1.489,0.5106
			c0.6032,0.1516,1.2484,0.3132,1.9362,0.4875c0.6871,0.1742,1.3308,0.4371,1.9298,0.7899
			c0.5989,0.3541,1.0889,0.8267,1.4699,1.4191c0.3809,0.5937,0.5617,1.3792,0.5411,2.3578
			c-0.0211,0.9994-0.2572,1.819-0.7063,2.4575c-0.4498,0.6398-1.0189,1.1498-1.7073,1.5287
			c-0.6891,0.3789-1.4607,0.6392-2.3142,0.781c-0.8542,0.1404-1.6956,0.2031-2.525,0.1857
			c-1.0844-0.0228-2.1773-0.2004-3.276-0.5313c-1.0993-0.3322-2.0236-0.8997-2.7722-1.7024l2.9701-3.1603
			c0.4355,0.5623,0.9205,0.992,1.457,1.2903c0.5364,0.2996,1.1655,0.4557,1.8891,0.4709c0.5523,0.0117,1.0543-0.0569,1.5042-0.2072
			c0.4499-0.1502,0.6793-0.4376,0.6882-0.8633c0.0085-0.4036-0.1817-0.7102-0.5707-0.921c-0.3897-0.2108-0.8858-0.3914-1.489-0.543
			c-0.6026-0.1503-1.2484-0.3133-1.9362-0.4875c-0.6878-0.1729-1.3311-0.4267-1.9305-0.7588
			c-0.5994-0.3307-1.0896-0.793-1.4706-1.3867c-0.3816-0.5923-0.5618-1.3792-0.5412-2.3565
			c0.0193-0.915,0.2221-1.6977,0.6086-2.3492c0.3857-0.6515,0.8865-1.1824,1.5016-1.5954c0.6151-0.4129,1.3174-0.7111,2.1089-0.897
			c0.7908-0.1859,1.5905-0.2703,2.3985-0.2533c1.0208,0.0215,2.0489,0.1925,3.0849,0.5117c1.0353,0.3205,1.9067,0.8699,2.6142,1.651
			L319.4616,59.6888z"/>
		<path class="st1" d="M349.3984,68.5862c-0.7864,0.9612-1.7699,1.6962-2.9506,2.2037c-1.1806,0.5062-2.3985,0.7468-3.653,0.7203
			c-1.1915-0.0251-2.3089-0.2408-3.3535-0.6446c-1.0446-0.4051-1.9474-0.9721-2.7086-1.701
			c-0.7611-0.7289-1.3544-1.5971-1.7799-2.606c-0.4254-1.0089-0.6251-2.131-0.5991-3.3641s0.2728-2.3446,0.7403-3.3346
			s1.097-1.8337,1.8881-2.53c0.7912-0.6962,1.7171-1.2247,2.7778-1.584c1.0607-0.3607,2.1862-0.5292,3.3777-0.5041
			c1.1052,0.0233,2.1064,0.2366,3.0023,0.6385c0.8953,0.4006,1.6496,0.9645,2.2621,1.6903c0.6119,0.7258,1.0773,1.5926,1.397,2.5992
			c0.319,1.0065,0.4655,2.1263,0.4395,3.3594l-0.0316,1.4991l-11.1-0.2339c0.1715,0.9191,0.5709,1.6559,1.198,2.2119
			c0.6265,0.5547,1.4067,0.8425,2.3432,0.8623c0.7866,0.0165,1.4548-0.1447,2.0047-0.4836
			c0.5493-0.3403,1.0319-0.7808,1.4479-1.3265L349.3984,68.5862z M345.4915,61.6736c0.0378-0.8069-0.2131-1.5043-0.7539-2.0896
			c-0.5415-0.5853-1.2473-0.8885-2.1189-0.9069c-0.5321-0.0112-1.0019,0.0646-1.4091,0.2261
			c-0.4079,0.1615-0.7578,0.3723-1.0502,0.6323c-0.2931,0.26-0.5228,0.5629-0.6899,0.91c-0.1664,0.3484-0.265,0.7125-0.2938,1.0949
			L345.4915,61.6736z"/>
		<path class="st1" d="M353.3048,55.8392l4.5934,0.0968l-0.0444,2.1053l0.0636,0.0013c0.1549-0.2941,0.374-0.5869,0.6568-0.8796
			c0.2827-0.2914,0.618-0.5505,1.0058-0.7761c0.3878-0.2269,0.8273-0.4085,1.3198-0.5474c0.4924-0.1376,1.0255-0.2017,1.5999-0.1896
			c1.2122,0.0256,2.1857,0.2331,2.9229,0.62c0.7359,0.3882,1.3052,0.917,1.706,1.5838c0.4008,0.6681,0.6654,1.4501,0.7959,2.3463
			c0.1298,0.8961,0.184,1.8659,0.162,2.9082l-0.1802,8.5482l-4.7849-0.1009l0.16-7.5916c0.0094-0.4465,0.0036-0.9102-0.0181-1.3885
			c-0.0217-0.4796-0.1084-0.923-0.2596-1.33c-0.1505-0.407-0.3889-0.7419-0.7125-1.0045c-0.3249-0.2626-0.7947-0.3998-1.4112-0.4128
			c-0.6172-0.0131-1.1192,0.0881-1.5068,0.3032c-0.3869,0.2152-0.6859,0.5076-0.8956,0.8745
			c-0.2103,0.3682-0.3516,0.7859-0.4257,1.2519c-0.0735,0.4672-0.1155,0.9546-0.1263,1.4659l-0.1627,7.7189l-4.7849-0.1009
			L353.3048,55.8392z"/>
		<path class="st1" d="M132.6818,104.9941l-2.871-0.0605l0.0457-2.1689l-0.0636-0.0013c-0.5706,0.7969-1.3438,1.4078-2.3208,1.8339
			c-0.977,0.4261-1.976,0.6284-2.9968,0.6069c-1.1694-0.0247-2.223-0.2494-3.1607-0.673c-0.9383-0.4236-1.7344-1.004-2.3889-1.7423
			c-0.6545-0.7358-1.1528-1.5877-1.4941-2.5519s-0.4998-2.0103-0.476-3.1382c0.0237-1.1266,0.2262-2.1702,0.6081-3.1296
			c0.3819-0.9606,0.9155-1.7896,1.6003-2.488c0.6847-0.6972,1.5045-1.2396,2.4598-1.6233c0.9547-0.3837,2.0168-0.5638,3.1862-0.5392
			c1.0851,0.0229,2.1011,0.2728,3.048,0.7499c0.9476,0.4784,1.6678,1.1155,2.162,1.9128l0.0636,0.0013l0.2353-11.1636l2.871,0.0605
			L132.6818,104.9941z M124.8829,102.5327c0.7657,0.0161,1.459-0.103,2.0818-0.3561c0.6221-0.2518,1.1509-0.6029,1.5856-1.0508
			c0.4354-0.4479,0.7761-0.9939,1.024-1.6379c0.2473-0.644,0.3797-1.3489,0.3958-2.1147c0.0161-0.7645-0.0864-1.4744-0.3064-2.1282
			c-0.2206-0.6526-0.538-1.2125-0.954-1.6796c-0.4155-0.4658-0.929-0.8376-1.5399-1.1168
			c-0.6116-0.2791-1.2993-0.4273-2.0651-0.4434c-0.7657-0.0162-1.4597,0.103-2.0818,0.356
			c-0.6228,0.2531-1.1509,0.603-1.5856,1.0508c-0.4354,0.4492-0.7767,0.9952-1.024,1.6379c-0.248,0.644-0.3797,1.3489-0.3958,2.1134
			c-0.0162,0.7658,0.0858,1.4756,0.3063,2.1296c0.22,0.6539,0.538,1.2137,0.9541,1.6796c0.4154,0.4659,0.9283,0.8389,1.5399,1.1168
			C123.4288,102.3682,124.1171,102.5165,124.8829,102.5327z"/>
		<path class="st1" d="M137.3635,91.8168c0.8237-0.7267,1.7706-1.2651,2.8421-1.6152c1.0708-0.3488,2.1378-0.5133,3.2014-0.4909
			c1.1058,0.0233,2.055,0.1823,2.8461,0.4755c0.7917,0.2933,1.438,0.6796,1.9383,1.1576c0.5009,0.478,0.8666,1.0233,1.0985,1.6346
			c0.2313,0.6113,0.3406,1.246,0.3267,1.9053l-0.1627,7.7188c-0.0112,0.5322-0.0112,1.0217,0.0009,1.4687
			c0.012,0.4469,0.0348,0.8733,0.0692,1.2779l-2.5518-0.0538c-0.0481-0.7671-0.0638-1.5336-0.0477-2.298l-0.0636-0.0013
			c-0.6585,0.9639-1.4285,1.6398-2.3086,2.025c-0.8807,0.3853-1.8948,0.5665-3.0428,0.5423
			c-0.7022-0.0148-1.3699-0.1249-2.0038-0.3292c-0.6339-0.2055-1.186-0.5042-1.6562-0.8971
			c-0.4708-0.393-0.8386-0.8734-1.1025-1.4426c-0.2646-0.5691-0.389-1.2262-0.3733-1.9712c0.0206-0.9774,0.2552-1.7917,0.7053-2.442
			c0.45-0.6501,1.0565-1.1749,1.8206-1.5731c0.7635-0.3994,1.6523-0.678,2.6666-0.8372c1.0136-0.1591,2.0947-0.2272,3.2434-0.2031
			l2.1053,0.0444l0.0134-0.6386c0.0081-0.3829-0.0591-0.7674-0.1996-1.1534c-0.1406-0.386-0.3565-0.736-0.6479-1.0499
			c-0.2913-0.3152-0.6581-0.5671-1.1007-0.7582c-0.4427-0.1898-0.973-0.2906-1.5895-0.3036
			c-0.5529-0.0117-1.0375,0.0314-1.4545,0.1277c-0.4169,0.099-0.7974,0.2234-1.1409,0.3759
			c-0.3434,0.1512-0.6563,0.3315-0.9365,0.5386c-0.2816,0.207-0.5513,0.4026-0.8104,0.5894L137.3635,91.8168z M145.3389,97.9853
			c-0.6808-0.0143-1.3779,0.0073-2.0914,0.0676c-0.7141,0.059-1.3661,0.1893-1.9547,0.3885
			c-0.5898,0.2006-1.0745,0.489-1.4543,0.8641c-0.3806,0.375-0.5765,0.8604-0.5891,1.4549
			c-0.0184,0.8722,0.2604,1.5052,0.8371,1.9005s1.3644,0.6027,2.3644,0.6238c0.7866,0.0165,1.459-0.1017,2.0182-0.3561
			c0.5579-0.2531,1.0117-0.5903,1.3613-1.0075c0.3491-0.4186,0.6037-0.8859,0.7633-1.4045
			c0.1595-0.5173,0.2457-1.0323,0.2565-1.5424l0.0202-0.9566L145.3389,97.9853z"/>
		<path class="st1" d="M153.8935,90.3148l2.871,0.0605l-0.0491,2.3285l0.0636,0.0013c0.3785-0.7997,1.0198-1.4406,1.9233-1.9215
			c0.9042-0.4808,1.9407-0.7097,3.1101-0.685c0.723,0.0153,1.4169,0.1415,2.082,0.3789c0.6656,0.2374,1.2431,0.5963,1.733,1.074
			c0.4892,0.4778,0.8756,1.0872,1.1581,1.8268c0.2823,0.7409,0.4127,1.6097,0.3917,2.6092l-0.2051,9.7293l-2.871-0.0605
			l0.1882-8.9312c0.0148-0.7021-0.0679-1.3051-0.2488-1.8088c-0.1809-0.5038-0.4274-0.9128-0.7402-1.2285
			c-0.3121-0.3143-0.6741-0.5453-1.0859-0.6929c-0.4118-0.1463-0.8412-0.2255-1.2877-0.2349
			c-0.5958-0.0126-1.15,0.0718-1.6649,0.2532c-0.5141,0.1801-0.967,0.4744-1.3586,0.8803
			c-0.3917,0.4073-0.7006,0.9266-0.9263,1.5608c-0.2263,0.6328-0.3486,1.3859-0.367,2.2568l-0.1641,7.7838l-2.871-0.0605
			L153.8935,90.3148z M155.3022,87.0891c0.0721-0.4023,0.1974-0.8035,0.376-1.2049c0.1786-0.4001,0.4041-0.7511,0.6767-1.0544
			c0.2719-0.302,0.5965-0.5458,0.973-0.7287c0.3752-0.1843,0.7978-0.2715,1.2657-0.2616c0.4886,0.0103,0.9496,0.1005,1.3824,0.2693
			c0.4321,0.1688,0.8596,0.3428,1.2817,0.5218c0.316,0.1339,0.5951,0.2618,0.8373,0.3838s0.5336,0.1866,0.8737,0.1937
			c0.425,0.009,0.7687-0.1215,1.0295-0.3925s0.4482-0.597,0.5627-0.9776l1.5316,0.0323c-0.0728,0.4023-0.1876,0.7998-0.3445,1.1899
			c-0.1569,0.3901-0.3559,0.7418-0.5963,1.0562c-0.241,0.3143-0.5384,0.5626-0.8936,0.7473
			c-0.3551,0.1834-0.7666,0.2708-1.2339,0.261c-0.4471-0.0095-0.887-0.0875-1.3195-0.2356
			c-0.4332-0.1468-0.8505-0.3101-1.2505-0.4886c-0.316-0.1339-0.6539-0.2748-1.0125-0.42c-0.3585-0.1465-0.7186-0.2229-1.08-0.2305
			c-0.4043-0.0085-0.7318,0.1274-0.9819,0.4105c-0.2507,0.2817-0.4328,0.6025-0.5468,0.9611L155.3022,87.0891z"/>
		<path class="st1" d="M170.7358,98.2324c0.0233-1.1046,0.2521-2.132,0.687-3.0799c0.4349-0.9491,1.0217-1.7769,1.7599-2.4846
			c0.7382-0.7077,1.601-1.2582,2.5877-1.653c0.9868-0.3934,2.0438-0.5789,3.171-0.5551s2.1755,0.2536,3.1448,0.6883
			c0.9692,0.4359,1.808,1.0223,2.5157,1.7606c0.7078,0.7382,1.2592,1.59,1.6537,2.5566c0.3945,0.9653,0.5798,2.0015,0.5565,3.1061
			c-0.0233,1.1071-0.2522,2.1385-0.6873,3.0981c-0.4351,0.9582-1.0219,1.7859-1.7599,2.4833s-1.6006,1.2427-2.5874,1.6375
			c-0.9867,0.3934-2.0437,0.5789-3.171,0.5552c-1.1273-0.0238-2.1755-0.2537-3.1448-0.6883
			c-0.9692-0.436-1.8082-1.0172-2.5161-1.745s-1.2594-1.5796-1.6537-2.5553C170.8978,100.3796,170.7125,99.3395,170.7358,98.2324z
			 M173.7977,98.2969c-0.0161,0.7658,0.0858,1.4756,0.3064,2.1296c0.2199,0.6539,0.538,1.2137,0.954,1.6796
			c0.4155,0.4658,0.9283,0.8389,1.5399,1.1167c0.611,0.2791,1.2993,0.4273,2.0651,0.4435c0.7658,0.0161,1.4591-0.103,2.0819-0.3561
			c0.6221-0.2518,1.1508-0.6029,1.5855-1.0508c0.4354-0.4479,0.7761-0.9939,1.024-1.6379c0.2473-0.644,0.3796-1.3489,0.3958-2.1147
			c0.0161-0.7645-0.0864-1.4744-0.3064-2.1282c-0.2206-0.6526-0.538-1.2125-0.9541-1.6796
			c-0.4154-0.4658-0.929-0.8376-1.5399-1.1167c-0.6116-0.2791-1.2993-0.4274-2.065-0.4435c-0.7658-0.0162-1.4598,0.103-2.0819,0.356
			c-0.6228,0.2531-1.1509,0.603-1.5856,1.0508c-0.4354,0.4492-0.7767,0.9952-1.024,1.6379
			C173.9457,96.8275,173.8138,97.5324,173.7977,98.2969z"/>
		<path class="st1" d="M198.5347,95.054c-0.3317-0.4329-0.7441-0.7987-1.2377-1.0961c-0.4937-0.2974-1.1026-0.4543-1.825-0.4696
			c-0.6807-0.0143-1.2744,0.1172-1.7795,0.3936c-0.5057,0.2763-0.7645,0.6916-0.7761,1.2445
			c-0.0094,0.4465,0.1264,0.8116,0.4074,1.0941c0.2817,0.2825,0.617,0.5129,1.0067,0.6913
			c0.3897,0.1783,0.8076,0.3144,1.2523,0.4094c0.4447,0.0938,0.826,0.1758,1.1433,0.2474c0.6134,0.161,1.1891,0.3549,1.7272,0.5779
			c0.538,0.2243,0.9995,0.5106,1.3862,0.859c0.3861,0.3497,0.6856,0.7702,0.8986,1.2642s0.312,1.0908,0.2972,1.793
			c-0.0179,0.8514-0.2144,1.5757-0.588,2.1743c-0.3749,0.5972-0.8525,1.0818-1.4349,1.4526s-1.2418,0.6335-1.9793,0.788
			c-0.7369,0.1546-1.4779,0.2247-2.2223,0.209c-1.2551-0.0265-2.3511-0.2418-3.2892-0.6433
			c-0.9388-0.4028-1.769-1.1228-2.4918-2.1587l2.2072-1.7415c0.4574,0.4784,0.9698,0.9034,1.5365,1.2776
			s1.2645,0.5694,2.0938,0.5869c0.3615,0.0076,0.7289-0.0223,1.103-0.0884c0.3735-0.0674,0.7056-0.1773,0.9965-0.3309
			c0.2902-0.1536,0.5281-0.3499,0.7143-0.5914c0.1855-0.2402,0.2823-0.52,0.2891-0.8392c0.009-0.4257-0.1166-0.779-0.3769-1.061
			c-0.2603-0.2821-0.5743-0.5068-0.9428-0.6743c-0.3691-0.1675-0.7598-0.303-1.1724-0.4078
			c-0.4127-0.1035-0.7776-0.1917-1.0956-0.262c-0.6134-0.1623-1.1945-0.3446-1.7434-0.5471
			c-0.5496-0.2038-1.0328-0.4685-1.4512-0.7968c-0.419-0.3282-0.7505-0.7391-0.9953-1.2338s-0.3598-1.1035-0.3445-1.8265
			c0.0165-0.7866,0.1959-1.4684,0.5378-2.0468c0.342-0.5771,0.7883-1.0521,1.3383-1.4235c0.5506-0.3715,1.1732-0.6453,1.8684-0.8229
			c0.6952-0.1762,1.3936-0.2576,2.0957-0.2428c1.0208,0.0215,1.9941,0.2343,2.9225,0.6356c0.9271,0.4026,1.658,1.0569,2.1921,1.9615
			L198.5347,95.054z"/>
		<path class="st1" d="M213.6059,91.5734l2.6796,0.0565l-0.0498,2.361l0.0636,0.0013c0.0687-0.2115,0.2385-0.4741,0.5114-0.7878
			c0.2728-0.3137,0.6192-0.6089,1.04-0.887c0.4207-0.2781,0.9152-0.5131,1.4828-0.7024c0.5676-0.1906,1.1914-0.2787,1.8728-0.2644
			c1.1266,0.0237,2.0678,0.2786,2.8238,0.762c0.7559,0.4834,1.368,1.1988,1.8376,2.145c0.5084-0.9255,1.215-1.6132,2.1179-2.0616
			s1.8118-0.6643,2.7262-0.645c1.1694,0.0247,2.122,0.2369,2.8583,0.6342c0.7363,0.3986,1.3104,0.9171,1.7229,1.553
			c0.4119,0.6359,0.6895,1.3546,0.8324,2.1548c0.1422,0.8016,0.2046,1.6275,0.1867,2.4777l-0.1856,8.8039l-2.871-0.0605
			l0.1775-8.4211c0.0121-0.5737-0.0132-1.1274-0.0767-1.6611c-0.0634-0.5325-0.2074-1.0043-0.4325-1.4128
			c-0.2258-0.4086-0.5486-0.7401-0.9685-0.9943c-0.4206-0.2529-0.9813-0.3881-1.6828-0.403
			c-1.3823-0.0291-2.3803,0.3758-2.9933,1.2134c-0.6137,0.8389-0.934,1.9281-0.9622,3.2676l-0.1741,8.2614l-2.8711-0.0605
			l0.1668-7.9109c0.0152-0.723-0.0085-1.3831-0.0699-1.9804c-0.0621-0.5961-0.1999-1.1144-0.4139-1.5553
			c-0.2141-0.4408-0.5262-0.7876-0.9357-1.0416c-0.4095-0.2527-0.9651-0.3878-1.6666-0.4026
			c-0.5107-0.0108-1.0074,0.08-1.4899,0.2724c-0.4826,0.1924-0.9095,0.486-1.2788,0.882c-0.3707,0.3973-0.6684,0.9066-0.8938,1.529
			c-0.2261,0.6237-0.3481,1.36-0.366,2.2101l-0.1654,7.8474l-2.871-0.0605L213.6059,91.5734z"/>
		<path class="st1" d="M242.7707,100.8038c-0.0139,0.6607,0.1169,1.2634,0.3923,1.812c0.276,0.5486,0.6433,1.0186,1.1032,1.4114
			c0.4598,0.3927,0.9955,0.7027,1.6082,0.9272c0.612,0.2259,1.2477,0.3458,1.9071,0.3596c0.893,0.0189,1.6735-0.1725,2.3416-0.5726
			c0.6674-0.4014,1.2851-0.9351,1.8531-1.6049l2.1339,1.7045c-1.6386,2.0287-3.8929,3.0135-6.7639,2.9531
			c-1.1909-0.0251-2.2658-0.2503-3.2249-0.6744s-1.7657-0.9995-2.4204-1.7261c-0.6554-0.7267-1.1536-1.5773-1.494-2.5532
			c-0.3417-0.9746-0.5001-2.0259-0.4763-3.1537c0.0237-1.1266,0.2425-2.1699,0.6561-3.1286c0.4137-0.96,0.9739-1.7883,1.6801-2.4863
			c0.7061-0.6967,1.5421-1.2387,2.5072-1.6222c0.9657-0.3835,2.0116-0.564,3.1389-0.5403c1.3401,0.0283,2.4676,0.287,3.3826,0.7738
			c0.9149,0.4868,1.6626,1.1141,2.2418,1.8821s0.9922,1.6271,1.2383,2.579c0.2455,0.9518,0.3582,1.9177,0.3376,2.895l-0.0215,1.0201
			L242.7707,100.8038z M251.8781,98.6987c-0.008-0.6377-0.0969-1.2252-0.2661-1.7612c-0.1699-0.5347-0.4314-1.0024-0.7839-1.4047
			c-0.3539-0.4009-0.799-0.718-1.3362-0.9527c-0.5378-0.2347-1.1682-0.3596-1.8912-0.3749
			c-0.7015-0.0148-1.3481,0.1041-1.9384,0.3578c-0.5903,0.2538-1.0921,0.5886-1.5047,1.0045
			c-0.4133,0.4172-0.7367,0.8843-0.9709,1.4001c-0.2342,0.5171-0.3567,1.03-0.3675,1.5401L251.8781,98.6987z"/>
		<path class="st1" d="M258.5179,92.5201l2.871,0.0605l-0.0491,2.3286l0.0636,0.0013c0.3785-0.7997,1.0198-1.4407,1.9233-1.9216
			c0.9042-0.4808,1.9406-0.7096,3.1101-0.6849c0.7229,0.0152,1.4169,0.1415,2.082,0.3789c0.6657,0.2374,1.2431,0.5963,1.7329,1.074
			c0.4892,0.4778,0.8757,1.0871,1.1581,1.8267c0.2824,0.7409,0.4128,1.6098,0.3917,2.6092l-0.2051,9.7294l-2.871-0.0605
			l0.1883-8.9311c0.0148-0.7022-0.0679-1.3052-0.2489-1.8089c-0.1809-0.5037-0.4274-0.9128-0.7402-1.2284
			c-0.3122-0.3143-0.6741-0.5453-1.0859-0.6929c-0.4118-0.1464-0.8412-0.2255-1.2877-0.2349
			c-0.5958-0.0126-1.1501,0.0718-1.6648,0.2532c-0.5141,0.1801-0.967,0.4744-1.3586,0.8803
			c-0.3916,0.4073-0.7006,0.9267-0.9263,1.5608c-0.2263,0.6328-0.3487,1.386-0.367,2.2569l-0.1641,7.7837l-2.8711-0.0605
			L258.5179,92.5201z"/>
		<path class="st1" d="M275.3601,100.4377c0.0233-1.1046,0.2521-2.132,0.6869-3.0798c0.4349-0.9492,1.0217-1.7769,1.7599-2.4846
			c0.7382-0.7078,1.601-1.2583,2.5877-1.653c0.9867-0.3934,2.0437-0.5789,3.171-0.5552s2.1755,0.2536,3.1448,0.6883
			c0.9692,0.436,1.808,1.0224,2.5158,1.7606c0.7077,0.7382,1.2592,1.59,1.6537,2.5566c0.3945,0.9653,0.5798,2.0015,0.5565,3.1061
			c-0.0233,1.1072-0.2522,2.1385-0.6873,3.0981c-0.4351,0.9582-1.0219,1.786-1.7599,2.4833
			c-0.7379,0.6973-1.6006,1.2427-2.5874,1.6374c-0.9867,0.3934-2.0437,0.5789-3.171,0.5552
			c-1.1273-0.0237-2.1755-0.2536-3.1448-0.6883c-0.9692-0.436-1.8082-1.0172-2.5161-1.745
			c-0.7079-0.7278-1.2594-1.5796-1.6537-2.5553C275.5221,102.585,275.3369,101.5449,275.3601,100.4377z M278.4221,100.5023
			c-0.0161,0.7657,0.0858,1.4756,0.3064,2.1295c0.2199,0.6539,0.538,1.2137,0.954,1.6796c0.4155,0.4658,0.9283,0.8389,1.5399,1.1167
			c0.6109,0.2791,1.2993,0.4274,2.065,0.4435s1.4591-0.103,2.0819-0.3561c0.6221-0.2518,1.1508-0.6029,1.5856-1.0508
			c0.4354-0.4479,0.776-0.9938,1.024-1.6379c0.2473-0.644,0.3797-1.3489,0.3958-2.1147c0.0161-0.7645-0.0864-1.4744-0.3064-2.1282
			c-0.2206-0.6526-0.538-1.2125-0.9541-1.6796c-0.4154-0.4658-0.929-0.8376-1.5399-1.1167
			c-0.6115-0.2791-1.2992-0.4274-2.065-0.4435c-0.7658-0.0161-1.4597,0.103-2.0819,0.3561
			c-0.6228,0.2531-1.1508,0.6029-1.5856,1.0508c-0.4354,0.4492-0.7767,0.9952-1.024,1.6379
			C278.5699,99.0328,278.4381,99.7377,278.4221,100.5023z"/>
		<path class="st1" d="M295.2002,93.2933l2.8711,0.0605l-0.0491,2.3285l0.0636,0.0013c0.2-0.3997,0.4627-0.7616,0.789-1.0845
			c0.3256-0.3229,0.6878-0.5971,1.0867-0.8224c0.3982-0.2253,0.8324-0.4019,1.3032-0.5309c0.4709-0.129,0.9402-0.1879,1.4081-0.178
			c0.4673,0.0098,0.8916,0.0824,1.2718,0.219l-0.1931,3.0903c-0.2329-0.0685-0.4655-0.1254-0.6982-0.1732
			c-0.2334-0.0477-0.4666-0.0747-0.7002-0.0797c-1.4037-0.0296-2.4861,0.3423-3.247,1.1132
			c-0.761,0.7708-1.1586,1.9857-1.1935,3.6444l-0.16,7.5917l-2.871-0.0605L295.2002,93.2933z"/>
		<path class="st1" d="M308.4167,102.1876c-0.0139,0.6607,0.1169,1.2634,0.3923,1.812c0.2761,0.5486,0.6434,1.0186,1.1032,1.4114
			c0.4598,0.3927,0.9954,0.7027,1.6081,0.9272c0.612,0.2259,1.2477,0.3458,1.9071,0.3596c0.893,0.0189,1.6735-0.1725,2.3416-0.5726
			c0.6675-0.4014,1.2851-0.9351,1.8531-1.6049l2.1339,1.7045c-1.6386,2.0287-3.8928,3.0135-6.7639,2.9531
			c-1.1909-0.0251-2.2658-0.2503-3.2249-0.6744s-1.7657-0.9995-2.4204-1.7261c-0.6554-0.7267-1.1536-1.5773-1.494-2.5532
			c-0.3417-0.9746-0.5001-2.0259-0.4763-3.1537c0.0238-1.1266,0.2425-2.1699,0.6561-3.1286c0.4137-0.96,0.9739-1.7883,1.6801-2.4863
			c0.7061-0.6967,1.5421-1.2387,2.5072-1.6222c0.9658-0.3835,2.0116-0.564,3.1389-0.5403c1.3401,0.0283,2.4676,0.287,3.3825,0.7738
			c0.9149,0.4868,1.6626,1.1141,2.2418,1.8821s0.9922,1.6271,1.2383,2.579c0.2455,0.9518,0.3582,1.9177,0.3376,2.895l-0.0215,1.0201
			L308.4167,102.1876z M317.524,100.0825c-0.008-0.6377-0.0969-1.2252-0.2661-1.7612c-0.1699-0.5347-0.4314-1.0024-0.7839-1.4047
			c-0.3538-0.4009-0.799-0.718-1.3362-0.9527c-0.5378-0.2347-1.1682-0.3596-1.8912-0.3749
			c-0.7015-0.0148-1.3481,0.1041-1.9384,0.3578c-0.5903,0.2538-1.0921,0.5886-1.5047,1.0045
			c-0.4133,0.4172-0.7367,0.8843-0.9709,1.4001c-0.2342,0.5171-0.3567,1.03-0.3675,1.5401L317.524,100.0825z"/>
		<path class="st1" d="M332.1224,97.8698c-0.3318-0.4329-0.7441-0.7987-1.2378-1.0961c-0.4937-0.2974-1.1026-0.4544-1.8249-0.4696
			c-0.6808-0.0143-1.2744,0.1172-1.7794,0.3936c-0.5058,0.2763-0.7645,0.6916-0.7762,1.2445
			c-0.0094,0.4465,0.1264,0.8116,0.4074,1.0941c0.2817,0.2825,0.617,0.5129,1.0067,0.6913
			c0.3897,0.1783,0.8075,0.3143,1.2522,0.4094c0.4447,0.0938,0.826,0.1758,1.1433,0.2474c0.6134,0.161,1.1891,0.3549,1.7272,0.5779
			c0.538,0.2243,0.9995,0.5106,1.3862,0.859c0.3861,0.3496,0.6856,0.7702,0.8985,1.2642c0.213,0.494,0.312,1.0908,0.2972,1.793
			c-0.0179,0.8514-0.2144,1.5757-0.588,2.1743c-0.3748,0.5972-0.8525,1.0818-1.435,1.4526
			c-0.5824,0.3708-1.2417,0.6335-1.9793,0.788c-0.7369,0.1545-1.4779,0.2247-2.2223,0.209
			c-1.2551-0.0265-2.3511-0.2418-3.2892-0.6433c-0.9388-0.4028-1.769-1.1229-2.4918-2.1587l2.2072-1.7415
			c0.4574,0.4784,0.9698,0.9034,1.5365,1.2776s1.2644,0.5694,2.0938,0.5869c0.3615,0.0076,0.7289-0.0223,1.103-0.0884
			c0.3735-0.0674,0.7056-0.1773,0.9965-0.3309c0.2902-0.1536,0.5281-0.3499,0.7143-0.5914c0.1855-0.2402,0.2823-0.52,0.2891-0.8392
			c0.009-0.4257-0.1167-0.779-0.3769-1.061c-0.2603-0.2821-0.5743-0.5068-0.9428-0.6743c-0.3692-0.1675-0.7598-0.303-1.1724-0.4078
			c-0.4127-0.1035-0.7776-0.1917-1.0956-0.262c-0.6134-0.1623-1.1945-0.3446-1.7434-0.5471
			c-0.5495-0.2038-1.0328-0.4685-1.4512-0.7968c-0.419-0.3282-0.7505-0.7391-0.9953-1.2338
			c-0.2447-0.4947-0.3598-1.1035-0.3445-1.8265c0.0166-0.7866,0.1959-1.4684,0.5379-2.0468
			c0.342-0.5771,0.7883-1.0521,1.3383-1.4235c0.5506-0.3715,1.1732-0.6453,1.8684-0.8229c0.6952-0.1762,1.3936-0.2576,2.0957-0.2428
			c1.0208,0.0215,1.9941,0.2343,2.9225,0.6356c0.9271,0.4026,1.658,1.0569,2.1921,1.9615L332.1224,97.8698z"/>
	</g>
</g>
</svg>
