<?xml version="1.0" encoding="utf-8"?>
<!-- Generator: Adobe Illustrator 24.0.2, SVG Export Plug-In . SVG Version: 6.00 Build 0)  -->
<svg version="1.1" id="Capa_1" xmlns="http://www.w3.org/2000/svg" xmlns:xlink="http://www.w3.org/1999/xlink" x="0px" y="0px"
	 width="100px" height="100px" viewBox="0 0 100 100" style="enable-background:new 0 0 100 100;" xml:space="preserve">
<style type="text/css">
	.st0{fill:#80065F;}
</style>
<g>
	<path class="st0" d="M68.2286,92.1864L68.2286,92.1864c-2.8873,0-5.7746-0.802-8.5014-2.0853L37.9121,78.552
		C25.8818,72.1358,15.1346,63.9552,5.8312,54.0101l-0.802-0.9624c-5.4538-5.7746-6.5766-14.4364-2.8873-21.4942l7.3786-13.7948
		c3.2081-6.0954,9.6243-9.9451,16.5217-9.9451c0.9624,0,1.7645,0,2.7269,0.1604h0.3208
		c13.6344,2.0853,26.7876,6.2558,39.1388,12.8324l22.1358,11.7095c4.3309,2.2457,7.3786,6.0954,8.8223,10.7471
		c1.4436,4.6517,0.9624,9.4639-1.2832,13.7948l-13.474,25.3439C81.061,88.3367,74.9656,92.1864,68.2286,92.1864z M26.0422,11.8237
		c-5.4538,0-10.4263,3.0477-12.9928,7.8598L5.6708,33.4783c-2.8873,5.4538-2.0853,12.3512,2.2457,16.8425l0.802,0.802
		c8.9827,9.6243,19.409,17.6445,30.9581,23.7399l21.815,11.5491c2.0853,1.1228,4.3309,1.604,6.5766,1.604
		c5.2934,0,10.1055-2.8873,12.5116-7.539l13.474-25.3439c1.7645-3.3685,2.0853-7.2182,0.9624-10.7471
		c-1.1228-3.6893-3.5289-6.5766-6.8974-8.341L66.1433,24.3352c-11.87-6.2558-24.5419-10.4263-37.8555-12.3512H27.967
		C27.4858,11.8237,26.6838,11.8237,26.0422,11.8237z"/>
	<path class="st0" d="M24.7589,44.2254c-1.4436,0-3.0477-0.3208-4.3309-1.1228c-2.2457-1.1228-3.8497-3.2081-4.6517-5.6142
		s-0.4812-4.9725,0.6416-7.2182c1.604-3.0477,4.8121-4.9725,8.341-4.9725c1.4436,0,3.0477,0.3208,4.3309,1.1228
		c2.2457,1.1228,3.8497,3.2081,4.6517,5.6142c0.802,2.4061,0.4812,4.9725-0.6416,7.2182
		C31.4959,42.3006,28.2878,44.2254,24.7589,44.2254z M24.7589,29.3078c-2.0853,0-3.8497,1.1228-4.8121,2.8873
		c-0.6416,1.2832-0.802,2.7269-0.3208,4.1705s1.4436,2.5665,2.7269,3.2081c0.802,0.4812,1.604,0.6416,2.5665,0.6416
		c2.0853,0,3.8497-1.1228,4.8121-2.8873c0.6416-1.2832,0.802-2.7269,0.3208-4.1705c-0.4812-1.4436-1.4436-2.5665-2.7269-3.2081
		C26.5234,29.6286,25.7213,29.3078,24.7589,29.3078z"/>
	<path class="st0" d="M48.4988,40.5361L48.4988,40.5361L48.4988,40.5361z"/>
	<path class="st0" d="M41.7618,47.9147c0,0.1604,0,0.3208,0.1604,0.3208l0,0v0.1604c0.1604,0.3208,0.1604,0.4812,0.3208,0.802
		c1.2832,2.4061,3.5289,3.8497,6.0954,3.8497c2.2457,0,4.3309-1.1228,5.7746-3.2081c2.2457-3.3685,2.0853-7.8598-0.4812-11.0679
		c-1.2832-1.604-3.2081-2.5665-5.2934-2.5665c-1.7645,0-3.5289,0.802-4.8121,2.0853c-1.4436,1.4436-2.2457,3.2081-2.4061,5.2934
		C41.2806,43.9046,41.2806,46.1503,41.7618,47.9147L41.7618,47.9147z M48.4988,40.0549L48.4988,40.0549
		c1.9249,0,3.5289,2.2457,3.5289,4.6517v0.1604c0,0.1604,0,0.1604,0,0.3208c-0.3208,2.4061-1.7645,3.8497-3.3685,3.8497h-0.1604
		c-1.7645-0.1604-3.2081-1.9249-3.3685-4.3309v-0.3208C44.9699,42.3006,46.574,40.0549,48.4988,40.0549z M69.6722,39.4133
		c-0.3208-0.3208-0.802-0.3208-1.1228-0.3208c-0.6416,0-1.2832,0.3208-1.604,0.802L48.4988,64.7572
		c-0.6416,0.9624-0.4812,2.0853,0.4812,2.7269c0.3208,0.1604,0.6416,0.3208,1.1228,0.3208c0.6416,0,1.2832-0.3208,1.604-0.802
		l18.4465-25.0231c0.3208-0.4812,0.4812-0.9624,0.3208-1.4436C70.4743,40.0549,70.1535,39.7341,69.6722,39.4133z M71.1159,52.7269
		c-1.4436,0-2.8873,0.4812-4.1705,1.4436c-2.0853,1.604-3.2081,4.3309-3.2081,7.2182s1.2832,5.4538,3.5289,6.8974
		c1.4436,0.9624,2.8873,1.4436,4.4913,1.2832c4.0101-0.4812,6.737-3.8497,6.8974-8.341v-0.3208
		c-0.1604-0.802-0.1604-1.4436-0.3208-2.0853C77.3717,55.1329,74.4844,52.7269,71.1159,52.7269z M74.6448,61.2283
		c0,0.1604,0,0.3208,0,0.3208c-0.1604,2.4061-1.604,4.0101-3.3685,4.0101l0,0c-1.9249,0-3.3685-1.604-3.5289-3.8497
		c-0.1604-0.802,0-1.7644,0.3208-2.7269c0.4812-1.604,1.9249-2.5665,3.2081-2.5665c1.4436,0.1604,2.5665,0.9624,3.0477,2.5665
		c0.1604,0.4812,0.3208,1.1228,0.3208,1.604v0.1604V61.2283z"/>
</g>
</svg>
