<?xml version="1.0" encoding="utf-8"?>
<!-- Generator: Adobe Illustrator 24.0.2, SVG Export Plug-In . SVG Version: 6.00 Build 0)  -->
<svg version="1.1" id="Capa_1" xmlns="http://www.w3.org/2000/svg" xmlns:xlink="http://www.w3.org/1999/xlink" x="0px" y="0px"
	 width="200.4887px" height="32.4851px" viewBox="0 0 200.4887 32.4851" style="enable-background:new 0 0 200.4887 32.4851;"
	 xml:space="preserve">
<style type="text/css">
	.st0{fill:#FF5F00;}
	.st1{fill:#EB001B;}
	.st2{fill:#F79E1B;}
	.st3{fill:url(#SVGID_1_);}
	.st4{fill:url(#SVGID_2_);}
	.st5{fill:url(#SVGID_3_);}
	.st6{fill:url(#SVGID_4_);}
	.st7{fill:#306FC5;}
	.st8{fill:#FFFFFF;}
</style>
<g id="layer1_1_" transform="matrix(3.3557321,0,0,3.3557321,-1551.7864,-1849.1059)">
	<g id="g13_1_" transform="matrix(2.5579399,0,0,2.5579399,884.90115,-11.427398)">
		<g id="g15_1_" transform="translate(-502.86126,-41.013507)">
			<path id="XMLID_3_" d="M348.6915,264.6762v-0.2485c0-0.0952-0.058-0.1574-0.1574-0.1574c-0.0497,0-0.1036,0.0166-0.1408,0.0704
				c-0.029-0.0456-0.0704-0.0704-0.1325-0.0704c-0.0414,0-0.0829,0.0124-0.116,0.058v-0.0497h-0.087v0.3976h0.087v-0.2195
				c0-0.0704,0.0373-0.1035,0.0953-0.1035s0.087,0.0373,0.087,0.1035v0.2195h0.087v-0.2195c0-0.0704,0.0414-0.1035,0.0952-0.1035
				c0.058,0,0.087,0.0373,0.087,0.1035v0.2195H348.6915z M349.9797,264.2786h-0.1408v-0.1201h-0.087v0.1201h-0.0787v0.0787h0.0787
				v0.1823c0,0.0911,0.0373,0.145,0.1367,0.145c0.0373,0,0.0787-0.0124,0.1077-0.029l-0.0249-0.0746
				c-0.0248,0.0166-0.0538,0.0207-0.0746,0.0207c-0.0414,0-0.058-0.0249-0.058-0.0663v-0.1781h0.1408v-0.0787H349.9797z
				 M350.7169,264.2703c-0.0497,0-0.0828,0.0248-0.1035,0.058v-0.0497h-0.087v0.3976h0.087v-0.2237
				c0-0.0663,0.029-0.1036,0.0829-0.1036c0.0166,0,0.0373,0.0042,0.0538,0.0083l0.0249-0.0829
				C350.7584,264.2703,350.7335,264.2703,350.7169,264.2703L350.7169,264.2703z M349.6027,264.3117
				c-0.0414-0.029-0.0994-0.0414-0.1615-0.0414c-0.0994,0-0.1657,0.0497-0.1657,0.1284c0,0.0663,0.0497,0.1035,0.1367,0.116
				l0.0414,0.0041c0.0456,0.0083,0.0704,0.0207,0.0704,0.0414c0,0.029-0.0331,0.0497-0.0911,0.0497
				c-0.058,0-0.1036-0.0207-0.1326-0.0414l-0.0414,0.0663c0.0456,0.0331,0.1077,0.0497,0.1698,0.0497
				c0.116,0,0.1823-0.0538,0.1823-0.1284c0-0.0704-0.0539-0.1077-0.1367-0.1201l-0.0414-0.0042
				c-0.0373-0.0042-0.0663-0.0124-0.0663-0.0373c0-0.029,0.029-0.0456,0.0746-0.0456c0.0497,0,0.0994,0.0207,0.1243,0.0331
				L349.6027,264.3117L349.6027,264.3117z M351.914,264.2703c-0.0497,0-0.0829,0.0248-0.1035,0.058v-0.0497h-0.087v0.3976h0.087
				v-0.2237c0-0.0663,0.029-0.1036,0.0828-0.1036c0.0166,0,0.0373,0.0042,0.0539,0.0083l0.0248-0.0829
				C351.9554,264.2703,351.9306,264.2703,351.914,264.2703L351.914,264.2703z M350.8039,264.4774
				c0,0.1201,0.0828,0.2071,0.2112,0.2071c0.058,0,0.0994-0.0124,0.1408-0.0456l-0.0414-0.0704
				c-0.0331,0.0248-0.0663,0.0373-0.1035,0.0373c-0.0704,0-0.1201-0.0497-0.1201-0.1284c0-0.0746,0.0497-0.1243,0.1201-0.1284
				c0.0373,0,0.0704,0.0125,0.1035,0.0373l0.0414-0.0704c-0.0414-0.0331-0.0829-0.0456-0.1408-0.0456
				C350.8868,264.2703,350.8039,264.3573,350.8039,264.4774L350.8039,264.4774L350.8039,264.4774z M351.6075,264.4774v-0.1988
				h-0.087v0.0497c-0.029-0.0373-0.0704-0.058-0.1243-0.058c-0.1118,0-0.1988,0.087-0.1988,0.2071s0.087,0.2071,0.1988,0.2071
				c0.058,0,0.0994-0.0207,0.1243-0.058v0.0497h0.087V264.4774L351.6075,264.4774z M351.2886,264.4774
				c0-0.0704,0.0456-0.1284,0.1201-0.1284c0.0704,0,0.1201,0.0539,0.1201,0.1284c0,0.0704-0.0497,0.1284-0.1201,0.1284
				C351.3341,264.6017,351.2886,264.5478,351.2886,264.4774L351.2886,264.4774z M350.2489,264.2703
				c-0.116,0-0.1988,0.0828-0.1988,0.2071s0.0829,0.2071,0.203,0.2071c0.058,0,0.116-0.0166,0.1615-0.0538l-0.0414-0.0621
				c-0.0331,0.0248-0.0746,0.0414-0.116,0.0414c-0.0539,0-0.1077-0.0248-0.1201-0.0952h0.2941c0-0.0125,0-0.0207,0-0.0331
				C350.4353,264.3531,350.3607,264.2703,350.2489,264.2703L350.2489,264.2703L350.2489,264.2703z M350.2489,264.3448
				c0.0539,0,0.0911,0.0331,0.0994,0.0952h-0.2071C350.1495,264.3863,350.1868,264.3448,350.2489,264.3448L350.2489,264.3448z
				 M352.4069,264.4774v-0.3562h-0.087v0.2071c-0.029-0.0373-0.0704-0.058-0.1243-0.058c-0.1118,0-0.1988,0.087-0.1988,0.2071
				s0.087,0.2071,0.1988,0.2071c0.058,0,0.0994-0.0207,0.1243-0.058v0.0497h0.087V264.4774L352.4069,264.4774z M352.088,264.4774
				c0-0.0704,0.0456-0.1284,0.1201-0.1284c0.0704,0,0.1201,0.0539,0.1201,0.1284c0,0.0704-0.0497,0.1284-0.1201,0.1284
				C352.1335,264.6017,352.088,264.5478,352.088,264.4774L352.088,264.4774z M349.1802,264.4774v-0.1988h-0.087v0.0497
				c-0.029-0.0373-0.0704-0.058-0.1243-0.058c-0.1118,0-0.1988,0.087-0.1988,0.2071s0.087,0.2071,0.1988,0.2071
				c0.058,0,0.0994-0.0207,0.1243-0.058v0.0497h0.087V264.4774L349.1802,264.4774z M348.8571,264.4774
				c0-0.0704,0.0456-0.1284,0.1201-0.1284c0.0704,0,0.1201,0.0539,0.1201,0.1284c0,0.0704-0.0497,0.1284-0.1201,0.1284
				C348.9027,264.6017,348.8571,264.5478,348.8571,264.4774z"/>
		</g>
		<g id="XMLID_1_" transform="translate(-502.86126,-41.013507)">
			<rect id="rect19_1_" x="349.5737" y="261.259" class="st0" width="1.3048" height="2.3444"/>
			<path id="XMLID_2_" class="st1" d="M349.6566,262.4312c0-0.4763,0.2237-0.8988,0.5675-1.1722
				c-0.2527-0.1988-0.5716-0.3189-0.9196-0.3189c-0.8243,0-1.4911,0.6669-1.4911,1.4911s0.6669,1.4911,1.4911,1.4911
				c0.3479,0,0.6669-0.1201,0.9196-0.3189C349.8802,263.3342,349.6566,262.9075,349.6566,262.4312z"/>
			<path id="path22_1_" class="st2" d="M352.6389,262.4312c0,0.8243-0.6669,1.4911-1.4911,1.4911
				c-0.3479,0-0.6669-0.1201-0.9196-0.3189c0.348-0.2734,0.5675-0.6959,0.5675-1.1722s-0.2237-0.8988-0.5675-1.1722
				c0.2527-0.1988,0.5716-0.3189,0.9196-0.3189C351.972,260.94,352.6389,261.6111,352.6389,262.4312z"/>
		</g>
	</g>
</g>
<g>
	
		<linearGradient id="SVGID_1_" gradientUnits="userSpaceOnUse" x1="30.7857" y1="7.4577" x2="30.7857" y2="27.8305" gradientTransform="matrix(1 0 0 -1 0 34)">
		<stop  offset="0" style="stop-color:#051244"/>
		<stop  offset="1" style="stop-color:#293688"/>
	</linearGradient>
	<polygon class="st3" points="30.7857,6.1695 29.7671,6.1695 26.1453,26.5423 31.9175,26.5423 35.4262,6.1695 	"/>
	
		<linearGradient id="SVGID_2_" gradientUnits="userSpaceOnUse" x1="43.7452" y1="7.0051" x2="43.7452" y2="28.5098" gradientTransform="matrix(1 0 0 -1 0 34)">
		<stop  offset="0" style="stop-color:#051244"/>
		<stop  offset="1" style="stop-color:#293688"/>
	</linearGradient>
	<path class="st4" d="M46.6313,14.2054c-2.0373-1.0187-3.2823-1.5846-3.2823-2.6032c0-0.9055,1.0187-1.8109,3.2823-1.8109
		c1.9241,0,3.2823,0.3396,4.3009,0.7922l0.5659,0.2263l0.9055-4.4141c-1.1318-0.4527-2.9428-0.9055-5.2064-0.9055
		c-5.6592,0-9.7337,2.8295-9.7337,6.9041c0,3.056,2.8295,4.6405,5.0933,5.6592c2.2636,1.0187,2.9428,1.6977,2.9428,2.6032
		c0,1.3582-1.8109,2.0373-3.3954,2.0373c-2.2636,0-3.5087-0.3396-5.4327-1.1318l-0.7922-0.3396l-0.7922,4.6405
		c1.3582,0.5659,3.8482,1.1318,6.4514,1.1318c5.9986,0,9.9601-2.8295,9.9601-7.1306
		C51.4981,17.4877,50.0268,15.6768,46.6313,14.2054z"/>
	
		<linearGradient id="SVGID_3_" gradientUnits="userSpaceOnUse" x1="61.0055" y1="7.4577" x2="61.0055" y2="27.8305" gradientTransform="matrix(1 0 0 -1 0 34)">
		<stop  offset="0" style="stop-color:#051244"/>
		<stop  offset="1" style="stop-color:#293688"/>
	</linearGradient>
	<path class="st5" d="M66.5515,6.1695h-3.056h-1.3582c-1.3582,0-2.3769,0.1132-2.9428,1.4714L50.706,26.5422l-0.0001,0.0001l0,0
		h6.1119l1.1318-3.3954h7.2437l0.6791,3.3954h5.4327L66.5515,6.1695z M59.5342,19.8646v-0.1132
		c0.4528-1.1318,2.2636-5.9987,2.2636-5.9987s0.4527-1.245,0.7922-2.0373l0.3396,1.9241c0,0,1.1318,5.0933,1.3582,6.2251h-4.7536
		V19.8646z"/>
	
		<linearGradient id="SVGID_4_" gradientUnits="userSpaceOnUse" x1="13.8083" y1="7.3445" x2="13.8083" y2="27.8305" gradientTransform="matrix(1 0 0 -1 0 34)">
		<stop  offset="0" style="stop-color:#051244"/>
		<stop  offset="1" style="stop-color:#293688"/>
	</linearGradient>
	<path class="st6" d="M22.6366,6.2826h-1.1318l-5.7724,14.1479l-0.5659-2.9428l0,0l0,0l-0.0503-0.2376
		c0.0162,0.0415,0.0346,0.0828,0.0503,0.1245l-0.2074-0.8661l-1.8299-8.6413C12.7896,6.509,11.771,6.1695,10.526,6.1695H0
		l3.6119,1.1086C4.947,7.7882,6.2144,8.3904,7.3912,9.0707l4.9457,17.5849h6.1119l9.1678-20.373H22.6366z"/>
</g>
<g>
	<rect x="158.2924" class="st7" width="42.1963" height="32.5034"/>
	<g>
		<polygon class="st8" points="163.6288,12.1949 164.9738,12.1949 164.3016,10.4831 		"/>
		<polygon class="st8" points="170.7818,17.9415 170.7818,18.7363 173.044,18.7363 173.044,19.5924 170.7818,19.5924 
			170.7818,20.5097 173.2883,20.5097 174.4499,19.2255 173.3496,17.9415 		"/>
		<polygon class="st8" points="188.4499,10.4831 187.7162,12.1949 189.1224,12.1949 		"/>
		<polygon class="st8" points="177.3233,20.9983 177.3233,17.5136 175.7338,19.2255 		"/>
		<path class="st8" d="M180.3191,18.4919c-0.0612-0.3668-0.306-0.5505-0.673-0.5505h-1.2835v1.1004h1.3451
			C180.0743,19.042,180.3191,18.8586,180.3191,18.4919z"/>
		<path class="st8" d="M184.5982,18.9199c0.1223-0.0613,0.1837-0.2449,0.1837-0.4279c0.0612-0.2444-0.0614-0.3668-0.1837-0.428
			c-0.1219-0.0612-0.3056-0.0612-0.4887-0.0612h-1.223v0.9783h1.2229C184.2925,18.9811,184.4761,18.9811,184.5982,18.9199z"/>
		<path class="st8" d="M193.4015,8.8934v0.7336l-0.3665-0.7336h-2.8731v0.7336l-0.367-0.7336h-3.9127
			c-0.6725,0-1.2229,0.1223-1.7117,0.3669V8.8934h-2.751v0.0612v0.3057c-0.3056-0.2445-0.6725-0.3669-1.1615-0.3669h-9.8428
			l-0.6728,1.5284l-0.6723-1.5284h-2.2007h-0.9171v0.7336l-0.3057-0.7336h-0.0612h-2.6287l-1.2229,2.8733l-1.406,3.1179
			l-0.0258,0.0613h0.0258h3.118h0.039l0.0221-0.0613l0.367-0.9168h0.7947l0.3668,0.9781h3.5455v-0.0613v-0.6723l0.3058,0.7335
			h1.7728l0.3056-0.7335v0.6723v0.0613h1.4061h7.0307h0.0612v-1.5896h0.1226c0.1221,0,0.1221,0,0.1221,0.1835v1.3449h4.4018v-0.3668
			c0.3668,0.1837,0.9167,0.3668,1.6503,0.3668h1.8344l0.3668-0.978h0.8557l0.3668,0.978h3.5457v-0.6113v-0.3056l0.5504,0.9168
			h0.1219h0.0614h2.69V8.8933h-2.7512l0,0h-0.0002V8.8934z M172.677,14.0291h-0.6115h-0.3667v-0.3665v-2.9961l-0.0612,0.1403
			v-0.0016l-1.4222,3.224h-0.045h-0.327h-0.529l-1.4671-3.3626v3.3626h-2.0784l-0.4279-0.917h-2.0788l-0.428,0.917h-1.0747
			l1.8085-4.2796h1.5283l1.7117,4.096v-4.096h0.3667h1.253l0.0288,0.0613h0.0022l0.7713,1.6788l0.5539,1.2578l0.0196-0.0634
			l1.2227-2.9344h1.6509V14.0291L172.677,14.0291L172.677,14.0291z M176.8955,10.6665h-2.3844v0.7947h2.3232v0.8559h-2.3232v0.8562
			h2.3844v0.9167h-3.4236V9.7496h3.4236V10.6665L176.8955,10.6665z M181.2559,12.2429c0.0015,0.0014,0.0036,0.0024,0.0056,0.0037
			c0.0232,0.0244,0.0429,0.049,0.0598,0.0725c0.1171,0.1535,0.2118,0.3818,0.2166,0.7166c0.0003,0.0058,0.0006,0.0115,0.0009,0.0173
			c0,0.0033,0.0006,0.0063,0.0006,0.0097c0,0.002-0.0002,0.0034-0.0002,0.0053c0.0014,0.0337,0.0023,0.0681,0.0023,0.1052v0.856
			h-0.9168v-0.4893c0-0.2445,0-0.6114-0.1837-0.856c-0.0578-0.0578-0.1163-0.0959-0.1799-0.123
			c-0.0917-0.0593-0.2653-0.0603-0.5535-0.0603h-1.1007v1.5284h-1.039V9.7496h2.3233c0.5499,0,0.9168,0,1.2227,0.1834
			c0.2996,0.1799,0.4805,0.4782,0.4874,0.9506c-0.0141,0.6506-0.4318,1.0075-0.7321,1.1279
			C180.8691,12.0115,181.0731,12.0526,181.2559,12.2429z M183.3147,14.0291h-1.0395V9.7495h1.0395V14.0291z M195.2361,14.0291
			h-1.3452l-1.9563-3.2403v2.69l-0.0064-0.0063v0.5594h-1.0328v-0.0026h-1.0395l-0.3668-0.917h-2.1399l-0.3668,0.978h-1.1615
			c-0.4887,0-1.1005-0.1221-1.4671-0.4889c-0.3668-0.3668-0.55-0.856-0.55-1.6505c0-0.6113,0.1221-1.2231,0.55-1.712
			c0.3054-0.3671,0.856-0.489,1.5283-0.489h0.9784v0.9169h-0.9784c-0.3668,0-0.5499,0.061-0.7949,0.2447
			c-0.183,0.1833-0.3054,0.55-0.3054,0.978c0,0.4891,0.0612,0.7948,0.3054,1.0394c0.1838,0.1837,0.4282,0.2449,0.7338,0.2449h0.4279
			l1.406-3.3624h0.6117h0.9168l1.712,4.096v-0.2089v-1.3809v-0.1221V9.8111h1.5283l1.7726,2.9954V9.8111h1.0398v4.2182h0.0002
			v-0.0002H195.2361z"/>
		<path class="st8" d="M180.3842,11.532c0.0178-0.0191,0.034-0.0407,0.0478-0.0655c0.0554-0.0876,0.1188-0.2456,0.0847-0.461
			c-0.0014-0.0198-0.0051-0.0381-0.0093-0.0557c-0.0011-0.0049-0.0009-0.0093-0.0023-0.0141l-0.0006,0.0001
			c-0.0304-0.1047-0.108-0.1691-0.1855-0.2081c-0.1225-0.061-0.306-0.061-0.4892-0.061h-1.2229v0.9783h1.2229
			c0.1833,0,0.3668,0,0.4892-0.0613c0.0184-0.0094,0.0347-0.0219,0.0505-0.0364l0.0002,0.0008
			C180.3697,11.5479,180.3759,11.5414,180.3842,11.532z"/>
		<path class="st8" d="M198.8428,20.1427c0-0.4279-0.1221-0.856-0.3054-1.1616v-2.751h-0.0028v-0.1837c0,0-2.5625,0-2.9439,0
			c-0.3812,0-0.8439,0.3667-0.8439,0.3667v-0.3667h-2.8121c-0.4282,0-0.978,0.1223-1.2229,0.3667v-0.3667h-5.0129v0.1837v0.183
			c-0.3665-0.3054-1.0396-0.3667-1.345-0.3667h-3.3014v0.1837v0.183c-0.3056-0.3054-1.0396-0.3667-1.4066-0.3667h-3.6676
			l-0.8561,0.9171l-0.7948-0.9171h-0.2559h-0.4164h-4.8295v0.1837v0.483v5.5084h5.3799l0.884-0.8843l0.7663,0.8843h0.0614h3.1
			h0.1405h0.0612h0.0609v-0.6113v-0.7947h0.3058c0.4276,0,0.9781,0,1.406-0.1837v1.5283v0.1225h2.7512v-0.1225v-1.467h0.1219
			c0.1837,0,0.1837,0,0.1837,0.1834v1.2836v0.1225h8.3142c0.5506,0,1.1005-0.1225,1.4062-0.3671v0.2445v0.1225h2.629
			c0.5499,0,1.1005-0.0611,1.4673-0.3057c0.5629-0.3377,0.9176-0.9355,0.9704-1.6485c0.0025-0.0211,0.0056-0.0422,0.0075-0.0634
			l-0.0036-0.0034C198.8412,20.2218,198.8428,20.1827,198.8428,20.1427z M179.5854,19.776h-1.223v0.183v0.367v0.3669v0.6726h-2.0094
			l-1.1695-1.3451l-0.004,0.0045l-0.0571-0.0658l-1.3449,1.4064h-3.9126v-4.2794h3.9738l1.0856,1.1891l0.2282,0.249l0.031-0.0321
			l1.284-1.406h3.2401c0.6288,0,1.333,0.1552,1.5998,0.795c0.0321,0.1267,0.0508,0.2675,0.0508,0.4276
			C181.3581,19.5312,180.5021,19.776,179.5854,19.776z M185.6989,19.7147c0.1221,0.183,0.1833,0.4279,0.1833,0.7949v0.8556h-1.0392
			v-0.55c0-0.245,0-0.6726-0.1836-0.8563c-0.1219-0.183-0.3668-0.183-0.7333-0.183h-1.1003v1.5894h-1.0393v-4.3407h2.323
			c0.4887,0,0.9167,0,1.2229,0.1832c0.3054,0.1836,0.5499,0.4893,0.5499,0.9784c0,0.6723-0.4278,1.0392-0.7335,1.1616
			C185.4544,19.4698,185.6377,19.5924,185.6989,19.7147z M189.9173,17.9415h-2.3846v0.7948h2.3232v0.8561h-2.3232v0.856h2.3846
			v0.9169h-3.4236v-4.3407h3.4236V17.9415z M192.4849,21.3654h-1.9565v-0.9169h1.9565c0.183,0,0.3056,0,0.4282-0.1223
			c0.0612-0.0613,0.1219-0.1833,0.1219-0.3057c0-0.1225-0.0608-0.2443-0.1219-0.3055c-0.0614-0.0611-0.1838-0.1223-0.3671-0.1223
			c-0.9782-0.0612-2.1398,0-2.1398-1.3449c0-0.6114,0.3668-1.284,1.4673-1.284h2.0173v1.0392h-1.8951
			c-0.1833,0-0.3058,0-0.4282,0.0612c-0.1219,0.0613-0.1219,0.1837-0.1219,0.3057c0,0.1835,0.1219,0.2447,0.2443,0.3053
			c0.1225,0.0613,0.2447,0.0613,0.3668,0.0613h0.5503c0.5503,0,0.917,0.1223,1.1615,0.3669
			c0.1835,0.1835,0.3058,0.4891,0.3058,0.917C194.0743,20.9371,193.524,21.3654,192.4849,21.3654z M197.7425,20.9371
			c-0.2443,0.2449-0.6725,0.4283-1.284,0.4283h-1.9559v-0.9169h1.9558c0.1835,0,0.306,0,0.4282-0.1223
			c0.061-0.0613,0.1223-0.1833,0.1223-0.3057c0-0.1225-0.0614-0.2443-0.1223-0.3055c-0.0612-0.0611-0.1833-0.1223-0.3668-0.1223
			c-0.9779-0.0612-2.1398,0-2.1398-1.3448c0-0.5811,0.3324-1.106,1.1523-1.2619c0.098-0.0135,0.2016-0.0222,0.315-0.0222h2.0177
			v1.0392h-1.3452h-0.4889h-0.0612c-0.1835,0-0.3056,0-0.4278,0.0612c-0.0616,0.0613-0.1228,0.1837-0.1228,0.3057
			c0,0.1835,0.0612,0.2447,0.2449,0.3053c0.1221,0.0613,0.2445,0.0613,0.3668,0.0613h0.0608h0.4892
			c0.2672,0,0.4693,0.033,0.6541,0.0979c0.1693,0.0613,0.7299,0.312,0.8553,0.9667c0.0109,0.0686,0.019,0.1402,0.019,0.2193
			C198.1092,20.3872,197.9869,20.6928,197.7425,20.9371z"/>
	</g>
</g>
</svg>
