<?xml version="1.0" encoding="utf-8"?>
<!-- Generator: Adobe Illustrator 24.2.1, SVG Export Plug-In . SVG Version: 6.00 Build 0)  -->
<svg version="1.1" id="Capa_1" xmlns="http://www.w3.org/2000/svg" xmlns:xlink="http://www.w3.org/1999/xlink" x="0px" y="0px"
	 width="64px" height="64px" viewBox="0 0 64 64" style="enable-background:new 0 0 64 64;" xml:space="preserve">
<style type="text/css">
	.st0{fill:#80065F;}
</style>
<path class="st0" d="M12,54.002c-0.553,0-1-0.447-1-1C11,49.141,14.141,46,18.002,46c0.553,0,1,0.447,1,1s-0.447,1-1,1
	C15.244,48,13,50.244,13,53.002C13,53.555,12.553,54.002,12,54.002z M52,54.001c-0.553,0-1-0.447-1-1c0-2.757-2.243-5-5-5
	c-0.553,0-1-0.447-1-1s0.447-1,1-1c3.859,0,7,3.141,7,7C53,53.554,52.553,54.001,52,54.001z"/>
<path class="st0" d="M26,48.001L26,48.001L18.002,48c-0.553,0-1-0.448-1-1c0-0.553,0.448-1,1-1l0,0L26,46.001c0.553,0,1,0.448,1,1
	C27,47.554,26.552,48.001,26,48.001z M46,48.001L46,48.001L38,48c-0.553,0-1-0.448-1-1c0-0.553,0.448-1,1-1l0,0l8,0.001
	c0.553,0,1,0.448,1,1C47,47.554,46.552,48.001,46,48.001z M12.001,62.999c-0.552,0-1-0.447-1-1L11,53.002c0-0.552,0.447-1,1-1
	c0.552,0,1,0.447,1,1l0.001,8.997C13.001,62.551,12.554,62.999,12.001,62.999z"/>
<path class="st0" d="M13.001,63.999c-1.103,0-2-0.897-2-2c0-0.553,0.447-1,1-1s1,0.447,1,1v0.002c0.553,0,1,0.446,1,0.999
	C14.001,63.552,13.554,63.999,13.001,63.999z M51,63.999c-0.553,0-1-0.447-1-1s0.447-1,1-1h0.002c0-0.553,0.446-1,0.999-1
	c0.552,0,0.999,0.447,0.999,1C53,63.102,52.103,63.999,51,63.999z"/>
<path class="st0" d="M52,62.999c-0.553,0-1-0.447-1-1v-8.998c0-0.553,0.447-1,1-1s1,0.447,1,1v8.998
	C53,62.552,52.553,62.999,52,62.999z"/>
<path class="st0" d="M51,63.999H13.001c-0.553,0-1-0.447-1-1s0.447-1,1-1H51c0.553,0,1,0.447,1,1S51.553,63.999,51,63.999z
	 M26,48.001c-0.553,0-1-0.447-1-1v-5.25c0-0.553,0.447-1,1-1s1,0.447,1,1v5.25C27,47.554,26.553,48.001,26,48.001z M38,48
	c-0.553,0-1-0.447-1-1v-5.249c0-0.553,0.447-1,1-1s1,0.447,1,1V47C39,47.553,38.553,48,38,48z"/>
<path class="st0" d="M32,44c-8.822,0-16-7.178-16-16c0-0.552,0.447-1,1-1s1,0.448,1,1c0,7.719,6.28,14,14,14s14-6.28,14-14
	c0-0.552,0.447-1,1-1s1,0.448,1,1C48,36.822,40.822,44,32,44z"/>
<path class="st0" d="M47,29c-0.553,0-1-0.448-1-1v-8c0-0.552,0.447-1,1-1s1,0.448,1,1v8C48,28.553,47.553,29,47,29z M14,23
	c-0.553,0-1-0.448-1-1c0-10.477,8.523-19,19-19c4.245,0,8.261,1.369,11.61,3.959c0.438,0.337,0.518,0.966,0.18,1.403
	c-0.339,0.437-0.966,0.519-1.402,0.179C39.391,6.224,35.799,5,32,5c-9.374,0-17,7.626-17,17C15,22.552,14.553,23,14,23z M15,29
	c-0.553,0-1-0.448-1-1s0.447-1,1-1c1.103,0,2-0.897,2-2c0-0.552,0.447-1,1-1s1,0.448,1,1C19,27.206,17.206,29,15,29z"/>
<path class="st0" d="M14,29c-0.553,0-1-0.448-1-1v-6c0-0.552,0.447-1,1-1s1,0.448,1,1v6C15,28.553,14.553,29,14,29z"/>
<path class="st0" d="M15,29h-1c-0.553,0-1-0.448-1-1s0.447-1,1-1h1c0.553,0,1,0.448,1,1S15.553,29,15,29z M18,26
	c-0.553,0-1-0.448-1-1v-2c0-0.552,0.447-1,1-1s1,0.448,1,1v2C19,25.553,18.553,26,18,26z"/>
<path class="st0" d="M18,24c-0.553,0-1-0.448-1-1c0-2.206,1.794-4,4-4c0.553,0,1,0.448,1,1s-0.447,1-1,1c-1.103,0-2,0.897-2,2
	C19,23.552,18.553,24,18,24z"/>
<path class="st0" d="M43,21H21c-0.553,0-1-0.448-1-1s0.447-1,1-1h22c0.553,0,1,0.448,1,1S43.553,21,43,21z"/>
<path class="st0" d="M43,21c-0.553,0-1-0.448-1-1V7.751c0-0.552,0.447-1,1-1s1,0.448,1,1V20C44,20.552,43.553,21,43,21z"/>
<path class="st0" d="M47,12.752c-0.553,0-1-0.448-1-1c0-1.655-1.347-3.001-3.001-3.001c-0.553,0-1-0.448-1-1s0.447-1,1-1
	c2.758,0,5.001,2.244,5.001,5.001C48,12.305,47.553,12.752,47,12.752z M42.999,21c-0.553,0-1-0.448-1-1s0.447-1,1-1
	C44.653,19,46,17.653,46,15.999c0-0.552,0.447-1,1-1s1,0.448,1,1C48,18.756,45.757,21,42.999,21z"/>
<path class="st0" d="M47,21c-0.553,0-1-0.448-1-1v-8.247c0-0.552,0.447-1,1-1s1,0.448,1,1V20C48,20.552,47.553,21,47,21z M17,29
	c-0.553,0-1-0.448-1-1v-0.764c0-0.552,0.447-1,1-1s1,0.448,1,1V28C18,28.553,17.553,29,17,29z M35,5c-0.553,0-1-0.448-1-1
	c0-1.103-0.897-2-2-2s-2,0.897-2,2c0,0.552-0.447,1-1,1s-1-0.448-1-1c0-2.206,1.794-4,4-4s4,1.794,4,4C36,4.552,35.553,5,35,5z"/>
<path class="st0" d="M29,5.249c-0.553,0-1-0.448-1-1V4c0-0.552,0.447-1,1-1s1,0.448,1,1v0.249C30,4.801,29.553,5.249,29,5.249z
	 M35,5.249c-0.553,0-1-0.448-1-1V4c0-0.552,0.447-1,1-1s1,0.448,1,1v0.249C36,4.801,35.553,5.249,35,5.249z M32,58.999
	c-4.962,0-8.998-4.036-8.998-8.998c0-0.553,0.447-1,1-1s1,0.447,1,1c0,3.858,3.14,6.998,6.998,6.998s6.998-3.14,6.998-6.998
	c0-0.553,0.447-1,1-1s1,0.447,1,1C40.998,54.963,36.962,58.999,32,58.999z"/>
<path class="st0" d="M24.002,51.001c-0.553,0-1-0.447-1-1v-3c0-0.553,0.447-1,1-1s1,0.447,1,1v3
	C25.002,50.554,24.555,51.001,24.002,51.001z M40,51.001c-0.553,0-1-0.447-1-1v-3c0-0.553,0.447-1,1-1s1,0.447,1,1v3
	C41,50.554,40.553,51.001,40,51.001z M47,37.999c-0.553,0-1-0.447-1-1s0.447-1,1-1c2.206,0,4-1.794,4-4s-1.794-4-4-4
	c-0.553,0-1-0.448-1-1s0.447-1,1-1c3.309,0,6,2.691,6,6S50.309,37.999,47,37.999z"/>
<path class="st0" d="M47,37.999H34c-0.553,0-1-0.447-1-1s0.447-1,1-1h13c0.553,0,1,0.447,1,1S47.553,37.999,47,37.999z M47,57.999
	h-6c-0.553,0-1-0.447-1-1s0.447-1,1-1h6c0.553,0,1,0.447,1,1S47.553,57.999,47,57.999z"/>
<path class="st0" d="M44,57.999c-0.553,0-1-0.447-1-1v-1c0-0.553,0.447-1,1-1s1,0.447,1,1v1C45,57.552,44.553,57.999,44,57.999z
	 M41,60.999c-0.553,0-1-0.447-1-1v-3c0-0.553,0.447-1,1-1s1,0.447,1,1v3C42,60.552,41.553,60.999,41,60.999z M47,60.999
	c-0.553,0-1-0.447-1-1v-3c0-0.553,0.447-1,1-1s1,0.447,1,1v3C48,60.552,47.553,60.999,47,60.999z"/>
<path class="st0" d="M47,60.999h-6c-0.553,0-1-0.447-1-1s0.447-1,1-1h6c0.553,0,1,0.447,1,1S47.553,60.999,47,60.999z"/>
</svg>
